<svg id="Group_773" data-name="Group 773" xmlns="http://www.w3.org/2000/svg" width="29.333" height="25.307" viewBox="0 0 29.333 25.307">
  <path id="Path_75" data-name="Path 75" d="M11.887,40.553A11.887,11.887,0,1,1,23.774,28.666,11.9,11.9,0,0,1,11.887,40.553Zm0-20.475a8.588,8.588,0,1,0,8.588,8.588,8.588,8.588,0,0,0-8.588-8.588Z" transform="translate(0 -15.246)" fill="#fff"/>
  <path id="Path_76" data-name="Path 76" d="M64.735,18.984a2.065,2.065,0,0,1-1.451-.6L58.2,13.3a2.052,2.052,0,1,1,2.9-2.9l3.637,3.638L78.163.6a2.051,2.051,0,1,1,2.9,2.9L66.186,18.384a2.066,2.066,0,0,1-1.45.6Z" transform="translate(-52.332 -0.003)" fill="#27bec1"/>
</svg>
