<svg xmlns="http://www.w3.org/2000/svg" width="50" height="50" viewBox="0 0 50 50">
  <g id="Group_771" data-name="Group 771" transform="translate(0 0.562)">
    <path id="Path_1112" data-name="Path 1112" d="M25-.562a25,25,0,1,0,25,25A25,25,0,0,0,25-.562Z" transform="translate(0 0)" fill="#27bec1"/>
    <g id="Group_646" data-name="Group 646" transform="translate(11.591 7.937)">
      <path id="Path_1113" data-name="Path 1113" d="M73.108,57.176a4.207,4.207,0,0,1-3.629,3.832,9.456,9.456,0,0,1-2.815.156.716.716,0,0,0-.612.206,7.529,7.529,0,0,1-3.314,1.648,16.168,16.168,0,0,1-5.309.344A35.025,35.025,0,0,1,48.585,61.3c-.354-.125-.719-.227-1.062-.383a1.782,1.782,0,0,1-1.036-2.377,3.093,3.093,0,0,0,.138-.885,21.09,21.09,0,0,1,.968-5.744A41.476,41.476,0,0,1,52.618,41.4c.245-.378.495-.753.747-1.128a1.441,1.441,0,0,0,.271-1.094,1.423,1.423,0,0,1,.4-1.211A11.688,11.688,0,0,1,56.9,35.736,21.856,21.856,0,0,1,62.149,33.5c.568-.162.784-.034,1.12.445.518.737,1.072,1.445,1.645,2.14a.827.827,0,0,1,.094,1.086c-.2.281-.445.529-.679.8.239.148.474.268.679.424a.6.6,0,0,1,.219.75.565.565,0,0,1-.6.36c-.859.031-1.716.07-2.575.1a6.762,6.762,0,0,1-.687-.052.477.477,0,0,0-.18-.013,4.006,4.006,0,0,1-2.174,0,1.086,1.086,0,0,0-1.091.378,4.814,4.814,0,0,0-1.054,2.114,20.11,20.11,0,0,0-.708,5.22c-.034,2.159.016,4.317.034,6.478a2.774,2.774,0,0,0,.039.318c1.823-2.164,3.924-2.934,6.452-1.508.82-.557,1.591-1.14,2.416-1.625a6.091,6.091,0,0,1,3.382-.924,4.519,4.519,0,0,1,4.208,3.216A8.927,8.927,0,0,1,73.108,57.176Z" transform="translate(-46.363 -33.436)" fill="#fff"/>
    </g>
  </g>
</svg>
