<svg xmlns="http://www.w3.org/2000/svg" xmlns:xlink="http://www.w3.org/1999/xlink" width="970.573" height="68.082" viewBox="0 0 970.573 68.082">
  <defs>
    <clipPath id="clip-path">
      <rect id="Rectangle_140" data-name="Rectangle 140" width="59.318" height="58.583" fill="#ffffff"/>
    </clipPath>
  </defs>
  <g id="Group_344" data-name="Group 344" transform="translate(-252 -612.208)">
    <g id="Group_273" data-name="Group 273" transform="translate(721.244 614.586)">
      <path id="Path_102" data-name="Path 102" d="M261.012,37.349c-5.031,6.369.752,10.617,3.984,9.931V33.807A11.426,11.426,0,0,0,261.012,37.349Z" transform="translate(-241.327 -17.347)" fill="#ffffff"/>
      <path id="Path_103" data-name="Path 103" d="M283.7,53.806c5.021-6.356-.764-10.607-3.961-9.936,0,4.362,0,9.617,0,13.467A11.461,11.461,0,0,0,283.7,53.806Z" transform="translate(-249.719 -21.476)" fill="#ffffff"/>
      <path id="Path_104" data-name="Path 104" d="M229.259,5.762V53.41H282.93V5.762ZM252.077,7.83c.616.139,6.547,1.911,16.944-2.067,0,0-12.072,6.84-22.683,3.892Zm7.206,38.92v.161a2.332,2.332,0,0,0,1,2.1c.686.438,5.349,3.074,5.349,3.074a58.67,58.67,0,0,0-9.4-.708,64.2,64.2,0,0,0-9.653.708s4.653-2.641,5.348-3.074a2.045,2.045,0,0,0,1.009-2.094v-.139a25.227,25.227,0,0,1-12.521-4.773,21.809,21.809,0,0,0,12.519,1.3c0-2.408-.005-4.735-.005-4.735a8.938,8.938,0,0,1-2.946-.32c-2.7-.653-4.648-3.007-5.232-3.677-.462-.53-.669-.84-1.752-.381a9.382,9.382,0,0,0-4.477,4.136s.034-1.438,3.335-5.608A15.421,15.421,0,0,0,244,28.18a14.572,14.572,0,0,1,5.91-7.554c1.737-1.237.129-1.283-.59-1.277-.548,0-5.178-.288-12.957,6.386,0,0,6.329-8.005,16.56-8.832l0-3.212a29.638,29.638,0,0,0-8.289,1.681,25.1,25.1,0,0,0-7.409,4.231l.963-9.017c4.525.326,10.278,1.062,15.186,1.062h5.477c4.894,0,10.7-.736,15.226-1.062l.963,9.017a26.135,26.135,0,0,0-7.713-4.357,30.23,30.23,0,0,0-8.047-1.555l0,3.206a25.25,25.25,0,0,1,12.552,4.777,21.808,21.808,0,0,0-12.55-1.3v4.7a8.49,8.49,0,0,1,2.924.323c2.7.653,4.649,3.007,5.233,3.677.462.53.669.84,1.751.381a9.384,9.384,0,0,0,4.477-4.136s-.035,1.438-3.336,5.608a13.764,13.764,0,0,0-2.148,4.32,15.161,15.161,0,0,1-5.911,7.781c-1.736,1.236-.129,1.282.591,1.277.548,0,5.178.288,12.956-6.386,0,0-6.32,7.993-16.536,8.83Z" transform="translate(-229.259 -5.762)" fill="#ffffff"/>
      <path id="Path_105" data-name="Path 105" d="M251.375,89.99v6.754l-.282-.83-1.918-5.923h-2.659v13.088h2.62v-6.9l.283.919,1.779,5.978h2.8V89.99Z" transform="translate(-236.253 -40.554)" fill="#ffffff"/>
      <path id="Path_106" data-name="Path 106" d="M311.789,89.99v6.754l-.283-.83-1.917-5.923H306.93v13.088h2.62v-6.9l.283.919,1.778,5.978h2.8V89.99Z" transform="translate(-260.737 -40.554)" fill="#ffffff"/>
      <rect id="Rectangle_139" data-name="Rectangle 139" width="3.19" height="13.088" transform="translate(33.881 49.436)" fill="#ffffff"/>
      <path id="Path_107" data-name="Path 107" d="M296.039,100.822a5.322,5.322,0,0,1-.1-1.485V93.091c0-.955.091-1.211.17-1.326a.621.621,0,0,1,.536-.273.55.55,0,0,1,.56.352,4.185,4.185,0,0,1,.113,1.247v6.147a6.607,6.607,0,0,1-.106,1.539.569.569,0,0,1-.593.415.551.551,0,0,1-.578-.37M294.7,89.877a3.053,3.053,0,0,0-1.861,2.482c-.062.553-.094,1.508-.094,2.839v2.289a28.179,28.179,0,0,0,.1,2.875,3.071,3.071,0,0,0,1.906,2.466,4.923,4.923,0,0,0,1.875.341,4.8,4.8,0,0,0,1.925-.36,3.052,3.052,0,0,0,1.86-2.483c.062-.551.094-1.507.094-2.838V95.2a28.32,28.32,0,0,0-.1-2.875,3.075,3.075,0,0,0-1.907-2.466,4.914,4.914,0,0,0-1.874-.34,4.79,4.79,0,0,0-1.925.36" transform="translate(-254.987 -40.362)" fill="#ffffff"/>
      <path id="Path_108" data-name="Path 108" d="M264.2,92.625l.648,5.967h-1.275Zm-2.283-2.635-1.977,13.088h3.3l.21-2.4h1.51l.187,2.4H268.4L266.215,89.99Z" transform="translate(-241.694 -40.554)" fill="#ffffff"/>
      <path id="Path_109" data-name="Path 109" d="M229.259,89.99v2.388h2.29v10.7h3.19v-10.7h2.294V89.99Z" transform="translate(-229.259 -40.554)" fill="#ffffff"/>
      <path id="Path_110" data-name="Path 110" d="M272.149,89.99v2.388h2.29v10.7h3.19v-10.7h2.294V89.99Z" transform="translate(-246.641 -40.554)" fill="#ffffff"/>
    </g>
    <g id="Group_274" data-name="Group 274" transform="translate(564.131 636.86)">
      <path id="Pfad_56" data-name="Pfad 56" d="M480.639,62.1l-3.99-6.55-3.792,6.55h-5.272l6.476-9.825-5.709-8.643h5.319l3.177,5.272,3.078-5.272h5.294l-5.639,8.741,6.4,9.726ZM399.787,52.23a4.4,4.4,0,0,1,2.291,1.612,4.56,4.56,0,0,1,.763,2.672,6.134,6.134,0,0,1-.418,2.2,4.289,4.289,0,0,1-1.282,1.81,6.132,6.132,0,0,1-1.4.936,6.362,6.362,0,0,1-1.416.468,8.26,8.26,0,0,1-1.515.16q-.788.012-1.7.012h-9.5V50.678h9.945a2.747,2.747,0,0,0,1.329-.3,1.2,1.2,0,0,0,.541-1.158,1.567,1.567,0,0,0-.148-.727,1.114,1.114,0,0,0-.406-.443,1.543,1.543,0,0,0-.591-.209,4.767,4.767,0,0,0-.7-.05h-2.87V43.66h2.23q.837,0,1.639.037a8.724,8.724,0,0,1,1.55.209,5.565,5.565,0,0,1,1.425.541,4.753,4.753,0,0,1,1.268,1.034,4.091,4.091,0,0,1,.865,1.39,4.721,4.721,0,0,1,.271,1.613,4.411,4.411,0,0,1-.554,2.179,3.9,3.9,0,0,1-1.613,1.567Zm-9.96,5.762h6.293a3.9,3.9,0,0,0,.837-.086,2.128,2.128,0,0,0,.7-.285,1.433,1.433,0,0,0,.492-.541,1.812,1.812,0,0,0,.185-.861,1.61,1.61,0,0,0-.185-.813,1.29,1.29,0,0,0-.492-.492,2.092,2.092,0,0,0-.713-.234,5.49,5.49,0,0,0-.824-.062h-6.3v3.375ZM413.381,62.1a9.526,9.526,0,0,1-6.575-2.6,9.114,9.114,0,0,1-2.032-2.881,8.6,8.6,0,0,1-.751-3.583,10.173,10.173,0,0,1,.712-3.792,7.124,7.124,0,0,1,1.158-1.97,8.921,8.921,0,0,1,3.287-2.733,9.678,9.678,0,0,1,4.225-.911,9.541,9.541,0,0,1,3.656.7,9.319,9.319,0,0,1,2.992,1.945,9.161,9.161,0,0,1,2.018,2.93,9.418,9.418,0,0,1,0,7.314,9.157,9.157,0,0,1-2.019,2.93,9.286,9.286,0,0,1-3,1.945,9.632,9.632,0,0,1-3.669.7Zm.025-14.5a4.643,4.643,0,0,0-1.982.418,4.58,4.58,0,0,0-1.527,1.134,5.19,5.19,0,0,0-.973,1.65,5.726,5.726,0,0,0-.345,1.995,6,6,0,0,0,.345,2.043,5.018,5.018,0,0,0,.985,1.675,4.838,4.838,0,0,0,1.551,1.145,4.666,4.666,0,0,0,2.019.427,4.393,4.393,0,0,0,1.946-.427A4.685,4.685,0,0,0,416.94,56.5a5.309,5.309,0,0,0,.973-1.674,5.687,5.687,0,0,0,.345-1.957,5.754,5.754,0,0,0-.345-1.982,5.344,5.344,0,0,0-.985-1.687,4.71,4.71,0,0,0-1.537-1.171,4.529,4.529,0,0,0-1.983-.427Zm20.287,14.5-3.99-6.55-3.792,6.55h-5.272l6.476-9.825-5.709-8.643h5.319l3.176,5.272,3.078-5.272,8.58.049c.492.006.989.008,1.49.025a11.292,11.292,0,0,1,1.489.147,7.068,7.068,0,0,1,1.425.394,5.437,5.437,0,0,1,1.305.739,5.9,5.9,0,0,1,1.7,2.266,7.031,7.031,0,0,1,.566,2.782,6.7,6.7,0,0,1-.308,2.031,5.7,5.7,0,0,1-.9,1.748,5.353,5.353,0,0,1-1.441,1.305,5.138,5.138,0,0,1-1.933.7l4.974,6.279h-5.364l-6.575-9.185h3.964a5.185,5.185,0,0,0,1.207-.135,2.6,2.6,0,0,0,.985-.456,2.187,2.187,0,0,0,.652-.813,2.8,2.8,0,0,0,.233-1.205,2.54,2.54,0,0,0-.246-1.17,2.112,2.112,0,0,0-.665-.776,2.834,2.834,0,0,0-.973-.427A4.809,4.809,0,0,0,442,47.8h-1.746l-4.7.049-2.928,4.53,6.4,9.726Zm26.633,0a9.526,9.526,0,0,1-6.574-2.6,9.115,9.115,0,0,1-2.032-2.881,8.6,8.6,0,0,1-.751-3.583,10.177,10.177,0,0,1,.712-3.792,7.124,7.124,0,0,1,1.158-1.97,8.918,8.918,0,0,1,3.287-2.733,9.676,9.676,0,0,1,4.224-.911,9.543,9.543,0,0,1,3.657.7A9.318,9.318,0,0,1,467,46.283a9.158,9.158,0,0,1,2.019,2.93,9.419,9.419,0,0,1,0,7.314A9.153,9.153,0,0,1,467,59.457a9.28,9.28,0,0,1-3,1.945,9.634,9.634,0,0,1-3.669.7Zm.021-14.5a4.642,4.642,0,0,0-1.982.418,4.582,4.582,0,0,0-1.523,1.134,5.194,5.194,0,0,0-.972,1.65,5.72,5.72,0,0,0-.345,1.995,6,6,0,0,0,.345,2.043,5.019,5.019,0,0,0,.987,1.674,4.837,4.837,0,0,0,1.551,1.145,4.664,4.664,0,0,0,2.019.427,4.389,4.389,0,0,0,1.945-.427,4.679,4.679,0,0,0,1.514-1.158,5.3,5.3,0,0,0,.972-1.674,5.682,5.682,0,0,0,.345-1.957,5.753,5.753,0,0,0-.345-1.982,5.343,5.343,0,0,0-.985-1.687,4.706,4.706,0,0,0-1.539-1.169,4.527,4.527,0,0,0-1.982-.427Z" transform="translate(-385.609 -43.58)" fill="#ffffff"/>
      <path id="Pfad_57" data-name="Pfad 57" d="M385.609,43.542h4.218v4.217h-4.218Z" transform="translate(-385.609 -43.542)" fill="#ffffff" fill-rule="evenodd"/>
    </g>
    <g id="Group_272" data-name="Group 272" transform="translate(252 612.208)">
      <path id="Path_111" data-name="Path 111" d="M39.641,28.8V26.269c.031-.263.073-.526.092-.79a24.547,24.547,0,0,1,.919-5.121A26.3,26.3,0,0,1,64.185,1.406a23.942,23.942,0,0,1,8.21.791A25.944,25.944,0,0,1,90.517,18.748a22.975,22.975,0,0,1,1.34,5.707c.066.6.13,1.209.2,1.814V28.8c-.017.109-.043.218-.051.328a26.563,26.563,0,0,1-.633,4.314,25.939,25.939,0,0,1-10.36,15.408A25.679,25.679,0,0,1,66.233,53.7a25.092,25.092,0,0,1-6.446-.71,25.988,25.988,0,0,1-13.679-8.279,25.648,25.648,0,0,1-5.358-9.688,24.339,24.339,0,0,1-.911-4.441C39.776,29.987,39.707,29.392,39.641,28.8Zm26.2,19.2a20.505,20.505,0,1,0-14.593-6.121,20.463,20.463,0,0,0,14.593,6.121Z" transform="translate(-20.423 -1.335)" fill="#ffffff"/>
      <path id="Path_112" data-name="Path 112" d="M72.224,39.981a4.742,4.742,0,0,1,1.1-2.218c.241-.3.471-.611.713-.912a1.207,1.207,0,0,0,.113-1.483,13.341,13.341,0,0,0-.968-1.295,4.61,4.61,0,0,1-1.13-2.326.107.107,0,0,1,0-.025c.1-.655-.3-.978-.8-1.294a4.66,4.66,0,0,1-1.643-1.943,3.6,3.6,0,0,1-.2-1.464c-.084-1.44-.139-2.882-.235-4.324-.111.48-.2.965-.337,1.439A5.359,5.359,0,0,1,67.622,26.4a2.925,2.925,0,0,1-2.577.791c-.211-.016-.417-.094-.628-.127A2.244,2.244,0,0,1,62.9,26.018a5.482,5.482,0,0,1-.872-2.444c-.055-.407-.077-.819-.117-1.251-.234-.073-.563-.069-.506-.477.044-.319.17-.445.513-.523.233-.715.408-1.415.688-2.07a3.5,3.5,0,0,1,2.041-1.993,2.913,2.913,0,0,1,1.322-.042c.213.018.425.076.638.076a1.927,1.927,0,0,1,1.611,1,6.051,6.051,0,0,1,.932,2.666c.017.118.037.235.054.34a8.361,8.361,0,0,1,.929.092c.359.075.455.264.372.655a109.269,109.269,0,0,1,13.037,2.595c.453-.423.5-.426,1.244-.095.067-.209.124-.419.2-.621a2.8,2.8,0,0,1,2.01-1.924,4.942,4.942,0,0,1,1.292.069,1.776,1.776,0,0,1,1.262.593,3.276,3.276,0,0,1,.9,1.734,6.356,6.356,0,0,1-1.458,5.052,1.808,1.808,0,0,1-1.213.718,4.063,4.063,0,0,1-.886-.076c-.2-.023-.388-.075-.583-.092a1.4,1.4,0,0,1-1.125-.8c-.311-.573-.55-1.184-.817-1.772-.01.019-.056.093-.092.172-.247.537-.519,1.064-.73,1.615a3.348,3.348,0,0,1-1.354,1.569,5.376,5.376,0,0,1-2.137.836,15.168,15.168,0,0,1-.967,4.037,2.432,2.432,0,0,0,.293,2.158,7.952,7.952,0,0,1,3.688,1.732,7.571,7.571,0,0,1,1.223,1.349,2.215,2.215,0,0,1,.032,2.515c-1.127,2.04-2.22,4.1-3.325,6.151-.06.112-.1.235-.17.409a1.452,1.452,0,0,0,.391.244c.39.092.79.136,1.183.216a1.189,1.189,0,0,1,.91.515,1.592,1.592,0,0,1-.4.151c-.992.079-1.986.145-2.979.213A1.848,1.848,0,0,1,79.6,51.3c-.393-.045-.55-.236-.474-.629.071-.368.179-.729.278-1.092q.492-1.818.988-3.635a11.008,11.008,0,0,1,1.484-3.506.336.336,0,0,0,.024-.09,24.32,24.32,0,0,1-5.629-1.272c-.632.74-1.274,1.477-1.9,2.227-1.087,1.3-2.15,2.614-3.256,3.894a3.625,3.625,0,0,1-1.047.808c-.788.413-1.61.761-2.42,1.131-.346.158-.433.278-.306.64.158.449.361.883.557,1.318.035.078.134.126.2.193.09.094.176.192.3.329-.123.071-.2.151-.27.149-.41-.012-.821-.032-1.229-.074a.828.828,0,0,1-.628-.443,8.537,8.537,0,0,1-.468-.768.89.89,0,0,1-.077-.563,3.088,3.088,0,0,1,.389-.855,9.856,9.856,0,0,0,.983-1.8,1.944,1.944,0,0,1,1.627-1.141.676.676,0,0,0,.419-.188,5.05,5.05,0,0,0,.664-1.2,13.228,13.228,0,0,1,1.922-4.15C71.871,40.386,72.04,40.2,72.224,39.981Zm5.014-14.312a4.462,4.462,0,0,0,.006.63,3.005,3.005,0,0,0,.17.564,1.644,1.644,0,0,1,.066,1.351.505.505,0,0,0-.028.151c-.048.354-.1.7-.588.692l.036.585c.113.073.213.139.314.2.35.219.444.183.779-.046a2.254,2.254,0,0,1,.825-.36c1.04-.2,2.088-.35,3.055-.508a11.367,11.367,0,0,1,.559-1,8.574,8.574,0,0,0,1.205-2.6,73.121,73.121,0,0,0-13.191-2.767l.687,4.73a14.021,14.021,0,0,1,2.821,2.061l.407-.552c-.12-.207-.247-.426-.374-.645a4.306,4.306,0,0,1-.326-.579,1.627,1.627,0,0,1,1.014-2.336,3.19,3.19,0,0,1,2.562.425Z" transform="translate(-29.24 -7.749)" fill="#ffffff"/>
      <path id="Path_113" data-name="Path 113" d="M7.327,97.834h3.5a10.08,10.08,0,0,1,1.55.087,2.277,2.277,0,0,1,.914.361,2.249,2.249,0,0,1,.672.732,1.981,1.981,0,0,1,.269,1.024,2.077,2.077,0,0,1-1.231,1.9,2.3,2.3,0,0,1,1.231.794,2.109,2.109,0,0,1,.43,1.32,2.6,2.6,0,0,1-.278,1.162,2.342,2.342,0,0,1-.759.9,2.507,2.507,0,0,1-1.186.415q-.442.048-2.133.06H7.327Zm1.768,1.458v2.025h1.159q1.033,0,1.284-.03a1.168,1.168,0,0,0,.714-.314.924.924,0,0,0,.26-.684.961.961,0,0,0-.224-.66,1.014,1.014,0,0,0-.666-.307q-.263-.03-1.511-.03Zm0,3.483v2.341h1.637a8.022,8.022,0,0,0,1.213-.054,1.1,1.1,0,0,0,.642-.35,1.076,1.076,0,0,0,.248-.744,1.142,1.142,0,0,0-.191-.669,1.079,1.079,0,0,0-.553-.4,6,6,0,0,0-1.568-.125Z" transform="translate(-7.327 -41.099)" fill="#ffffff"/>
      <path id="Path_114" data-name="Path 114" d="M23.2,108.14H21.517V101.8h1.559v.9a2.711,2.711,0,0,1,.72-.842,1.326,1.326,0,0,1,.726-.2,2.132,2.132,0,0,1,1.105.317l-.52,1.463a1.474,1.474,0,0,0-.789-.275.931.931,0,0,0-.6.194,1.325,1.325,0,0,0-.385.7,9.978,9.978,0,0,0-.14,2.127Z" transform="translate(-13.078 -42.647)" fill="#ffffff"/>
      <path id="Path_115" data-name="Path 115" d="M32.465,106.119l1.673.281a2.743,2.743,0,0,1-1.018,1.4,2.992,2.992,0,0,1-1.741.481,2.838,2.838,0,0,1-2.449-1.081,3.632,3.632,0,0,1-.627-2.186,3.5,3.5,0,0,1,.824-2.47,2.715,2.715,0,0,1,2.085-.893,2.816,2.816,0,0,1,2.234.935,4.136,4.136,0,0,1,.782,2.864H30.022a1.7,1.7,0,0,0,.406,1.162,1.271,1.271,0,0,0,.968.415,1.028,1.028,0,0,0,.663-.215A1.329,1.329,0,0,0,32.465,106.119Zm.1-1.7a1.616,1.616,0,0,0-.376-1.108,1.211,1.211,0,0,0-1.78.021,1.549,1.549,0,0,0-.352,1.087Z" transform="translate(-15.825 -42.645)" fill="#ffffff"/>
      <path id="Path_116" data-name="Path 116" d="M41.008,103.726l-1.523-.275a2.373,2.373,0,0,1,.884-1.362,3.233,3.233,0,0,1,1.864-.442,4.014,4.014,0,0,1,1.673.266,1.669,1.669,0,0,1,.774.675,3.459,3.459,0,0,1,.224,1.5l-.018,1.959a6.81,6.81,0,0,0,.081,1.234,3.593,3.593,0,0,0,.3.851H43.607q-.066-.167-.161-.5-.042-.149-.06-.2a3.026,3.026,0,0,1-.92.627,2.634,2.634,0,0,1-1.045.209,2.162,2.162,0,0,1-1.544-.532,1.767,1.767,0,0,1-.565-1.344,1.8,1.8,0,0,1,.257-.959,1.677,1.677,0,0,1,.72-.645,5.618,5.618,0,0,1,1.335-.391,9.126,9.126,0,0,0,1.631-.412v-.167a.869.869,0,0,0-.239-.69,1.432,1.432,0,0,0-.9-.206,1.2,1.2,0,0,0-.7.176,1.224,1.224,0,0,0-.406.619Zm2.246,1.362a10.513,10.513,0,0,1-1.021.257,3.085,3.085,0,0,0-.914.293.7.7,0,0,0-.329.591.822.822,0,0,0,.263.609.918.918,0,0,0,.669.257,1.451,1.451,0,0,0,.866-.3,1.051,1.051,0,0,0,.4-.555,3.314,3.314,0,0,0,.066-.818Z" transform="translate(-20.289 -42.642)" fill="#ffffff"/>
      <path id="Path_117" data-name="Path 117" d="M50.881,106.593V97.835H52.56v4.648l1.965-2.234h2.067l-2.168,2.318,2.324,4.026h-1.81l-1.595-2.85-.782.818v2.031Z" transform="translate(-24.978 -41.1)" fill="#ffffff"/>
      <path id="Path_118" data-name="Path 118" d="M61.908,99.389V97.835h1.679v1.553Zm0,7.2v-6.344h1.679v6.344Z" transform="translate(-29.447 -41.1)" fill="#ffffff"/>
      <path id="Path_119" data-name="Path 119" d="M72.871,108.14H71.193V104.9a5,5,0,0,0-.108-1.329.934.934,0,0,0-.349-.469,1,1,0,0,0-.582-.167,1.345,1.345,0,0,0-.783.239,1.2,1.2,0,0,0-.475.633,5.464,5.464,0,0,0-.129,1.458v2.873H67.089V101.8h1.559v.932a2.6,2.6,0,0,1,3.106-.875,1.7,1.7,0,0,1,.7.511,1.855,1.855,0,0,1,.329.705,5.247,5.247,0,0,1,.093,1.129Z" transform="translate(-31.547 -42.647)" fill="#ffffff"/>
      <path id="Path_120" data-name="Path 120" d="M78.743,108.558l1.918.233a.655.655,0,0,0,.221.46,1.262,1.262,0,0,0,.753.179,1.956,1.956,0,0,0,.985-.2.815.815,0,0,0,.335-.424,2.555,2.555,0,0,0,.078-.77v-.926a2.272,2.272,0,0,1-1.9,1.028,2.338,2.338,0,0,1-2.025-1.081,3.675,3.675,0,0,1-.585-2.127,3.5,3.5,0,0,1,.768-2.437,2.477,2.477,0,0,1,1.909-.842,2.324,2.324,0,0,1,1.941,1.034v-.89H84.71v5.693a5.665,5.665,0,0,1-.185,1.679,2.08,2.08,0,0,1-.52.872,2.3,2.3,0,0,1-.893.5,4.7,4.7,0,0,1-1.412.179,3.657,3.657,0,0,1-2.288-.552,1.734,1.734,0,0,1-.675-1.4C78.737,108.705,78.739,108.637,78.743,108.558Zm1.5-3.722a2.288,2.288,0,0,0,.391,1.478,1.21,1.21,0,0,0,.965.469,1.333,1.333,0,0,0,1.039-.481,2.093,2.093,0,0,0,.424-1.424,2.221,2.221,0,0,0-.406-1.464,1.289,1.289,0,0,0-1.027-.478,1.24,1.24,0,0,0-.995.469,2.2,2.2,0,0,0-.391,1.431Z" transform="translate(-36.177 -42.647)" fill="#ffffff"/>
      <path id="Path_121" data-name="Path 121" d="M96.393,106.593V97.835h2.646l1.589,5.974,1.571-5.974h2.652v8.757h-1.643V99.7l-1.738,6.894h-1.7L98.035,99.7v6.894Z" transform="translate(-43.423 -41.1)" fill="#ffffff"/>
      <path id="Path_122" data-name="Path 122" d="M117.183,108.238v-.95a2.444,2.444,0,0,1-.911.8,2.554,2.554,0,0,1-1.192.293,2.331,2.331,0,0,1-1.147-.281,1.658,1.658,0,0,1-.735-.789,3.512,3.512,0,0,1-.227-1.4v-4.014h1.679v2.915a8.072,8.072,0,0,0,.093,1.64.893.893,0,0,0,.338.478,1.038,1.038,0,0,0,.621.176,1.322,1.322,0,0,0,.771-.236,1.2,1.2,0,0,0,.466-.586,6.792,6.792,0,0,0,.125-1.712v-2.676h1.679v6.344Z" transform="translate(-50.141 -42.745)" fill="#ffffff"/>
      <path id="Path_123" data-name="Path 123" d="M124.091,106.323l1.685-.257a1.233,1.233,0,0,0,.436.744,1.473,1.473,0,0,0,.92.254,1.659,1.659,0,0,0,.98-.239.533.533,0,0,0,.221-.448.441.441,0,0,0-.12-.317,1.344,1.344,0,0,0-.561-.221,9.044,9.044,0,0,1-2.575-.818,1.634,1.634,0,0,1-.753-1.428,1.76,1.76,0,0,1,.651-1.386,3.04,3.04,0,0,1,2.019-.562,3.521,3.521,0,0,1,1.935.424,2.168,2.168,0,0,1,.872,1.254l-1.583.293a.977.977,0,0,0-.385-.567,1.407,1.407,0,0,0-.809-.2,1.825,1.825,0,0,0-.95.185.4.4,0,0,0-.191.341.371.371,0,0,0,.167.3,6.308,6.308,0,0,0,1.568.472,4.673,4.673,0,0,1,1.873.747,1.552,1.552,0,0,1,.526,1.249,1.917,1.917,0,0,1-.729,1.5,3.227,3.227,0,0,1-2.157.627,3.539,3.539,0,0,1-2.052-.526A2.421,2.421,0,0,1,124.091,106.323Z" transform="translate(-54.648 -42.64)" fill="#ffffff"/>
      <path id="Path_124" data-name="Path 124" d="M141.291,103.669l-1.655.3a1.2,1.2,0,0,0-.379-.747,1.148,1.148,0,0,0-.768-.251,1.255,1.255,0,0,0-1,.433,2.22,2.22,0,0,0-.373,1.449,2.566,2.566,0,0,0,.379,1.595,1.246,1.246,0,0,0,1.018.466,1.131,1.131,0,0,0,.783-.272,1.636,1.636,0,0,0,.43-.935l1.649.281a2.926,2.926,0,0,1-.985,1.714,3.051,3.051,0,0,1-1.954.58,2.9,2.9,0,0,1-2.219-.878,4,4,0,0,1,0-4.878,2.949,2.949,0,0,1,2.246-.875,3.064,3.064,0,0,1,1.843.5A2.768,2.768,0,0,1,141.291,103.669Z" transform="translate(-59.227 -42.644)" fill="#ffffff"/>
      <path id="Path_125" data-name="Path 125" d="M146.938,106.593V97.835h1.679v8.757Z" transform="translate(-63.908 -41.1)" fill="#ffffff"/>
      <path id="Path_126" data-name="Path 126" d="M155.475,106.119l1.673.281a2.746,2.746,0,0,1-1.019,1.4,2.991,2.991,0,0,1-1.741.481,2.839,2.839,0,0,1-2.449-1.081,3.633,3.633,0,0,1-.627-2.186,3.5,3.5,0,0,1,.824-2.47,2.715,2.715,0,0,1,2.085-.893,2.816,2.816,0,0,1,2.234.935,4.136,4.136,0,0,1,.783,2.864h-4.205a1.7,1.7,0,0,0,.406,1.162,1.271,1.271,0,0,0,.968.415,1.027,1.027,0,0,0,.663-.215,1.328,1.328,0,0,0,.406-.693Zm.1-1.7a1.619,1.619,0,0,0-.376-1.108,1.155,1.155,0,0,0-.872-.379,1.166,1.166,0,0,0-.908.4,1.55,1.55,0,0,0-.353,1.087Z" transform="translate(-65.678 -42.645)" fill="#ffffff"/>
    </g>
    <g id="Group_276" data-name="Group 276" transform="translate(842.745 627.942)">
      <path id="Path_127" data-name="Path 127" d="M887.737,67.737c-.177-.145-.464-.157-.478-.455a19.7,19.7,0,0,1-1.231-2.055c-.429-.719-.791-1.475-1.251-2.182a22.016,22.016,0,0,1-1.275-2.218,6.888,6.888,0,0,1-.266-.745l.284-.15a4.559,4.559,0,0,1,1.386.572l.751-.757a3.6,3.6,0,0,0,1.452.167l.182.182c-.026.516-.455.858-.651,1.342.49.2.857-.265,1.243-.187.613.269.78.861,1.108,1.314.527.727.905,1.551,1.443,2.276a6.518,6.518,0,0,1,.4.809c.279.517.563,1.032.862,1.538a2.343,2.343,0,0,0,.366.374c.1-.124.21-.2.231-.3a6.184,6.184,0,0,0,.26-1.426c-.027-1.161,0-2.323-.014-3.485,0-.228.108-.488-.117-.683.22-.557-.019-1.219.413-1.761.164,0,.344.012.523,0a1.8,1.8,0,0,0,.755-.1.929.929,0,0,1,.707.02.986.986,0,0,0,.455.077c.183-.006.41-.135.536-.064.206.115.4.024.6.083l.288.3V76.516l-.538.4h-3.406a2.325,2.325,0,0,1-.807-1.072c-.448-.813-.921-1.613-1.369-2.426q-.564-1.023-1.157-2.031c-.228-.39-.444-.793-.669-1.188-.214-.377-.39-.777-.617-1.238a5.043,5.043,0,0,0-.178-1.82Zm5.924,3.931a4.627,4.627,0,0,0,1.2.781,1.966,1.966,0,0,0,1.368.264c-.135-.395-.283-.746-.37-1.111a.4.4,0,0,0-.287-.323c-.261.156-.258.553-.625.63-.368-.082-.514-.412-.679-.7-.034-.353.024-.695-.042-1.088a1.732,1.732,0,0,0-.84,1.005Zm-2.536-.115c.515-.471-.125-.872-.064-1.167l-.373-.374c-.267.238.093.689-.2.894.061.389.322.512.64.646Zm3.946-6.052-.207.42c.062.208.113.39.173.569.006.019.07.018.137.033l.187-.354c-.045-.13-.076-.239-.121-.342s-.1-.2-.169-.326Z" transform="translate(-834.179 -40.903)" fill="#ffffff"/>
      <path id="Path_128" data-name="Path 128" d="M934.788,76.693l-.454.269h-3.565c-.242-.4-.5-.825-.752-1.256-.331-.576-.646-1.161-.978-1.736-.447-.773-.837-1.578-1.332-2.326a12.579,12.579,0,0,1-.656-1.256c-.147-.288-.362-.531-.487-.838a2.662,2.662,0,0,1-.225-.888c-.026-.489-.1-.977-.157-1.574l-.261.677a6.643,6.643,0,0,1-1.541-2.081c-.438-.755-.811-1.541-1.223-2.308-.2-.371-.515-.68-.719-1.05a9.141,9.141,0,0,1-1.054-2.132c0-.017-.028-.029-.042-.044a.324.324,0,0,1,.436-.175c.2.069.394.132.582.219s.364.2.55.3a1.913,1.913,0,0,0,.259.091l.613-.628h1.648c.2.266,0,.49-.1.7a8.207,8.207,0,0,1-.509.814c.231.1.4.137.579-.012a.959.959,0,0,1,.74-.152,3.466,3.466,0,0,1,.957,1.283c.173.3.4.567.6.854.151.221.3.445.432.678.2.346.361.71.568,1.048.448.731.8,1.518,1.323,2.206a.435.435,0,0,1,.04.158c.335.043.273-.3.409-.392a12.588,12.588,0,0,0,.161-3.026c.013-1,.007-2,0-3a3.794,3.794,0,0,1,.28-1.164c.9,0,1.776,0,2.652,0a3.15,3.15,0,0,0,.513-.09l.558.134.159.307Zm-3.31-5.515a1.914,1.914,0,0,0,.82,1.009,2.3,2.3,0,0,0,.664.31c.435.107.834.424,1.308.277.177-.387-.208-.615-.23-.948-.011-.173-.168-.336-.312-.6l-.618.647a.65.65,0,0,1-.661-.469V70.247h-.311c-.245.281-.584.488-.66.931Zm-2.66-1.058a3.24,3.24,0,0,0-.142.486,2.381,2.381,0,0,0-.006.415l.29.42h.4l.134-.285-.371-1.035Zm4.348-4.668-.141.368.085.622.295.143a1.29,1.29,0,0,0-.238-1.132Z" transform="translate(-849.622 -40.95)" fill="#ffffff"/>
      <path id="Path_129" data-name="Path 129" d="M954.9,33.761,955,33.54a1.035,1.035,0,0,1,.771-.148,6.377,6.377,0,0,1,1.366,1.853,2.307,2.307,0,0,0,.6.831l.308-.016c-.084-.4.1-.793-.131-1.173-.055-.089-.008-.24-.008-.362V32.659l.5-1.158a.96.96,0,0,0-.363-.862v-2l.345-.253a7.686,7.686,0,0,1,3.04-.233,3.035,3.035,0,0,1,.628.2V44.521a2.17,2.17,0,0,0-1.012.205,3.36,3.36,0,0,1-.977.15c-.447.024-.9,0-1.345.008a.829.829,0,0,1-.633-.248,3.984,3.984,0,0,1-.566-.805c-.5-.819-1.015-1.623-1.568-2.5-.1-.489.189-1.12-.22-1.629-.055-.038-.084-.073-.119-.079a1.547,1.547,0,0,0-.229,0,8.619,8.619,0,0,1-1.544-2.136c-.213-.494-.542-.957-.79-1.448a6.153,6.153,0,0,1-.283-.861,1.448,1.448,0,0,0-.163-.42c-.213-.284-.47-.537-.683-.821a8.163,8.163,0,0,1-.854-1.237c-.37-.752-.79-1.469-1.207-2.193-.254-.441-.527-.878-.747-1.339a8.826,8.826,0,0,1-.321-.93c.329.061.607-.124.851.123a2.327,2.327,0,0,0,1.224-.13.7.7,0,0,1,.385-.109h1.189c.636.158.784.63,1.053.975a6.417,6.417,0,0,1,.684,1.122,8.148,8.148,0,0,1,.231.821,1.071,1.071,0,0,1-.008.792,1.468,1.468,0,0,0-.033.716,9.476,9.476,0,0,0,.269,1.049.96.96,0,0,0,.123.21Zm6.045-2.869a1.238,1.238,0,0,0,.091-.807l-.207-.149c-.35.178-.36.516-.485.783l.2.353Zm-1.619,7.85-.489.335.226.392.557-.517Zm-5.865-5.306v-.19l-.162.028Z" transform="translate(-860.745 -28.077)" fill="#ffffff"/>
      <path id="Path_130" data-name="Path 130" d="M951.224,67.3h-.262a3.033,3.033,0,0,0-1.865-.931l-.245.121a2.586,2.586,0,0,0-.134.632.562.562,0,0,0,.351.549c.335.126.671.249,1.01.366.161.056.328.094.545.155a1.762,1.762,0,0,1,.658,1.253,4.013,4.013,0,0,0,.258.87c.243.592.507,1.176.777,1.756a3.848,3.848,0,0,0,.314.482h1.749l1.169.7c.2.108.3-.072.428-.192.2-.011.408-.068.56.19a10.592,10.592,0,0,1-.02,1.6,7.387,7.387,0,0,0-.1,1.236,2.508,2.508,0,0,0,.119.476l-.4.161.1.118c-.488,0-.977-.024-1.462.007a2.064,2.064,0,0,1-1.112-.27,2.5,2.5,0,0,0-1.463-.342c-.31-.241-.169-.651-.346-.91l-.415-.322-.2-1.358-.27.254c-.336-.457-.159-1.216-.848-1.436a.933.933,0,0,1-.268.09,1.465,1.465,0,0,0-.914.312.723.723,0,0,1-.65.171c-.389-.18-.364-.618-.539-.929a6.474,6.474,0,0,1-.272-.8,3.7,3.7,0,0,1-.209-.763,4.246,4.246,0,0,1,.027-1.309c.084-.5.368-.99.078-1.536a1.931,1.931,0,0,1-.128-.858,1.864,1.864,0,0,1,.123-.74,9.748,9.748,0,0,0,.325-1.328,5.357,5.357,0,0,1,.515-1.2,5.24,5.24,0,0,1,.995-1.482c.205-.181.434-.335.706-.543h.822c.245-.281.325-.64.609-.878a2.74,2.74,0,0,1,.964-.488,7.87,7.87,0,0,0,1.705-.455.131.131,0,0,1,.053-.018,9.445,9.445,0,0,1,2.39-.1c.5.088.993.038,1.481.107a6.486,6.486,0,0,1,1.706.453c.295.129.446.391.68.561a1.7,1.7,0,0,1-.243.941.765.765,0,0,1-.305.355c-.561.312-1.136.6-1.7.889-.29.34-.444.81-.928.957a4.816,4.816,0,0,0-2.406.024c-.219.05-.424.164-.644.214a3.563,3.563,0,0,0-1.981,1.272A5.379,5.379,0,0,0,951.224,67.3Zm4.436,7.7v-.345h-.2v.345Z" transform="translate(-860.115 -40.84)" fill="#ffffff"/>
      <path id="Path_131" data-name="Path 131" d="M801.245,39.264l.229-1-.507-.664c0-.653,0-1.3,0-1.955,0-.3.209-.56.124-.867s.1-.574.133-.866a4.537,4.537,0,0,1,.235-.817,1.643,1.643,0,0,1,.152-.425,19.257,19.257,0,0,1,1.278-1.925,8.612,8.612,0,0,1,1.806-1.4,6.754,6.754,0,0,1,.915-.443,4.976,4.976,0,0,1,.96-.343c.053-.014.1-.076.148-.082a9.059,9.059,0,0,0,1.17-.137,7.612,7.612,0,0,1,1.481-.118,2.971,2.971,0,0,0,.579-.157l.322.437a20.284,20.284,0,0,1-.149,3.606,1.157,1.157,0,0,1-.738.293,6.208,6.208,0,0,0-2.047.519,4.5,4.5,0,0,0-1.054.563,3.522,3.522,0,0,0-.787,1.015,4.866,4.866,0,0,1-.216.521c-.083.195.034.409-.134.624-.113.146-.027.4-.112.62a1.621,1.621,0,0,0-.01.964c.132.458.059.968.351,1.382.084.67.6,1.041,1.027,1.469a11.988,11.988,0,0,0,1.841.865c.448.063.9.11,1.378.167a.83.83,0,0,1,.532.95c-.024.488-.011.979,0,1.468a1.375,1.375,0,0,0,.084.321l-.126.881a.842.842,0,0,1-.988.175.869.869,0,0,0-.651-.021,1.835,1.835,0,0,1-1.251-.011,12.063,12.063,0,0,1-1.432-.382,8.108,8.108,0,0,1-2.146-1.17c-.148-.125-.317-.225-.466-.349a6.875,6.875,0,0,1-1.334-1.774,4.332,4.332,0,0,1-.376-1.064C801.371,39.84,801.312,39.541,801.245,39.264Zm1.649-4.274c.171.936.591,1.769.8,2.654h.156a5.931,5.931,0,0,0,.167-.72c.029-.26-.006-.527.01-.79a1.5,1.5,0,0,0-.421-1.044,1.807,1.807,0,0,0-.215-.215.65.65,0,0,0-.151-.061Zm3.4,8.428c.029-.226.308-.381.13-.629-.2-.033-.38.009-.433.211-.048.185.033.339.3.418Z" transform="translate(-800.836 -28.062)" fill="#ffffff"/>
      <path id="Path_132" data-name="Path 132" d="M853.709,63.562l.587-1.229c-.131-.095-.254-.169-.359-.262a1.085,1.085,0,0,1-.273-1.242c.116-.357.284-.7.431-1.052a2.125,2.125,0,0,1,1.642-.056c.058.1.118.193.175.291a1.265,1.265,0,0,0,.141.246,1.918,1.918,0,0,1,.486.9c.074.316.294.563.386.882a9.7,9.7,0,0,0,.48,1.144c.295.674.679,1.309.959,1.988.23.557.461,1.114.7,1.665a16.273,16.273,0,0,1,.671,1.62c.1.312.281.614.416.927.268.623.595,1.222.853,1.848a33.64,33.64,0,0,1,1.3,3.13c.065.217.138.431.212.659l-.236.757.484.778-.322.289a22.427,22.427,0,0,1-3.889.121c-1.3.026-2.609.006-3.914.006-.489,0-.979-.014-1.468.005a1,1,0,0,1-.832-.346c.219-.4.463-.8.669-1.222a6.473,6.473,0,0,1,.463-.909c.252-.361.469-.747.692-1.123a1.013,1.013,0,0,1,.65-.507.954.954,0,0,1,.843.063.369.369,0,0,0,.108.03,7.56,7.56,0,0,0,.563,1.331c.469-.4.285-.92.328-1.349a3.082,3.082,0,0,1-.353-.805,15.629,15.629,0,0,1-.507-2.485l.522-.89-.554-.755-.708.154a1.1,1.1,0,0,1-.549-.758c-.166-.524-.477-.986-.594-1.533-.033-.152-.046-.3-.074-.455s-.068-.3-.113-.487c.1-.244.416-.253.632-.395.252-.165.176-.467.348-.67l-.287-.478Zm4.919,8.044.41.822.332.137a1.342,1.342,0,0,0,.1-.387c-.032-.551-.085-1.1-.131-1.646l-.185-.175c-.237.4-.639.72-.526,1.249Zm-3.816,5.132c.191-.058.338,0,.528-.073.259-.1.544-.339.858-.067.057.049.194.007.267.007l.235-.215-.154-.358-1.148-.186c-.248.263-.532.462-.587.892Zm4.5-1.751-.831-1.235-.421.225.352,1.055c.3.144.523.342.762.2Zm1.371-.238c-.112-.325-.26-.5-.345-.418V74.6Z" transform="translate(-821.66 -40.837)" fill="#ffffff"/>
      <path id="Path_133" data-name="Path 133" d="M832.592,40.71c-.175-.49-.337-.954-.507-1.414-.241-.654-.506-1.3-.724-1.962a2.655,2.655,0,0,1-.045-.7l.374-.547a1.352,1.352,0,0,0-.2-.956c-.141-.179.036-.458-.153-.672-.1-.115-.1-.32-.144-.474-.326-.166-.423.137-.623.27V34.8c-.377-.18-.426-.569-.568-.86-.23-.47-.406-.972-.631-1.449a1.766,1.766,0,0,1-.132-1.441c.312-.85.667-1.681.991-2.525.027-.07.1-.123.193-.234l1.311.139a2.063,2.063,0,0,1,.715,1.17,3.886,3.886,0,0,0,.5,1.011,10.65,10.65,0,0,1,.613,1.459c.192.51.475.985.7,1.484.377.842.728,1.7,1.11,2.537a18.877,18.877,0,0,1,.99,2.405,2.064,2.064,0,0,1,.1.566c0,.245.011.49,0,.734a1.573,1.573,0,0,0,.6,1.288l.191-.145.28.145a35.317,35.317,0,0,1,1.543,3.669l-.243.2h-1.1l-.39-.486c-.376-.026-.587.356-1.047.5-.221,0-.566-.01-.911,0a.873.873,0,0,0-.574.1.616.616,0,0,1-.531.008,2.868,2.868,0,0,0-1.117-.109c-.1-.009-.2,0-.333,0v-.837c-.191-.389-.585-.175-.8-.386-.471.057-.963-.129-1.417.122-.374-.061-.639.233-.976.308a1.187,1.187,0,0,1-.553.015c.146-.316.287-.6.41-.9a6.149,6.149,0,0,1,.61-1.216,5.852,5.852,0,0,1,.608-.717,1.093,1.093,0,0,1,.851-.3,3,3,0,0,0,.744-.143C832.4,40.9,832.481,40.79,832.592,40.71ZM832.8,33a2.477,2.477,0,0,1-.249.318c-.256.225,0,.579-.23.83-.081.089-.013.312-.013.467l.159.159c.315-.05.361-.374.538-.5l.168-.738Zm3.038,7.5a3.367,3.367,0,0,0-.414-.313c-.073-.041-.188-.007-.292-.007v.288c.333.354.549.489.706.413Zm-1.77-1.04.118.249.086-.048-.048-.357Z" transform="translate(-812.229 -28.155)" fill="#ffffff"/>
      <path id="Path_134" data-name="Path 134" d="M933.273,40.926l.146-.146c.179-.263-.011-.511-.091-.718-.238-.615-.432-1.248-.651-1.867a2.616,2.616,0,0,1-.251-1.8l.188-.188a3,3,0,0,0-.125-1.212,1.24,1.24,0,0,1-.117-.737l-.31-.31h-.41l-.2.842a16.631,16.631,0,0,1-.779-1.7,6.056,6.056,0,0,1-.442-1.1c-.018-.134-.092-.282-.056-.4a8.227,8.227,0,0,1,.351-1.321c.2-.4.333-.839.5-1.26.089-.228.184-.454.3-.73l1.5.15a9.16,9.16,0,0,1,.895,1.809c.007.018-.007.046,0,.06a15.27,15.27,0,0,1,.881,2.019c.155.323.3.649.465.968.155.3.342.591.484.9.3.65.546,1.324.868,1.962a16.1,16.1,0,0,1,.993,2.464,3.533,3.533,0,0,1,.091,1.056,2.369,2.369,0,0,0,.355,1.181c.224.069.427.119.62.194a.723.723,0,0,1,.4.463c.235.554.413,1.132.7,1.667a7.5,7.5,0,0,1,.558,1.76h-1.25l-.365-.455h-.438a.462.462,0,0,0-.077.05,1.614,1.614,0,0,1-1.107.425c-1,.005-2,0-2.992,0l-.179-.179V43.9c-.31-.09-.634-.124-.95-.19a3.626,3.626,0,0,0-2.024.355c-.174.062-.357.1-.575.155a.857.857,0,0,1,.005-.308c.22-.48.475-.944.68-1.43A2.992,2.992,0,0,1,931.8,41.2a3.081,3.081,0,0,1,1.473-.275Zm.129-6.209c.554-.254.491-.768.669-1.131l-.164-.487c-.172-.05-.37-.008-.4.146-.087.422-.385.8-.2,1.2Zm3.059,5.449-.524.073.533.565.452-.03c-.078-.3-.317-.407-.461-.608Zm-1.57-.533c.281-.1.423-.172.409-.421-.266-.027-.336.112-.409.421Z" transform="translate(-853.193 -28.15)" fill="#ffffff"/>
      <path id="Path_135" data-name="Path 135" d="M895.53,30.034a.645.645,0,0,0-.48.618c-.027.631-.012,1.264,0,1.9,0,.065.076.129.117.194a6.153,6.153,0,0,1-.709,1.344c-.16-.159-.31-.251-.375-.384-.225-.456-.419-.927-.629-1.39-.117-.258-.255-.506-.364-.767-.241-.573-.454-1.157-.694-1.731-.219-.522-.384-1.067-.593-1.655.17-.013.282-.028.395-.028.755,0,1.509,0,2.264,0a1.9,1.9,0,0,1,1.249.374,1.508,1.508,0,0,1,.7,1.051c0,.046.07.089.125.153l-.492.868-.112.837h.289a2.74,2.74,0,0,0,.465-1.085.472.472,0,0,1,.426.353,9.145,9.145,0,0,0,.729,1.535c.25.487.486.982.739,1.468a4.762,4.762,0,0,0,.291.445c.3-.009.294-.236.388-.369a9.044,9.044,0,0,0,.7-1.176c.222-.441.566-.826.757-1.278.266-.631.652-1.2.934-1.815.122-.269.291-.517.5-.889.074.29.247.4.226.611-.092.907.157,1.8.133,2.7-.014.532.079,1.067.109,1.6a5.689,5.689,0,0,1,0,.856c-.025.268-.1.531-.164.857-.275.373-.363.537.147,1.139-.118.335-.245.651-.341.976a7.649,7.649,0,0,1-.646,1.627,8,8,0,0,0-.808,2.111,9.456,9.456,0,0,1-.6,1.65c-.192.43-.348.875-.515,1.316-.06.159-.106.324-.156.477h-.267a2.643,2.643,0,0,1-.8-1.315c-.023-.071-.078-.131-.107-.2-.371-.909-.826-1.779-1.232-2.671a14.791,14.791,0,0,1-.9-2.136.989.989,0,0,1-.009-.668,11.364,11.364,0,0,1,.43-1.228,1.343,1.343,0,0,0,.089-.931,3.349,3.349,0,0,0-.693-1.549,2.552,2.552,0,0,1-.519-1.067,1.535,1.535,0,0,1-.006-1.129.83.83,0,0,0,.013-.178c0-.082,0-.163,0-.245Zm5.084,6.038c-.512.545-1.13,1-1.276,1.59l.258.484h.655a5.2,5.2,0,0,1,.922-1.547.53.53,0,0,0-.559-.528Zm-.637,4.8-.169.169.026.568c.389-.21.422-.267.445-.736Z" transform="translate(-837.648 -28.088)" fill="#ffffff"/>
      <path id="Path_136" data-name="Path 136" d="M844.983,40.91c.3-.379.041-.753-.007-1.148a2.428,2.428,0,0,0-.574-.47.478.478,0,0,1-.285-.426,1.706,1.706,0,0,0-.23-.511c-.407-.911-.835-1.814-1.212-2.737-.485-1.186-1-2.355-1.541-3.518a7.917,7.917,0,0,1-.8-2.114,2.644,2.644,0,0,1-.439-1.041.488.488,0,0,1,.139-.61c1.208,0,2.447-.017,3.686.01a1,1,0,0,1,.968.6,15.519,15.519,0,0,1,1.034,2.567,4.618,4.618,0,0,0,.3.732c.262.564.554,1.115.8,1.687.307.728.56,1.479.866,2.208.351.834.606,1.7.979,2.528.342.755.625,1.534.934,2.3a1.768,1.768,0,0,1,.149.787,5.161,5.161,0,0,1-.266,1.108c-.141.429-.319.846-.468,1.273a1.122,1.122,0,0,1-.952.834c-.249.024-.457.2-.765.024a2.017,2.017,0,0,1-.837-.909c-.33-.678-.658-1.357-.978-2.039C845.311,41.687,845.162,41.321,844.983,40.91Zm-1.759-10.23H842.8c-.091.434.224.732.312,1.094.011.044.085.075.134.107.014.009.04,0,.086,0l.185-.209V31.25Zm4.228,9.274c-.219-.374-.223-.833-.7-1.006a.888.888,0,0,0,.379,1.006Zm-1.394-2.565v-.61h-.22l-.311.341.136.268Z" transform="translate(-816.593 -28.17)" fill="#ffffff"/>
      <path id="Path_137" data-name="Path 137" d="M823.978,76.932l-.176-.352c0-.887-.01-1.825.006-2.762.006-.33.092-.659.112-.99s0-.651,0-1.014l.6-.322a1.4,1.4,0,0,0-.361-1.228,1.082,1.082,0,0,1-.237-.762c0-2.61.009-5.22,0-7.829,0-.473-.077-.945-.116-1.417-.008-.1,0-.2,0-.3a2.1,2.1,0,0,0,1.22.036c.054-.012.1-.06.157-.06a13.32,13.32,0,0,1,2.529-.088l.254.416v7.108a6.419,6.419,0,0,0-.095,2.515c.129,1.13.064,2.253.089,3.378s.005,2.243.005,3.374l-.308.283c-.4.1-.8-.034-1.231.115a5.537,5.537,0,0,1-1.213.035C824.783,77.106,824.4,76.882,823.978,76.932Zm2.208-2.943c.359-.276.143-.549.036-.8-.036-.087-.172-.132-.282-.21a2.555,2.555,0,0,1-.089.253,1.527,1.527,0,0,1-.105.169c.159.409.159.409.44.591Zm.626-12.81.241-.395-.128-.291c-.383.3-.383.3-.113.685ZM824.29,72.713l.26.247.226-.292-.16-.281Zm.579-7.8-.07.073.216.4.176-.232Zm.309,3.024v.2l.313-.054Z" transform="translate(-810.09 -40.92)" fill="#ffffff"/>
      <path id="Path_138" data-name="Path 138" d="M913.754,71.288a2.446,2.446,0,0,1-.319-1.278l-.647-.533h-.7l-.193.425c.718.109.939.756,1.34,1.048.143.376.277.67.366.977a6.328,6.328,0,0,1,.437,1.287c.2.131.112.331.113.5.008.917,0,1.834,0,2.758l-.261.449h-.829v-.993l-.482.123v.625l-.213.414-2.22-.177L910,76.75V71.4c0-1.956.014-3.912-.012-5.868a6.08,6.08,0,0,1,.147-1.109,2.3,2.3,0,0,0-.008-1.247,6.846,6.846,0,0,1-.122-1.11c-.019-.651-.005-1.3-.005-1.947l.184-.184a2.533,2.533,0,0,0,.961-.024,2.552,2.552,0,0,1,1-.089c.309-.019.6.184.927.114a2.219,2.219,0,0,1,.929.148,1.116,1.116,0,0,1,.162.714c0,3.1,0,6.194-.008,9.291a4.748,4.748,0,0,1-.13.923C914.006,71.089,913.893,71.148,913.754,71.288ZM912.13,62c-.258.425-.237.538.171,1l.176-.654Zm-1.083,4.046c.115-.174.408-.267.27-.584-.208-.045-.419-.091-.586.169l.021.414Z" transform="translate(-845.02 -40.927)" fill="#ffffff"/>
      <path id="Path_139" data-name="Path 139" d="M874.311,77.01h-2.427c-.026-1.552-.052-3.088-.081-4.625,0-.031-.044-.062-.036-.051a5.34,5.34,0,0,0,.087-.663q.009-3.33,0-6.661a5.37,5.37,0,0,1,.226-1.106c-.214-.2-.073-.545-.2-.84-.111-.258.067-.642-.047-.9a2.5,2.5,0,0,1-.093-.938c-.024-.3-.005-.609-.005-.907a1.058,1.058,0,0,1,.8-.3c.855-.011,1.711-.008,2.566,0a.829.829,0,0,1,.831.469.87.87,0,0,1,.081.332q.006,4.644,0,9.288a5.006,5.006,0,0,1-.135.865l-.2.361a1.367,1.367,0,0,1-.387-1.223l-.458-.408a1.214,1.214,0,0,0-1.125.033c-.049.207.131.31.245.37a5.7,5.7,0,0,1,1.066.963,1.253,1.253,0,0,1,.286.615c.151.464.363.907.5,1.38a3.765,3.765,0,0,1,.219,1.131c-.01.835,0,1.67,0,2.535l-.347.287h-.563c-.332-.165-.136-.49-.221-.82l-.3-.251a1.168,1.168,0,0,0-.278,1.065Zm-.62-14.834a1.373,1.373,0,0,0,.251.837c.032.047.123.052.22.09V62.32Zm-1.137,3.363c.092.226-.039.438.139.653l.492-.464c-.145-.278-.358-.2-.632-.189Zm2.1,2.912.064.441.242-.4Z" transform="translate(-829.514 -41.012)" fill="#ffffff"/>
      <path id="Path_140" data-name="Path 140" d="M834.1,65.466c-.113-.323.074-.608-.14-.878-.077-.1-.117-.23-.24-.3a7.542,7.542,0,0,1-.826-.509,1.449,1.449,0,0,1-.387-.508,1.853,1.853,0,0,1-.153-.608c-.055-.532-.092-1.066-.124-1.6a2.488,2.488,0,0,1,.032-.537,5.029,5.029,0,0,1,.137-.513,3.782,3.782,0,0,1,2,.294l.183.4.28.117.049-.02c.192-.084.377-.271.592-.178a2.551,2.551,0,0,1,.831.363,13.124,13.124,0,0,1,1.151,1.421,1.954,1.954,0,0,1,.348.892,5.023,5.023,0,0,1,.269,1.609c-.007.059.075.128.086.147a4.433,4.433,0,0,0-.088.669,5,5,0,0,1-.369,2.113c-.022.052.022.142-.008.179-.338.421-.407,1-.787,1.381a3.509,3.509,0,0,0-.432.746,18.489,18.489,0,0,1,.994,3.6c-.288.331-.595.667-.88,1.019a1.545,1.545,0,0,0-.232.452,5.9,5.9,0,0,0-.144.583l-.546-.455c-.125.53.348.9.157,1.4a.9.9,0,0,1-.792.26,5.29,5.29,0,0,1-.506-.857,17.471,17.471,0,0,1-1.248-4.085l.776-.6c-.391-.346-.772-.656-1.121-1a1.8,1.8,0,0,1-.617-1.455c.021-.278-.167-.513-.131-.807.061-.509.068-1.024.1-1.53l1.208-.552Zm2.655.252-.407.262.177.385h.41c.284-.323.585-.636.85-.977a.708.708,0,0,0,.176-.685.892.892,0,0,0-.887-.285l-.318.291Zm-.925-2.915a.854.854,0,0,0,.413-.4l-.151-.292h-.457c.071.247-.093.513.2.7Z" transform="translate(-813.501 -40.998)" fill="#ffffff"/>
      <path id="Path_141" data-name="Path 141" d="M868.253,28.52l.273-.119c.349.171.749,0,1.1.1a1.744,1.744,0,0,0,1.1.08c.393-.166.758.014,1.1-.121l.18.35c.032.717.182,1.444.145,2.189s-.026,1.468,0,2.2a2.67,2.67,0,0,1-.15,1.163c-.229.513,0,.955.047,1.427,0,.05.087.093.092.143.047.451.118.9.121,1.355.013,2.038,0,4.076.012,6.115a4.449,4.449,0,0,1-.257,1.3l-.345.178c-.826,0-1.7,0-2.578,0a1.341,1.341,0,0,1-.828-.263,1.147,1.147,0,0,1,.57-1.358,2.226,2.226,0,0,0,.848-1.048v-.434c-.244-.441-.511-.007-.786-.087l-.52.586-.127-.127ZM869.8,43.761c-.183.133-.3.273-.191.47a.294.294,0,0,0,.357.157.331.331,0,0,0,.221-.43Zm.274-5.508h.366l-.023-.363c-.232.04-.362.117-.343.363Z" transform="translate(-828.091 -28.199)" fill="#ffffff"/>
      <path id="Path_142" data-name="Path 142" d="M915.786,42.511a2.039,2.039,0,0,0-1.109,1.8c.276.15.379-.067.542-.167a2.123,2.123,0,0,1,.535-.152l.2.379-.522.456a18.053,18.053,0,0,1-3.388.156l-.245-.37c-.062-.506-.14-.953-.167-1.4a9.537,9.537,0,0,0-.025-1.4c-.133-.62-.012-1.245-.123-1.845-.1-.518-.021-1.042-.125-1.538-.083-.4-.019-.8-.114-1.173a13.884,13.884,0,0,1-.111-2.459c-.02-.271.075-.549-.11-.813a.53.53,0,0,1,0-.418,5.292,5.292,0,0,0,.117-1.6c0-.017.02-.032.03-.048a3.793,3.793,0,0,1,1.413,1.106c.139.128.237.321.513.349,0-.533.008-1.037-.006-1.54a.554.554,0,0,0-.127-.368,2.96,2.96,0,0,1-.6-.9v-1.37l-.516-.719a.781.781,0,0,1,.052-.1c.012-.015.03-.035.046-.035.814,0,1.629,0,2.406,0a2.6,2.6,0,0,1,.372.226.842.842,0,0,1,.331.717c0,.02,0,.041,0,.061-.092,1.129.193,2.245.123,3.373a19.146,19.146,0,0,1,.143,2.33c.114.662-.005,1.329.121,1.967.143.723,0,1.449.121,2.151.125.721.027,1.443.126,2.151A10.576,10.576,0,0,1,915.786,42.511Zm-2.89-7.07c.008.492-.185.99.109,1.435l.369.163.2-.194a1.386,1.386,0,0,0-.683-1.4Zm1.636,6.653.431-.24-.254-.481-.281.242c.027.188-.053.387.1.479Zm-1.212-8.172c.038.268-.031.472.076.679.181-.072.31-.134.308-.331s-.129-.259-.384-.347Z" transform="translate(-845.421 -28.174)" fill="#ffffff"/>
      <path id="Path_143" data-name="Path 143" d="M962.873,75.241c-.507-.441-1.144-.267-1.7-.3l-.305-.15-.64-1.285V71.167a1.691,1.691,0,0,1,1.415-.221c.265.072.58.052.8.282a.24.24,0,0,0,.222.035c.4-.208.869-.121,1.269-.337a.584.584,0,0,1,.473-.013c.4.207.868.12,1.269.342.155.086.4.014.544.014l.554-.286.227.493c-.024.277-.057.482-.057.688q-.005,3.762,0,7.525c0,.245,0,.489,0,.734-.005.539-.143.707-.654.884a5.759,5.759,0,0,1-.8.136c-.186.037-.411.188-.552.086a.878.878,0,0,0-.574-.1c-.385-.014-.772,0-1.147,0l-.184-.184V79.711c0-.265.009-.531,0-.8C962.979,77.69,962.925,76.465,962.873,75.241Zm2.661-1.334c-.361.323-.392.414-.192.582.083.07.23.064.369.1v-.459l-.1.089Z" transform="translate(-865.382 -45.411)" fill="#ffffff"/>
      <path id="Path_144" data-name="Path 144" d="M889.8,30.373l.166-.166a1.265,1.265,0,0,1,.508.744c.216.646.546,1.241.8,1.869s.618,1.21.936,1.812a3.573,3.573,0,0,0,.307.543c.133.17.037.457.3.551.121.437.285.861.416,1.3a2.884,2.884,0,0,1,.22,1.427c-.173.8,0,1.611-.132,2.392-.124.723,0,1.447-.118,2.15-.108.639-.068,1.273-.114,1.907a4.6,4.6,0,0,1-.211.821h-3.743l-.32-.164c0-.649-.012-1.3.006-1.951.008-.289.093-.576.112-.866a3.529,3.529,0,0,1,.024-.909,4.02,4.02,0,0,0,.1-1.056c.035-.35.1-.7.117-1.049s0-.733.01-1.1c0-.066.082-.128.121-.186l.136.188H890c.11-.478.621-.567.891-.906a3.278,3.278,0,0,0-.943-1.561,1.465,1.465,0,0,1-.4-.991,5.509,5.509,0,0,1,.009-1.341c.126-.658.013-1.327.132-1.964C889.789,31.361,889.75,30.873,889.8,30.373Zm.71,9.66-.336-.336v.635l.336.177Z" transform="translate(-836.437 -28.932)" fill="#ffffff"/>
      <path id="Path_145" data-name="Path 145" d="M842.7,80.048a10.637,10.637,0,0,0,.479-1.237c.139-.369.327-.72.453-1.1.214-.639.571-1.228.839-1.851.358-.829.758-1.64,1.07-2.49.115-.315.282-.614.411-.929.235-.575.556-1.114.8-1.687s.5-1.139.72-1.718c.139-.37.4-.645.529-1.063a2.764,2.764,0,0,1,.614.93c.2.464.438.918.612,1.4.3.832.751,1.6,1,2.458a2.509,2.509,0,0,1,.031,1.231,15.236,15.236,0,0,1-1.336,3.051c-.123.276-.224.574-.362.825-.347.631-.6,1.3-.951,1.93a1.136,1.136,0,0,1-1.026.572c-1.059.015-2.118,0-3.177.008a.906.906,0,0,1-.7-.328Zm5.494-4.014a1.639,1.639,0,0,0-.282.44,5.455,5.455,0,0,0-.422,1.514l.176.176c.341-.225.374-.6.477-.951.1-.33.2-.656.3-.975Zm-1.6,1.59c-.1-.259-.1-.259-.37-.27Z" transform="translate(-817.751 -44.237)" fill="#ffffff"/>
      <path id="Path_146" data-name="Path 146" d="M920.942,78.7V64.508c.578.184.554.768.865,1.11-.159.123-.1.372-.357.422-.087.017-.139.207-.215.331a3.325,3.325,0,0,0,1.18.936,1.443,1.443,0,0,1,.6.534,15.109,15.109,0,0,1,1.574,2.774,2.3,2.3,0,0,1,.383,1.187c0,.057.088.118.132.172a.646.646,0,0,0-.112.69,1.073,1.073,0,0,1,.092.574c.006,1.752,0,3.5,0,5.307l-.438.333a13.248,13.248,0,0,1-2.515.089C921.79,78.66,921.29,79.044,920.942,78.7Zm2.215-6.795a2.744,2.744,0,0,0-.747,1.375l.318.318c.4-.344.436-.917.615-1.322Z" transform="translate(-849.46 -42.833)" fill="#ffffff"/>
      <path id="Path_147" data-name="Path 147" d="M925.355,36.115c.16.281.3.546.459.8a8.9,8.9,0,0,1,.6,1.584c.266.685.494,1.385.741,2.077a.863.863,0,0,0,.12.168,3.753,3.753,0,0,0,0,.393,4.323,4.323,0,0,1-.54,2.223c-.531,1.185-1.122,2.344-1.549,3.576a2.09,2.09,0,0,1-.758,1.031,4.179,4.179,0,0,1-1.7.16c-.652.012-1.3-.006-1.956.007a1.225,1.225,0,0,1-.755-.212c.082-.22.161-.453.253-.681A21.006,21.006,0,0,1,921.4,44.65c-.01-.388.282-.656.4-1,.107-.32.308-.607.418-.926.228-.66.623-1.248.793-1.935a5.97,5.97,0,0,1,.422-.985c.466-1.03.93-2.06,1.406-3.085a1.036,1.036,0,0,1,.518-.606Zm-2.04,7.963a1.037,1.037,0,0,0-.189.244,2.18,2.18,0,0,0-.254.991,1.022,1.022,0,0,1-.114.742c-.011.015.026.066.043.1h.279c.176-.522.624-.876.748-1.406-.123-.222-.122-.566-.512-.676ZM921.3,47.746l.378-.885-.419-.378-.217.308c-.171.241-.118.549-.24.807-.019.039.021.106.03.148Zm5.125-6.418c0,.176,0,.335,0,.495,0,.024.055.045.117.09l.227-.184v-.56Z" transform="translate(-849.089 -31.326)" fill="#ffffff"/>
      <path id="Path_148" data-name="Path 148" d="M819.468,48.152l-.17-.175a2.749,2.749,0,0,1,.156-.655c.269-.524.395-1.1.635-1.632.178-.394.321-.8.478-1.207.268-.683.568-1.353.839-2.036.256-.645.539-1.284.819-1.921.5-1.138.982-2.283,1.52-3.4a2.312,2.312,0,0,1,.624-.952,5.616,5.616,0,0,1,.91,1.757c.244.612.482,1.226.728,1.837.119.3.241.6.355.891a1.866,1.866,0,0,1,.027,1.423c-.2.488-.371.985-.589,1.467-.171.377-.342.754-.52,1.129s-.355.749-.524,1.128c-.283.636-.559,1.276-.845,1.931l-.673.42Zm2.51-1.873c.411-.281.455-.7.681-.986a2.14,2.14,0,0,0,.208-.847l-.41-.389c-.588.642-.47,1.38-.479,2.222Zm-1.818.458a1.956,1.956,0,0,0-.117,1.169h.264c.353-.218.256-.635.421-.907l-.167-.462Zm5.828-5.5-.472.2c.032.24-.076.482.215.58a.773.773,0,0,0,.257-.775Z" transform="translate(-808.266 -31.348)" fill="#ffffff"/>
      <path id="Path_149" data-name="Path 149" d="M858.385,35.86l-.768.157c-.182.164-.144.446-.144.718,0,.163-.006.326,0,.489a4.27,4.27,0,0,1-.62,2.189,2.447,2.447,0,0,1-.408.463.473.473,0,0,1-.552-.328c-.225-.621-.47-1.232-.735-1.837a6.19,6.19,0,0,0-.591-1.284c-.134-.753-.729-1.4-.439-2.363a46.665,46.665,0,0,0,2.69-5.328l.512-.477h.876c.245,0,.491.016.734,0a5.28,5.28,0,0,1,.622-.11c.594.025,1.186.086,1.783.134.163.209.172.208.161.571l-1.159,1,.451.355c-.067.192-.131.43-.232.651a21.51,21.51,0,0,0-1.053,2.5,16.519,16.519,0,0,1-.7,1.545C858.693,35.192,858.556,35.482,858.385,35.86Zm-.511-3.17.266,1.005.31-.213v-.648l-.379-.327Zm-.522-2.583v.66l.079-.079.307.306.07-.08-.127-.807Z" transform="translate(-822.35 -28.096)" fill="#ffffff"/>
      <path id="Path_150" data-name="Path 150" d="M882.76,64.417c.6.325.649.86.876,1.337-.155.194-.482.283-.512.637.325.273.555.7,1.044.8a5.518,5.518,0,0,1,.869.984c.412.788.878,1.547,1.28,2.342a4.566,4.566,0,0,1,.378,1.378,24.065,24.065,0,0,1,.1,3.375c.028,1.12.006,2.241.006,3.36l-.172.172c-.113.1-.365-.093-.507.126-.024.038-.161.028-.234,0a9.807,9.807,0,0,0-2.4-.117c-.182-.013-.366,0-.558,0-.2-.281-.456-.535-.183-.934.076-.111.012-.318.012-.481V64.417Zm2.017,7.542a2.288,2.288,0,0,0-.538,1.522l.17.193c.515-.533.856-1.5.612-1.715Z" transform="translate(-833.933 -42.796)" fill="#ffffff"/>
      <path id="Path_151" data-name="Path 151" d="M800.756,63.487a2.058,2.058,0,0,1,.595-1.889c.133-.546-.274-.919-.454-1.378l.1-.1a5.126,5.126,0,0,1,1.771-.179c.046,0,.088.077.156.141.073-.046.155-.144.231-.139.5.032.986-.111,1.478-.121,1.364-.026,2.73-.016,4.094,0a5,5,0,0,1,.772.122l.407.793.609-.609a2.589,2.589,0,0,1,2.227.685c0,.561-.005,1.09,0,1.618a.73.73,0,0,1-.253.628,2.986,2.986,0,0,1-1.859.8c-.334-.193-.376-.53-.461-.846-.122-.456-.247-.911-.369-1.358h-.334l-.388.529a1.22,1.22,0,0,0,.279,1.057c.089.091.071.288.1.435a13.667,13.667,0,0,0-1.45.29,1.61,1.61,0,0,1-.546.01c-.672,0-1.345,0-2.017,0-.152,0-.309.056-.458-.083a.372.372,0,0,0-.342-.025.89.89,0,0,1-.444.115,10.552,10.552,0,0,1-1.828-.031c-.441-.084-.869-.041-1.347-.115Zm9.577-1.779c.047.1.121.272.217.434.034.058.12.086.226.156V61.57l-.066.066-.1-.3-.12.01Zm-3.826-.155c-.245-.067-.336.06-.384.3h.384Z" transform="translate(-800.748 -40.926)" fill="#ffffff"/>
      <path id="Path_152" data-name="Path 152" d="M808.209,77.9c-.2-.1-.486.072-.633-.34l.162-1.082a1.241,1.241,0,0,1,.3.187,2.984,2.984,0,0,1,.247.447,9.516,9.516,0,0,0,.145-1.489,7.605,7.605,0,0,0-.321-1.328c.062-.318.152-.711.213-1.108a3.339,3.339,0,0,0,.135-1.237l-.408-.59-.412.392a1.536,1.536,0,0,1-.291-.865c0-.713,0-1.425,0-2.143l.258-.251a4.217,4.217,0,0,0,1.59-.036,11.609,11.609,0,0,1,1.639-.017l.287.287c.007.382.31.715.279,1.135.172.115.1.292.1.444q.005,3.512,0,7.024c0,.268-.093.535-.112.8a6.992,6.992,0,0,0,0,.855,1.452,1.452,0,0,0,.081.515.962.962,0,0,1-.1.869,3.641,3.641,0,0,1-2.18.027c0-.255-.093-.57.022-.76.164-.271,0-.513.106-.708l-.2-.217-.5.15Zm2.918-4.244c.046-.291-.048-.546.123-.794.089-.129-.022-.3-.187-.37-.285.416-.129.874-.183,1.392Z" transform="translate(-803.421 -44.418)" fill="#ffffff"/>
      <path id="Path_153" data-name="Path 153" d="M952.29,46.969v4.046l-.268.454c-.6,0-1.2.018-1.8-.005a5.082,5.082,0,0,1-1.78-.117,1.245,1.245,0,0,1-.188-.779,9.128,9.128,0,0,1,.023-1.522,12.39,12.39,0,0,0,.1-2.211c.02-.752,0-1.505,0-2.286l.181-.193c.3.136.587.242.849.388a6.826,6.826,0,0,1,.765.51c.252.189.479.409.73.6a4.256,4.256,0,0,0,.765.51C951.976,46.505,952,46.883,952.29,46.969Z" transform="translate(-860.518 -34.666)" fill="#ffffff"/>
      <path id="Path_154" data-name="Path 154" d="M882.7,53.17l-.287.287c-.016.011-.031.029-.048.032a9.2,9.2,0,0,1-.988.118c-.875.017-1.751.006-2.69.006l-.127-.208c-.685-.16-1.212.276-1.8.207a1.293,1.293,0,0,1-.188-.9c0-.314-.175-.6-.131-.928s-.1-.707.037-.961c.153-.289-.078-.67.276-.876h1.5l.328.407a2.578,2.578,0,0,1,1.551-.384l-.216.927.223.381c.045-.025.09-.033.1-.056.229-.55.784-.719,1.212-1.035.109-.081.223-.156.347-.242h.576l.311.3v1.533c0,.265-.086.573.022.783C882.845,52.821,882.529,52.986,882.7,53.17Z" transform="translate(-831.415 -36.93)" fill="#ffffff"/>
      <path id="Path_155" data-name="Path 155" d="M881.85,42.507l-.183.183a1.831,1.831,0,0,0-.732.112c-.224.1-.514-.1-.745.126-.053.051-.2.007-.3.007-.814,0-1.628,0-2.442,0-.116,0-.275.017-.341-.047-.139-.135-.391.013-.467-.207a2.747,2.747,0,0,1-.167-.6,8.517,8.517,0,0,1-.007-.854c0-.427,0-.855,0-1.282a1.9,1.9,0,0,1,.227-.739,7.014,7.014,0,0,1,2.339-.177,5.463,5.463,0,0,1,.56.111c.2.021.407,0,.61.006.277.011.513-.2.805-.128.22.054.449.07.64.1a1.151,1.151,0,0,1,.2.828C881.848,40.8,881.85,41.651,881.85,42.507Zm-2.732-.529-.555.272-.17.435a.782.782,0,0,0,.845-.505c.011-.023,0-.056,0-.085Z" transform="translate(-831.432 -32.493)" fill="#ffffff"/>
      <path id="Path_156" data-name="Path 156" d="M948.373,32.555a8.1,8.1,0,0,1,1.116,1.613A7.9,7.9,0,0,1,950.3,35.9l-.616.473.174.492c.2.052.449.207.588.137.236-.118.384.1.559.044.527.849,1.2,1.64,1.019,2.749l-.037.036c-.117-.108-.233-.219-.361-.34-.392-.106-.734.108-1.153.245-.209-.117-.453-.259-.7-.391a1.517,1.517,0,0,0-.512-.229.594.594,0,0,1-.543-.453,5.429,5.429,0,0,0-.343-.624c-.029-.237.058-.517-.116-.775a.41.41,0,0,1,0-.356,2.055,2.055,0,0,0,.111-1.052c.011-.976,0-1.953,0-2.93Z" transform="translate(-860.514 -29.883)" fill="#ffffff"/>
      <path id="Path_157" data-name="Path 157" d="M879.192,30.317a3.131,3.131,0,0,1,.547.778,4.613,4.613,0,0,0,.49.616c-.04.229-.161.271-.338.315a20.834,20.834,0,0,1-2.98.138,13.22,13.22,0,0,1-.247-3.528l.341-.2-.058-.074h2.372c.253.191.181.444.126.7C879.355,29.48,879.275,29.9,879.192,30.317Z" transform="translate(-831.515 -28.184)" fill="#ffffff"/>
      <path id="Path_158" data-name="Path 158" d="M885.333,28.521a4.551,4.551,0,0,1-.012.956,10.2,10.2,0,0,0-.117,1.839,2.6,2.6,0,0,1-.158.553l-.284.255H883.7a4.985,4.985,0,0,1-.729-1.564,3.527,3.527,0,0,1-.322-1.768l.227-.392c.051-.039.066-.062.082-.062.731,0,1.461-.005,2.192.006C885.208,28.346,885.264,28.452,885.333,28.521Z" transform="translate(-833.936 -28.173)" fill="#ffffff"/>
      <path id="Path_159" data-name="Path 159" d="M911.487,29.366v1.558l-.31.129c-.007-.006-.049-.066-.083-.062-.464.055-.5-.352-.554-.6a15.832,15.832,0,0,1-.168-1.662l.256-.243a3.524,3.524,0,0,1,.5.358,3.517,3.517,0,0,1,.36.526Z" transform="translate(-845.175 -28.232)" fill="#ffffff"/>
      <path id="Path_160" data-name="Path 160" d="M897.84,40.705h-.305a.842.842,0,0,1-.259-.825C897.711,40.036,897.815,40.188,897.84,40.705Z" transform="translate(-839.859 -32.852)" fill="#ffffff"/>
    </g>
    <g id="Group_277" data-name="Group 277" transform="translate(1013.474 613.397)">
      <path id="Path_161" data-name="Path 161" d="M1077.072,10.12a8.337,8.337,0,0,0-3.665,2.646,11.566,11.566,0,0,0-2.963,9.271c.278,2.4.638,4.792.992,7.183a6.753,6.753,0,0,1-1.11,5.221c0-1.581.046-2.925-.01-4.264-.106-2.569-1.689-4.2-3.8-5.561.047.459.091.919.143,1.378.327,2.864.127,5.6-1.555,8.108a11.336,11.336,0,0,0-2.07,6.663l-12.841-12.84,26.084-25.958,26.361,26.271-14.258,14.1c.7-2.716-.2-5.192-.977-7.688-.536-1.721-1.051-3.449-1.562-5.178a11.666,11.666,0,0,1,.037-7.018c.13-.406.193-.833.294-1.283-2.909.61-5.136,3.944-5.425,8.016C1076.649,24.8,1073.527,17.215,1077.072,10.12Z" transform="translate(-1034.298 -1.967)" fill="#ffffff"/>
      <path id="Path_162" data-name="Path 162" d="M1090.5,75.789c-1.954-1.885-3.776-3.6-5.552-5.372-.884-.88-.689-2.034-.582-3.13a4.138,4.138,0,0,1,.252-1.024,16.413,16.413,0,0,0,1.245-6.728c1.023.645,1.023.645,1.666,3.844a8.916,8.916,0,0,0,2.752-3.989,35.389,35.389,0,0,0,.558-4.735,3.244,3.244,0,0,1,1.316,2.462c.045,1.492-.012,2.99-.085,4.482a6.558,6.558,0,0,0,1.242,4.268c.44-1.59-.345-3.188.914-4.6.034.5.072.775.069,1.053a5.907,5.907,0,0,0,.93,3.247,6.2,6.2,0,0,1,.854,2.043,3.864,3.864,0,0,1-1.292,3.913C1093.276,72.858,1091.92,74.368,1090.5,75.789Z" transform="translate(-1048.111 -23.77)" fill="#ffffff"/>
      <path id="Path_163" data-name="Path 163" d="M1028.691,98v1.458c0,1.794-.865,2.771-2.627,2.771h-.834v4.212h-1.762V95.226h2.594C1027.822,95.226,1028.691,96.2,1028.691,98Zm-3.459-1.169v3.8h.833c.561,0,.865-.256.865-1.057V97.884c0-.8-.3-1.057-.865-1.057Z" transform="translate(-1023.467 -40.418)" fill="#ffffff"/>
      <path id="Path_164" data-name="Path 164" d="M1037.44,106.438a3.449,3.449,0,0,1-.16-1.378V103.3c0-1.041-.352-1.425-1.153-1.425h-.609v4.565h-1.762V95.226h2.659c1.826,0,2.61.849,2.61,2.579v.881a2.235,2.235,0,0,1-1.153,2.274c.881.369,1.169,1.217,1.169,2.387v1.73a3.3,3.3,0,0,0,.192,1.361Zm-1.922-9.61v3.443h.689c.656,0,1.057-.288,1.057-1.185V97.981c0-.8-.272-1.153-.9-1.153Z" transform="translate(-1027.637 -40.418)" fill="#ffffff"/>
      <path id="Path_165" data-name="Path 165" d="M1044.34,97.829a2.678,2.678,0,1,1,5.349,0v5.83a2.678,2.678,0,1,1-5.349,0Zm1.762,5.942c0,.8.352,1.105.913,1.105s.913-.3.913-1.105V97.717c0-.8-.352-1.105-.913-1.105s-.913.3-.913,1.105Z" transform="translate(-1031.927 -40.331)" fill="#ffffff"/>
      <path id="Path_166" data-name="Path 166" d="M1060.472,98v1.458c0,1.794-.865,2.771-2.626,2.771h-.833v4.212h-1.762V95.226h2.595C1059.6,95.226,1060.472,96.2,1060.472,98Zm-3.459-1.169v3.8h.833c.561,0,.865-.256.865-1.057V97.884c0-.8-.3-1.057-.865-1.057Z" transform="translate(-1036.349 -40.418)" fill="#ffffff"/>
      <path id="Path_167" data-name="Path 167" d="M1070.568,106.438h-1.778l-.3-2.034h-2.162l-.3,2.034H1064.4l1.794-11.212h2.579Zm-4.02-3.556h1.7l-.849-5.67Z" transform="translate(-1040.057 -40.418)" fill="#ffffff"/>
      <path id="Path_168" data-name="Path 168" d="M1077.709,98.317v8.12h-1.585V95.226h2.21l1.81,6.711V95.226h1.569v11.212h-1.81Z" transform="translate(-1044.808 -40.418)" fill="#ffffff"/>
      <path id="Path_169" data-name="Path 169" d="M1089.409,99.95h2.418v1.6h-2.418v3.283h3.043v1.6h-4.8V95.226h4.8v1.6h-3.043Z" transform="translate(-1049.478 -40.418)" fill="#ffffff"/>
      <path id="Path_170" data-name="Path 170" d="M1103.489,100.207h2.274v1.6h-2.274v4.629h-1.762V95.226h4.661v1.6h-2.9Z" transform="translate(-1055.184 -40.418)" fill="#ffffff"/>
      <path id="Path_171" data-name="Path 171" d="M1110.99,95.226h1.762v11.212h-1.762Z" transform="translate(-1058.938 -40.418)" fill="#ffffff"/>
      <path id="Path_172" data-name="Path 172" d="M1115.25,95.226h5.446v1.6h-1.842v9.61h-1.762v-9.61h-1.842Z" transform="translate(-1060.665 -40.418)" fill="#ffffff"/>
      <path id="Path_173" data-name="Path 173" d="M1127.259,98.317v8.12h-1.586V95.226h2.21l1.81,6.711V95.226h1.57v11.212h-1.81Z" transform="translate(-1064.889 -40.418)" fill="#ffffff"/>
      <path id="Path_174" data-name="Path 174" d="M1138.959,99.95h2.418v1.6h-2.418v3.283H1142v1.6h-4.8V95.226h4.8v1.6h-3.043Z" transform="translate(-1069.56 -40.418)" fill="#ffffff"/>
      <path id="Path_175" data-name="Path 175" d="M1149.289,95.011c1.714,0,2.595,1.025,2.595,2.819v.353h-1.666v-.465c0-.8-.32-1.105-.881-1.105s-.881.3-.881,1.105c0,2.306,3.444,2.739,3.444,5.942,0,1.794-.9,2.819-2.627,2.819s-2.627-1.025-2.627-2.819v-.689h1.666v.8c0,.8.353,1.089.913,1.089s.913-.288.913-1.089c0-2.306-3.443-2.739-3.443-5.942C1146.7,96.036,1147.576,95.011,1149.289,95.011Z" transform="translate(-1073.389 -40.331)" fill="#ffffff"/>
      <path id="Path_176" data-name="Path 176" d="M1159.359,95.011c1.714,0,2.595,1.025,2.595,2.819v.353h-1.666v-.465c0-.8-.32-1.105-.881-1.105s-.881.3-.881,1.105c0,2.306,3.444,2.739,3.444,5.942,0,1.794-.9,2.819-2.627,2.819s-2.627-1.025-2.627-2.819v-.689h1.666v.8c0,.8.353,1.089.913,1.089s.913-.288.913-1.089c0-2.306-3.444-2.739-3.444-5.942C1156.766,96.036,1157.646,95.011,1159.359,95.011Z" transform="translate(-1077.47 -40.331)" fill="#ffffff"/>
    </g>
    <g id="Group_275" data-name="Group 275" transform="translate(408.066 613.992)">
      <path id="Path_177" data-name="Path 177" d="M669.871,50.346q.2-11.927.4-23.868c.347.151,3.908,3.42,5.859,5.288,1.9,1.821,3.852,3.592,5.808,5.41l12.009-10.233-.416,24.117c-1.4-1.31-2.623-2.658-3.912-3.939s-2.552-2.577-3.824-3.87-2.563-2.61-3.895-3.967l-11.925,11.11Z" transform="translate(-628.689 -11.759)" fill="#ffffff"/>
      <path id="Path_178" data-name="Path 178" d="M655.012,26.905l-.172-.011c-.1-.007-.19-.013-.279-.013H651.9c-2.249,0-4.574,0-6.861-.005h0a1.063,1.063,0,0,0-.724.266c-1.333,1.094-2.693,2.2-4.008,3.271l-2,1.627a.913.913,0,0,0-.137.153c-.025.032-.054.069-.089.11l-.1.118.154,0c1.676.041,3.362.068,4.992.095,1.992.032,4.051.066,6.081.124v2.942c0,3,0,6.1-.005,9.146a1.05,1.05,0,0,0,.316.807c1.183,1.223,2.377,2.475,3.533,3.685l1.622,1.7a1,1,0,0,0,.183.14c.034.022.07.046.109.074l.117.084V26.909Zm-4.8,7.919V31.642l-9.581-.168,0,0a1.945,1.945,0,0,1,.16-.154l1.337-1.091c.853-.7,1.735-1.414,2.6-2.125a.728.728,0,0,1,.49-.2h0q2.822.005,5.643,0h3.021a.9.9,0,0,1,.154.019l.038.007V48.807a1.094,1.094,0,0,1-.09-.08L653,47.7c-.819-.855-1.666-1.739-2.508-2.6a.969.969,0,0,1-.288-.752C650.208,41.174,650.207,37.946,650.207,34.824Z" transform="translate(-615.765 -11.922)" fill="#ffffff"/>
      <path id="Path_179" data-name="Path 179" d="M751.938,104.579a4.338,4.338,0,0,1-2.021.441,4.159,4.159,0,0,1-.659-.082.971.971,0,0,1-.818-.785,6,6,0,0,1-.126-1.066c-.017-.941-.006-1.883-.006-2.825V99.9l-.546-.08c-.044-.205-.086-.4-.128-.595a.248.248,0,0,1,.126-.27,1.97,1.97,0,0,1,.384-.219.6.6,0,0,0,.363-.409c.083-.239.176-.475.276-.708a.615.615,0,0,1,.683-.4c.177.016.357,0,.555,0a2.944,2.944,0,0,1,.039.787c.009.251,0,.5,0,.785h1.725v1.039c-.556.023-1.112,0-1.692.014a2,2,0,0,0-.031.249q0,1.444,0,2.888c0,.021,0,.042,0,.063.025.584.207.752.8.7.24-.023.476-.092.751-.147l.328.79Z" transform="translate(-660.202 -40.839)" fill="#ffffff"/>
      <path id="Path_180" data-name="Path 180" d="M717.362,105.973h-2.854c-.036-.269-.075-.529-.1-.789a.32.32,0,0,1,.221-.351c.425-.143.469-.453.452-.843-.033-.718-.025-1.438-.035-2.157a1.271,1.271,0,0,0-.019-.189.619.619,0,0,0-.625-.6,1.6,1.6,0,0,0-1.066.219.382.382,0,0,0-.214.356q.018,1.381.022,2.761a.278.278,0,0,0,.185.3.64.64,0,0,1,.44.919,2.832,2.832,0,0,0-.071.376h-2.839c-.042-.286-.091-.564-.117-.844-.006-.069.056-.151.1-.216a.26.26,0,0,1,.131-.086c.4-.122.458-.415.441-.788-.026-.57,0-1.143-.01-1.714,0-.253-.037-.506-.061-.758a.523.523,0,0,0-.431-.488,1.6,1.6,0,0,0-1.33.245.379.379,0,0,0-.136.366q0,1.111,0,2.222v.657c.158.1.316.2.479.292a.329.329,0,0,1,.179.369c-.035.219-.065.439-.1.7a2.936,2.936,0,0,1-.389.053c-.74.007-1.481.011-2.222.005-.245,0-.259-.027-.292-.275-.108-.818-.168-.691.518-1.09a.437.437,0,0,0,.063-.064V103.4c0-.667,0-1.333,0-2a.325.325,0,0,0-.188-.325c-.5-.29-.494-.3-.409-.882.019-.134.04-.268.063-.414a5.606,5.606,0,0,1,2.1-.116l.068.511a2.088,2.088,0,0,0,.236-.1,2.76,2.76,0,0,1,2.441-.228,4.687,4.687,0,0,1,.787.465c.06-.039.165-.109.272-.176a2.955,2.955,0,0,1,2.794-.224,1.2,1.2,0,0,1,.674.681,3.95,3.95,0,0,1,.284,1.486q.021,1.111.007,2.222a.4.4,0,0,0,.239.426c.519.267.448.25.385.792C717.416,105.661,717.388,105.805,717.362,105.973Z" transform="translate(-643.751 -41.813)" fill="#ffffff"/>
      <path id="Path_181" data-name="Path 181" d="M658.577,105.948h-2.853c-.042-.267-.092-.524-.121-.783a.341.341,0,0,1,.21-.328c.145-.085.292-.168.455-.261v-.948c0-.719-.009-1.439.005-2.158a.381.381,0,0,0-.248-.421c-.058-.024-.108-.067-.165-.095a.384.384,0,0,1-.237-.489c.044-.173.037-.359.082-.531a.3.3,0,0,1,.178-.186,5.463,5.463,0,0,1,1.96-.077l.042.515a3.646,3.646,0,0,1,1.763-.527,2.9,2.9,0,0,1,1.668.638,8.766,8.766,0,0,1,.8-.421,2.939,2.939,0,0,1,2.256.016,1.271,1.271,0,0,1,.734.744,3.387,3.387,0,0,1,.246,1.205c.014.814.029,1.628.026,2.443a.4.4,0,0,0,.26.447.663.663,0,0,1,.245.142.5.5,0,0,1,.158.286,7.753,7.753,0,0,1-.1.785H663.08c-.033-.264-.065-.514-.1-.763a.324.324,0,0,1,.191-.335l.47-.276c0-.462,0-.936,0-1.41,0-.391-.006-.783-.011-1.174-.01-.751-.258-.987-1.01-.948a1.48,1.48,0,0,0-.432.087c-.45.167-.487.23-.487.719,0,.815.007,1.629-.005,2.444a.411.411,0,0,0,.245.424c.5.269.492.216.4.812-.019.124-.034.25-.055.4a3.421,3.421,0,0,1-.432.057q-1.079.009-2.158,0c-.27,0-.275-.017-.312-.286-.02-.147-.037-.294-.06-.44a.392.392,0,0,1,.23-.441.486.486,0,0,1,.082-.048c.313-.092.37-.317.361-.612-.023-.74-.013-1.48-.035-2.22s-.257-.939-.987-.9a1.535,1.535,0,0,0-.4.078c-.492.165-.555.259-.555.775,0,.8.008,1.608-.005,2.412a.38.38,0,0,0,.25.42.592.592,0,0,1,.083.047c.366.218.366.218.3.656C658.625,105.592,658.6,105.758,658.577,105.948Z" transform="translate(-622.906 -41.813)" fill="#ffffff"/>
      <path id="Path_182" data-name="Path 182" d="M615.718,104.16h-2.857c-.039-.275-.086-.543-.11-.812a.357.357,0,0,1,.1-.217.419.419,0,0,1,.183-.121c.323-.109.392-.332.389-.657q-.024-2.587,0-5.173c0-.275-.051-.469-.32-.574a.627.627,0,0,1-.211-.137c-.057-.057-.134-.14-.129-.207a6.938,6.938,0,0,1,.108-.814c.009-.048.1-.1.169-.115a5.776,5.776,0,0,1,2.109-.06v3.044c.2-.077.352-.139.507-.2a3.368,3.368,0,0,1,2.085-.131,1.484,1.484,0,0,1,1.056.919,3.141,3.141,0,0,1,.224,1.144c.012.825.018,1.65.007,2.475a.372.372,0,0,0,.252.415c.059.022.109.066.166.092a.37.37,0,0,1,.229.462c-.045.216-.062.437-.1.7-.946.015-1.882,0-2.859.007-.037-.293-.083-.572-.1-.852a.392.392,0,0,1,.122-.237.541.541,0,0,1,.213-.133.5.5,0,0,0,.34-.565c-.022-.75-.023-1.5-.033-2.252a1.677,1.677,0,0,0-.021-.253.7.7,0,0,0-.669-.648,1.8,1.8,0,0,0-1.244.27.3.3,0,0,0-.159.283c0,.984,0,1.967,0,2.974l.4.24c.262.157.29.219.243.512C615.779,103.733,615.752,103.931,615.718,104.16Z" transform="translate(-605.54 -40.024)" fill="#ffffff"/>
      <path id="Path_183" data-name="Path 183" d="M635.813,104.582c0-.933.011-1.832,0-2.731-.009-.541-.272-.783-.807-.818a1.865,1.865,0,0,0-1.064.253.343.343,0,0,0-.213.32c0,.984,0,1.967,0,2.965.157.095.306.193.462.278a.339.339,0,0,1,.194.392c-.037.218-.065.437-.1.685a3.479,3.479,0,0,1-.432.057q-1.079.01-2.158,0c-.273,0-.275-.016-.312-.286-.017-.126-.031-.252-.055-.377a.427.427,0,0,1,.252-.521c.123-.059.238-.136.369-.212.005-.08.016-.163.016-.245,0-.963,0-1.926,0-2.889,0-.189-.032-.33-.226-.4-.039-.014-.07-.05-.108-.066a.5.5,0,0,1-.294-.651c.039-.175.057-.354.088-.558a5.515,5.515,0,0,1,2.1-.121l.07.513c.1-.042.174-.067.245-.1a3.3,3.3,0,0,1,2.549-.264,1.454,1.454,0,0,1,1.022,1.035,4.382,4.382,0,0,1,.18,1.283c.005.709,0,1.418,0,2.127v.332c.132.075.257.153.388.218a.433.433,0,0,1,.256.52c-.035.186-.058.375-.093.606a17.376,17.376,0,0,1-2.867.03c-.035-.275-.061-.516-.1-.755a.307.307,0,0,1,.167-.342C635.5,104.771,635.652,104.677,635.813,104.582Z" transform="translate(-613.058 -41.812)" fill="#ffffff"/>
      <path id="Path_184" data-name="Path 184" d="M742.269,105.941h-2.876c-.029-.245-.052-.475-.085-.7a.373.373,0,0,1,.2-.4c.143-.09.288-.175.444-.268,0-.712,0-1.42,0-2.128,0-.2.007-.4-.009-.6-.047-.561-.293-.784-.854-.81a1.842,1.842,0,0,0-1.057.278.285.285,0,0,0-.168.273c.006.994,0,1.988,0,2.993.157.1.307.192.462.28a.329.329,0,0,1,.184.366c-.037.239-.069.48-.106.74h-2.858c-.037-.271-.084-.55-.107-.832a.34.34,0,0,1,.1-.215.514.514,0,0,1,.21-.137c.319-.105.369-.333.363-.639-.019-.888-.014-1.777,0-2.665a.416.416,0,0,0-.249-.423c-.474-.263-.469-.271-.385-.8.025-.155.047-.31.072-.476a5.74,5.74,0,0,1,2.09-.122l.089.515.474-.21a3.2,3.2,0,0,1,2.318-.152,1.389,1.389,0,0,1,1.006,1.044,6.693,6.693,0,0,1,.178,1.282c.029.7.008,1.4.008,2.094v.35c.159.094.3.181.45.264a.346.346,0,0,1,.2.391C742.326,105.464,742.3,105.694,742.269,105.941Z" transform="translate(-655.261 -41.812)" fill="#ffffff"/>
      <path id="Path_185" data-name="Path 185" d="M606.448,97.34H605v.326c0,1.692,0,3.384,0,5.076,0,.213.036.367.255.445a.574.574,0,0,1,.24.149.5.5,0,0,1,.149.291c-.012.282-.064.562-.1.856h-2.911c-.032-.295-.068-.584-.1-.875a.318.318,0,0,1,.237-.339c.378-.126.406-.4.4-.742-.016-1.6-.007-3.194-.007-4.791v-.394H601.72a.217.217,0,0,0-.046.043c-.245.432-.28.449-.78.371-.083-.013-.165-.034-.269-.055V95.993c.211-.015.428-.043.644-.043q2.966-.005,5.932,0c.112,0,.225.018.35.029v1.711c-.057.017-.1.035-.154.045C606.79,97.855,606.79,97.855,606.448,97.34Z" transform="translate(-600.626 -40.326)" fill="#ffffff"/>
      <path id="Path_186" data-name="Path 186" d="M679.865,102.781a4.8,4.8,0,0,1-.288,1.583,2.516,2.516,0,0,1-1.889,1.663,4.074,4.074,0,0,1-1.885.006,2.2,2.2,0,0,1-1.724-1.554,4.828,4.828,0,0,1-.018-2.9,2.509,2.509,0,0,1,2.12-1.813,4.243,4.243,0,0,1,1.977.107,2.082,2.082,0,0,1,1.473,1.445,5.315,5.315,0,0,1,.235,1.467Zm-1.787-.036a8.5,8.5,0,0,0-.244-1.073,1.011,1.011,0,0,0-1.186-.67.987.987,0,0,0-.9.979c-.021.21-.043.421-.052.631a3.45,3.45,0,0,0,.2,1.588.936.936,0,0,0,1.013.641.963.963,0,0,0,.989-.772,5.137,5.137,0,0,0,.185-1.324Z" transform="translate(-630.3 -41.844)" fill="#ffffff"/>
      <path id="Path_187" data-name="Path 187" d="M701.756,104.36l.369.979a1.932,1.932,0,0,1-1,.6,3.912,3.912,0,0,1-2.761-.082,2.081,2.081,0,0,1-1.206-1.235,4.45,4.45,0,0,1,.035-3.342,2.292,2.292,0,0,1,1.209-1.244,3.366,3.366,0,0,1,2.348-.224,1.766,1.766,0,0,1,1.39,1.441,7.086,7.086,0,0,1,.124,1.068c.031.7-.254,1-.952,1-.74.008-1.481,0-2.221,0h-.341a1.148,1.148,0,0,0,.927,1.368,3.231,3.231,0,0,0,1.831-.221C701.576,104.446,701.641,104.413,701.756,104.36Zm-3.04-2.074c.665-.065,1.3-.01,1.909-.11a.993.993,0,0,0-.253-1.02,1.035,1.035,0,0,0-1.408.24,1.665,1.665,0,0,0-.248.891Z" transform="translate(-639.623 -41.845)" fill="#ffffff"/>
      <path id="Path_188" data-name="Path 188" d="M727.164,103.327a1.129,1.129,0,0,0,.946,1.37,3.223,3.223,0,0,0,1.8-.222l.251-.107.366.963a1.273,1.273,0,0,1-.518.411,3.939,3.939,0,0,1-3.2.129,2.071,2.071,0,0,1-1.23-1.211,4.416,4.416,0,0,1,.018-3.373,2.52,2.52,0,0,1,1.829-1.479,3.294,3.294,0,0,1,1.907.057,1.711,1.711,0,0,1,1.212,1.382,7.142,7.142,0,0,1,.123,1.132c.023.636-.249.915-.881.946-.085,0-.169,0-.254,0h-2.366Zm0-1.054,1.888-.071c.061-.455.038-.855-.367-1.1a.959.959,0,0,0-1.076.055,1.074,1.074,0,0,0-.445,1.112Z" transform="translate(-651.133 -41.844)" fill="#ffffff"/>
      <path id="Path_189" data-name="Path 189" d="M684.432,99.935a25.144,25.144,0,0,1,2.851-.041c.044.29.1.558.115.827a.479.479,0,0,1-.165.284,2.178,2.178,0,0,1-.322.229c.181.514.366,1.017.534,1.527.152.461.283.928.428,1.392a2.1,2.1,0,0,0,.129.264l1.05-3.125c-.142-.089-.273-.174-.406-.256a.325.325,0,0,1-.189-.337c.035-.25.075-.5.116-.765h2.735c.036.261.085.518.1.778a.419.419,0,0,1-.135.268.831.831,0,0,1-.315.205.812.812,0,0,0-.511.521q-.862,2.062-1.738,4.118c-.045.106-.1.21-.148.325h-1.383c-.126-.288-.255-.577-.378-.868-.487-1.159-.977-2.318-1.455-3.481a.991.991,0,0,0-.6-.639c-.389-.14-.424-.246-.385-.654C684.374,100.328,684.4,100.151,684.432,99.935Z" transform="translate(-634.555 -41.917)" fill="#ffffff"/>
      <path id="Path_190" data-name="Path 190" d="M643.618,95.373a5.907,5.907,0,0,1,2.268-.117v7.512c.174.1.334.2.5.3a.356.356,0,0,1,.19.424c-.047.214-.071.433-.108.665h-2.858c-.038-.272-.089-.531-.1-.791,0-.086.081-.179.132-.265a.153.153,0,0,1,.08-.048c.391-.137.464-.414.458-.811-.025-1.682-.02-3.365,0-5.047a.547.547,0,0,0-.365-.609c-.039-.015-.072-.045-.11-.063a.345.345,0,0,1-.2-.392c0-.031.01-.063.015-.094C643.546,95.824,643.579,95.616,643.618,95.373Z" transform="translate(-617.997 -40.022)" fill="#ffffff"/>
      <path id="Path_191" data-name="Path 191" d="M651.954,106.111c-.131.015-.214.032-.3.032-.476,0-.951,0-1.427,0a.462.462,0,0,1-.429-.213q-.959-1.417-1.925-2.83a2.079,2.079,0,0,1-.107-.2l1.321-1.732c-.483-.347-.106-.771-.164-1.188h2.767c.031.259.081.527.086.8a.4.4,0,0,1-.167.277,2.522,2.522,0,0,1-.5.263,1.527,1.527,0,0,0-.63.46c-.278.344-.574.673-.873,1.02.107.146.205.281.305.415.278.372.559.742.835,1.117a1.093,1.093,0,0,0,.665.451,1.744,1.744,0,0,1,.321.128.473.473,0,0,1,.3.586C651.995,105.69,651.982,105.891,651.954,106.111Z" transform="translate(-619.732 -41.961)" fill="#ffffff"/>
      <path id="Path_192" data-name="Path 192" d="M627.662,99.67v4.88c.186.109.348.206.512.3a.316.316,0,0,1,.178.34c-.036.239-.078.478-.12.735h-2.856c-.037-.261-.085-.518-.1-.777a.418.418,0,0,1,.112-.248.477.477,0,0,1,.205-.144c.273-.1.339-.28.333-.561-.019-.919-.012-1.839,0-2.758a.359.359,0,0,0-.229-.4.589.589,0,0,1-.393-.769c.1-.514.063-.53.58-.61a5.144,5.144,0,0,1,1.546-.041C627.5,99.63,627.566,99.649,627.662,99.67Z" transform="translate(-610.611 -41.798)" fill="#ffffff"/>
      <path id="Path_193" data-name="Path 193" d="M627.114,95.279h.063a.92.92,0,0,1,.912,1.339.7.7,0,0,1-.453.452,1.515,1.515,0,0,1-1.081-.012.542.542,0,0,1-.087-.036.943.943,0,0,1-.381-1,.717.717,0,0,1,.559-.684,4.618,4.618,0,0,1,.465-.077Z" transform="translate(-610.934 -40.047)" fill="#ffffff"/>
      <path id="Path_194" data-name="Path 194" d="M659.107,53.664a26.158,26.158,0,1,1,10.185-2.056,26.172,26.172,0,0,1-10.185,2.056Zm0-51.146A24.981,24.981,0,1,0,684.088,27.5,24.981,24.981,0,0,0,659.107,2.518Z" transform="translate(-613.726 -1.32)" fill="#ffffff"/>
    </g>
    <g id="Group_271" data-name="Group 271" transform="translate(1163.255 616.729)">
      <g id="Group_270" data-name="Group 270" transform="translate(0 0)">
        <g id="Group_267" data-name="Group 267" transform="translate(0 0)">
          <g id="Group_266" data-name="Group 266" clip-path="url(#clip-path)">
            <path id="Path_205" data-name="Path 205" d="M499.165,342.609a3.721,3.721,0,0,0-.187-.439q-2.288-3.927-4.588-7.847a1.9,1.9,0,0,1-.273-1.011c.006-11.31.005-34.522.005-34.522h10.259V317.9h-4.129v-14.99h-1.977s0,20.519,0,30.5a1.493,1.493,0,0,0,.217.831c.25.4.483.81.736,1.238.206-.106.24-.314.352-.459a3.742,3.742,0,0,0,.693-2.461c-.04-4-.017-12.575-.017-12.575h4.153s0,9.106,0,13.428a1.566,1.566,0,0,1-.224.829q-2.3,3.92-4.588,7.847a5.3,5.3,0,0,0-.236.523Z" transform="translate(-469.591 -284.124)" fill="#ffffff"/>
            <path id="Path_206" data-name="Path 206" d="M760.3,298.791s-1.559,2.735-2.353,4.1H746.041v1.969H756.8l-6.1,10.455-.091-.017v-6.316h-4.6s-.008,9.419,0,13.839a1.892,1.892,0,0,1-.279,1.009c-1.185,2.006-2.354,4.021-3.529,6.033-.08.136-.17.267-.311.488V298.791Z" transform="translate(-705.069 -284.124)" fill="#ffffff"/>
            <path id="Path_207" data-name="Path 207" d="M82.032,298.85c3.248,5.563,9.739,16.992,9.739,16.992v-6.81h4.594s0,11.6,0,13.938a1.3,1.3,0,0,0,.149.7c1.255,2.134,3.962,6.768,3.962,6.768V298.85Zm14.333,5.973H90.327s-1-1.856-.994-1.867,7.032,0,7.032,0Z" transform="translate(-77.96 -284.181)" fill="#ffffff"/>
          </g>
        </g>
        <g id="Group_269" data-name="Group 269" transform="translate(0 0)">
          <g id="Group_268" data-name="Group 268" clip-path="url(#clip-path)">
            <path id="Path_208" data-name="Path 208" d="M108.01,12.689a27.681,27.681,0,0,1,43.527,0H154.2a29.82,29.82,0,0,0-48.861,0Z" transform="translate(-100.114 0.002)" fill="#ffffff"/>
            <path id="Path_209" data-name="Path 209" d="M26.077,378.657A27.362,27.362,0,0,1,2.138,351.671a26.81,26.81,0,0,1,2.1-10.424l-1.324-2.268q-.305.629-.581,1.274a29.123,29.123,0,0,0,0,22.834,29.214,29.214,0,0,0,6.356,9.323,29.716,29.716,0,0,0,18.71,8.507Z" transform="translate(0 -322.34)" fill="#ffffff"/>
            <path id="Path_210" data-name="Path 210" d="M666.887,339.087q-.289-.676-.611-1.335l-1.322,2.264A26.808,26.808,0,0,1,667.08,350.5a27.363,27.363,0,0,1-24.009,27l-1.317,2.256a29.715,29.715,0,0,0,18.777-8.512,29.215,29.215,0,0,0,6.356-9.323,29.123,29.123,0,0,0,0-22.834" transform="translate(-609.9 -321.173)" fill="#ffffff"/>
            <path id="Path_211" data-name="Path 211" d="M99.978,455.518a21.927,21.927,0,0,1-14.916-20.679,21.659,21.659,0,0,1,.4-4.177l-2.48-4.247a25.187,25.187,0,0,0,.566,18.293,25.253,25.253,0,0,0,5.493,8.058,25.691,25.691,0,0,0,13.411,7Z" transform="translate(-77.491 -405.484)" fill="#ffffff"/>
            <path id="Path_212" data-name="Path 212" d="M214.683,90.175a22.26,22.26,0,0,1,28.488,0H248.2q-.553-.623-1.15-1.213a25.8,25.8,0,0,0-36.256,0q-.6.59-1.15,1.213Z" transform="translate(-199.243 -77.534)" fill="#ffffff"/>
            <path id="Path_213" data-name="Path 213" d="M709.741,430.338a21.654,21.654,0,0,1,.409,4.2,21.927,21.927,0,0,1-14.935,20.685l-2.478,4.244a25.692,25.692,0,0,0,13.427-7,25.253,25.253,0,0,0,5.493-8.058,25.186,25.186,0,0,0,.56-18.309Z" transform="translate(-658.353 -405.179)" fill="#ffffff"/>
          </g>
        </g>
      </g>
    </g>
  </g>
</svg>
