<svg xmlns="http://www.w3.org/2000/svg" width="237.93" height="64.93" viewBox="0 0 237.93 64.93">
  <path id="Path_22" data-name="Path 22" d="M31.95,36.33a4.1,4.1,0,0,0,4.11-2.7l.3,2.37h2.88V23.67h-6.6v2.79h2.61v2.28c0,2.64-.54,4.32-2.67,4.32-2.16,0-2.64-1.59-2.64-4.11V18.78c0-2.22.18-4.11,2.52-4.11,2.19,0,2.43,1.38,2.43,3.72v1.38h4.23V18.51c0-4.5-1.74-7.08-6.72-7.08-5.34,0-6.93,3.18-6.93,8.4v8.16C25.47,33.12,27.15,36.33,31.95,36.33ZM42.93,36H53.19V32.97H47.34V24.9H51.9V21.81H47.34V14.82h5.79V11.7H42.93ZM58.5,36h4.44V14.97h3.78V11.7H54.63v3.27H58.5Zm24.99.33c5.43,0,6.84-3.09,6.84-8.19V11.7H86.04V28.65c0,2.31-.27,4.38-2.55,4.38-2.25,0-2.52-2.07-2.52-4.38V11.7H76.65V28.14C76.65,33.24,78.03,36.33,83.49,36.33ZM94.11,36h4.41V25.2h2.43c3.93,0,6.51-1.83,6.51-6.6,0-4.38-1.86-6.9-6.21-6.9H94.11Zm4.41-13.92V14.82h1.71c2.73,0,3.06,1.14,3.06,3.75,0,2.58-.63,3.51-3.06,3.51ZM120.24,36h4.44V14.97h3.78V11.7H116.37v3.27h3.87Zm17.25.33c5.19,0,6.99-3.06,6.99-7.95V19.26c0-4.92-1.8-7.83-6.99-7.83-5.22,0-7.02,2.91-7.02,7.83v9.12C130.47,33.3,132.24,36.33,137.49,36.33Zm0-3.27c-2.19,0-2.52-1.62-2.52-3.63V18.24c0-2.04.36-3.57,2.52-3.57s2.49,1.53,2.49,3.57V29.43C139.98,31.44,139.65,33.06,137.49,33.06Zm23.82,3.3c4.59,0,6.33-2.97,6.33-7.38,0-3.39-1.29-5.19-3.21-5.82,1.86-.54,3.21-2.43,3.21-5.34,0-4.11-2.25-6.42-6.36-6.42-4.05,0-6.3,2.37-6.3,6.51v1.14h4.11v-.87c.06-2.04.45-3.45,2.19-3.45,1.77,0,2.25,1.23,2.25,3.27,0,2.52-.72,3.6-2.91,3.63h-.63v3.33h.69c2.22.12,2.85,1.62,2.85,4.11,0,2.4-.36,3.81-2.19,3.81-1.77,0-2.19-1.29-2.25-3.6v-.72h-4.11v.84C154.98,33.63,156.75,36.36,161.31,36.36Zm15.69,0c4.23,0,6.33-2.91,6.33-7.05V18.54c0-4.23-1.98-7.11-6.33-7.11-4.41,0-6.33,2.85-6.33,7.11V29.31C170.67,33.45,172.74,36.36,177,36.36Zm0-3.57c-1.8,0-2.13-1.98-2.13-3.54V18.6c0-1.65.21-3.6,2.13-3.6,1.89,0,2.13,1.95,2.13,3.6V29.25C179.13,30.81,178.83,32.79,177,32.79Zm14.73-7.71c3.78,0,5.22-2.1,5.22-6V17.43c0-3.96-1.41-5.85-5.22-5.85s-5.19,1.95-5.19,5.97v1.47C186.54,22.89,187.98,25.08,191.73,25.08ZM194.64,36h2.76l7.08-24.33h-2.73Zm-2.91-13.71c-1.53,0-1.71-1.35-1.71-3.3V17.55c0-1.98.15-3.15,1.71-3.15,1.59,0,1.74,1.17,1.74,3.12v1.44C193.47,20.91,193.29,22.29,191.73,22.29Zm15.63,13.8c3.78,0,5.22-2.07,5.22-6V28.47c0-3.96-1.41-5.85-5.22-5.85s-5.19,1.98-5.19,5.94v1.47C202.17,33.93,203.61,36.09,207.36,36.09Zm0-2.79c-1.53,0-1.71-1.35-1.71-3.3V28.56c0-1.95.15-3.15,1.71-3.15,1.59,0,1.74,1.17,1.74,3.15V30C209.1,31.92,208.92,33.3,207.36,33.3Zm22.8,3.03c5.19,0,6.99-3.06,6.99-7.95V19.26c0-4.92-1.8-7.83-6.99-7.83-5.22,0-7.02,2.91-7.02,7.83v9.12C223.14,33.3,224.91,36.33,230.16,36.33Zm0-3.27c-2.19,0-2.52-1.62-2.52-3.63V18.24c0-2.04.36-3.57,2.52-3.57s2.49,1.53,2.49,3.57V29.43C232.65,31.44,232.32,33.06,230.16,33.06ZM240.72,36h4.41V24.93h4.56V21.84h-4.56V14.76h5.58V11.7h-9.99Zm12.69,0h4.41V24.93h4.56V21.84h-4.56V14.76h5.58V11.7h-9.99ZM74.235,76h4.41V65.2h2.43c3.93,0,6.51-1.83,6.51-6.6,0-4.38-1.86-6.9-6.21-6.9h-7.14Zm4.41-13.92V54.82h1.71c2.73,0,3.06,1.14,3.06,3.75,0,2.58-.63,3.51-3.06,3.51ZM90.345,76h4.41V64.87h2.1L99.765,76h4.44l-3.39-11.97c2.28-.93,3-2.97,3-5.88,0-4.89-2.76-6.45-7.62-6.45h-5.85Zm4.41-13.89V54.73H96.4c2.55,0,3.24,1.2,3.24,3.66,0,2.61-.93,3.72-3.48,3.72Zm19.23,14.22c5.19,0,6.99-3.06,6.99-7.95V59.26c0-4.92-1.8-7.83-6.99-7.83-5.22,0-7.02,2.91-7.02,7.83v9.12C106.965,73.3,108.735,76.33,113.985,76.33Zm0-3.27c-2.19,0-2.52-1.62-2.52-3.63V58.24c0-2.04.36-3.57,2.52-3.57s2.49,1.53,2.49,3.57V69.43C116.475,71.44,116.145,73.06,113.985,73.06Zm16.65,3.27a4.1,4.1,0,0,0,4.11-2.7l.3,2.37h2.88V63.67h-6.6v2.79h2.61v2.28c0,2.64-.54,4.32-2.67,4.32-2.16,0-2.64-1.59-2.64-4.11V58.78c0-2.22.18-4.11,2.52-4.11,2.19,0,2.43,1.38,2.43,3.72v1.38h4.23V58.51c0-4.5-1.74-7.08-6.72-7.08-5.34,0-6.93,3.18-6.93,8.4v8.16C124.155,73.12,125.835,76.33,130.635,76.33Zm10.98-.33h4.41V64.87h2.1L151.035,76h4.44l-3.39-11.97c2.28-.93,3-2.97,3-5.88,0-4.89-2.76-6.45-7.62-6.45h-5.85Zm4.41-13.89V54.73h1.65c2.55,0,3.24,1.2,3.24,3.66,0,2.61-.93,3.72-3.48,3.72ZM157.515,76h4.17l.99-5.61h4.23l.96,5.61h4.11l-4.86-24.3h-4.74Zm5.61-8.43,1.65-10.2,1.65,10.2ZM174.645,76h3.33l.33-16.95L181.815,76h2.67l3.45-16.89.36,16.89h3.3l-.45-24.3h-4.47L183.1,68.53l-3.45-16.83h-4.59Zm26.79.33a5.749,5.749,0,0,0,6.09-5.97c0-3.21-1.65-5.34-3.63-7.05l-3.03-2.67c-1.29-1.11-1.98-2.01-1.98-3.66a2.037,2.037,0,0,1,2.04-2.28c1.95,0,2.28,1.71,2.37,3.99l3.81-.66c-.24-3.54-1.53-6.6-6.09-6.6-3.87,0-6.27,2.16-6.27,6a7.172,7.172,0,0,0,2.82,5.88l3.06,2.67c1.59,1.38,2.67,2.55,2.67,4.65,0,1.32-.6,2.28-2.01,2.28-1.95,0-2.64-1.86-2.76-4.74l-3.81.75C194.9,73.75,196.995,76.33,201.435,76.33Zm9.87-6.03h1.44l1.44-18.57H210.1Zm-1.26,5.7H214V72.04h-3.96Z" transform="translate(-25.47 -11.4)" fill="#fafdfb"/>
</svg>
