<svg xmlns="http://www.w3.org/2000/svg" xmlns:xlink="http://www.w3.org/1999/xlink" width="316.817" height="204.405" viewBox="0 0 316.817 204.405">
  <defs>
    <clipPath id="clip-path">
      <rect id="Rectangle_140" data-name="Rectangle 140" width="59.67" height="59.59" fill="#3e4146"/>
    </clipPath>
  </defs>
  <g id="Group_400" data-name="Group 400" transform="translate(-41.602 -1291.465)">
    <g id="Group_399" data-name="Group 399" transform="translate(-10.648)">
      <g id="Group_272" data-name="Group 272" transform="translate(52.25 1331.85)">
        <path id="Path_111" data-name="Path 111" d="M39.641,28.96V26.417c.031-.265.074-.529.093-.795a24.692,24.692,0,0,1,.924-5.152A26.45,26.45,0,0,1,64.331,1.406a24.084,24.084,0,0,1,8.258.8,26.1,26.1,0,0,1,18.23,16.649,23.11,23.11,0,0,1,1.347,5.741c.067.608.131,1.216.2,1.825V28.96c-.018.11-.043.219-.051.33a26.721,26.721,0,0,1-.637,4.34,26.093,26.093,0,0,1-10.421,15.5,25.831,25.831,0,0,1-14.862,4.882,25.241,25.241,0,0,1-6.484-.715,26.142,26.142,0,0,1-13.76-8.328,25.8,25.8,0,0,1-5.39-9.745,24.482,24.482,0,0,1-.916-4.467C39.777,30.157,39.708,29.559,39.641,28.96ZM66,48.269a20.627,20.627,0,1,0-14.68-6.157A20.584,20.584,0,0,0,66,48.269Z" transform="translate(-20.309 -1.335)" fill="#3e4146"/>
        <path id="Path_112" data-name="Path 112" d="M72.288,40.117a4.77,4.77,0,0,1,1.106-2.231c.242-.3.474-.615.717-.918a1.215,1.215,0,0,0,.114-1.492,13.422,13.422,0,0,0-.974-1.3,4.637,4.637,0,0,1-1.137-2.34.109.109,0,0,1,0-.025c.1-.659-.3-.984-.8-1.3a4.687,4.687,0,0,1-1.653-1.954,3.618,3.618,0,0,1-.2-1.473c-.084-1.449-.14-2.9-.237-4.35-.112.483-.206.97-.339,1.447a5.391,5.391,0,0,1-1.219,2.28,2.943,2.943,0,0,1-2.592.8c-.213-.016-.42-.095-.632-.128a2.257,2.257,0,0,1-1.528-1.055,5.514,5.514,0,0,1-.878-2.458c-.055-.41-.078-.824-.117-1.258-.235-.073-.566-.069-.509-.48.044-.321.171-.448.516-.526.234-.72.41-1.423.692-2.083a3.522,3.522,0,0,1,2.053-2.005,2.93,2.93,0,0,1,1.33-.042c.215.019.428.077.642.076a1.938,1.938,0,0,1,1.62,1.01,6.087,6.087,0,0,1,.938,2.682c.017.118.038.236.054.342a8.411,8.411,0,0,1,.934.092c.361.075.457.266.374.659a109.917,109.917,0,0,1,13.115,2.61c.456-.425.5-.429,1.252-.1.067-.21.125-.421.2-.625a2.817,2.817,0,0,1,2.022-1.935,4.972,4.972,0,0,1,1.3.069,1.786,1.786,0,0,1,1.269.6,3.3,3.3,0,0,1,.9,1.744,6.394,6.394,0,0,1-1.467,5.082,1.819,1.819,0,0,1-1.22.722,4.087,4.087,0,0,1-.892-.076c-.2-.023-.39-.075-.587-.092a1.41,1.41,0,0,1-1.132-.809c-.313-.576-.554-1.191-.822-1.782-.01.019-.056.094-.092.173-.248.54-.522,1.07-.735,1.624a3.368,3.368,0,0,1-1.362,1.579,5.407,5.407,0,0,1-2.15.841,15.258,15.258,0,0,1-.973,4.061,2.446,2.446,0,0,0,.294,2.171,8,8,0,0,1,3.71,1.742,7.616,7.616,0,0,1,1.231,1.357,2.228,2.228,0,0,1,.032,2.53c-1.134,2.052-2.233,4.123-3.344,6.187-.06.112-.1.236-.171.412a1.461,1.461,0,0,0,.393.246c.392.092.795.137,1.19.217a1.2,1.2,0,0,1,.915.518,1.6,1.6,0,0,1-.4.152c-1,.08-2,.146-3,.214A1.86,1.86,0,0,1,79.7,51.5c-.4-.046-.553-.237-.477-.633.071-.37.181-.734.279-1.1q.495-1.829.994-3.657a11.073,11.073,0,0,1,1.493-3.527.338.338,0,0,0,.024-.09,24.464,24.464,0,0,1-5.662-1.28c-.636.744-1.282,1.486-1.913,2.24-1.093,1.3-2.163,2.63-3.276,3.918a3.646,3.646,0,0,1-1.053.813c-.793.415-1.619.766-2.435,1.138-.348.159-.436.28-.308.644.159.452.363.889.561,1.326.035.079.135.127.2.194.091.094.177.193.3.331-.124.071-.2.152-.272.15-.413-.012-.826-.032-1.237-.075a.833.833,0,0,1-.632-.446,8.587,8.587,0,0,1-.471-.772.9.9,0,0,1-.078-.566,3.107,3.107,0,0,1,.392-.86,9.914,9.914,0,0,0,.989-1.809A1.955,1.955,0,0,1,68.759,46.3a.68.68,0,0,0,.422-.189,5.08,5.08,0,0,0,.668-1.209,13.306,13.306,0,0,1,1.933-4.175C71.933,40.524,72.1,40.338,72.288,40.117Zm5.043-14.4a4.487,4.487,0,0,0,.006.633,3.024,3.024,0,0,0,.171.567,1.654,1.654,0,0,1,.066,1.359.509.509,0,0,0-.028.152c-.048.356-.1.709-.591.7l.036.589c.114.073.214.14.316.2.352.22.447.184.784-.046a2.268,2.268,0,0,1,.83-.363c1.046-.2,2.1-.352,3.073-.511a11.438,11.438,0,0,1,.562-1.006,8.624,8.624,0,0,0,1.212-2.613A73.554,73.554,0,0,0,70.5,22.6l.691,4.758a14.1,14.1,0,0,1,2.837,2.073l.409-.555c-.121-.209-.249-.429-.376-.649a4.333,4.333,0,0,1-.328-.583,1.637,1.637,0,0,1,1.02-2.35,3.209,3.209,0,0,1,2.577.427Z" transform="translate(-29.049 -7.693)" fill="#3e4146"/>
        <path id="Path_113" data-name="Path 113" d="M7.327,97.834h3.521a10.141,10.141,0,0,1,1.559.087,2.29,2.29,0,0,1,.919.363,2.262,2.262,0,0,1,.676.736,1.993,1.993,0,0,1,.27,1.03,2.089,2.089,0,0,1-1.238,1.911,2.318,2.318,0,0,1,1.238.8,2.121,2.121,0,0,1,.433,1.328,2.619,2.619,0,0,1-.279,1.169,2.356,2.356,0,0,1-.763.907,2.522,2.522,0,0,1-1.193.418q-.445.048-2.145.06h-3ZM9.105,99.3v2.037h1.166q1.04,0,1.292-.03a1.175,1.175,0,0,0,.718-.315.93.93,0,0,0,.261-.688.966.966,0,0,0-.225-.664,1.02,1.02,0,0,0-.67-.309q-.264-.03-1.52-.03Zm0,3.5v2.355h1.646a8.069,8.069,0,0,0,1.22-.054,1.1,1.1,0,0,0,.646-.352,1.082,1.082,0,0,0,.249-.748,1.149,1.149,0,0,0-.192-.673,1.085,1.085,0,0,0-.556-.4,6.04,6.04,0,0,0-1.577-.126Z" transform="translate(-7.327 -40.102)" fill="#3e4146"/>
        <path id="Path_114" data-name="Path 114" d="M23.206,108.178H21.517V101.8h1.568v.907a2.727,2.727,0,0,1,.724-.847,1.334,1.334,0,0,1,.73-.2,2.144,2.144,0,0,1,1.112.319l-.523,1.472a1.483,1.483,0,0,0-.793-.276.936.936,0,0,0-.6.2,1.333,1.333,0,0,0-.388.706,10.037,10.037,0,0,0-.141,2.139Z" transform="translate(-13.028 -41.637)" fill="#3e4146"/>
        <path id="Path_115" data-name="Path 115" d="M32.49,106.145l1.682.282a2.759,2.759,0,0,1-1.024,1.409,3.01,3.01,0,0,1-1.752.484,2.855,2.855,0,0,1-2.464-1.088,3.654,3.654,0,0,1-.631-2.2,3.524,3.524,0,0,1,.829-2.485,2.732,2.732,0,0,1,2.1-.9,2.833,2.833,0,0,1,2.247.941,4.161,4.161,0,0,1,.787,2.881h-4.23a1.708,1.708,0,0,0,.409,1.169,1.278,1.278,0,0,0,.973.418,1.034,1.034,0,0,0,.667-.216A1.337,1.337,0,0,0,32.49,106.145Zm.1-1.707a1.626,1.626,0,0,0-.379-1.115,1.162,1.162,0,0,0-.877-.382,1.173,1.173,0,0,0-.914.4,1.558,1.558,0,0,0-.354,1.094Z" transform="translate(-15.751 -41.635)" fill="#3e4146"/>
        <path id="Path_116" data-name="Path 116" d="M41.018,103.739l-1.532-.277a2.387,2.387,0,0,1,.889-1.37,3.252,3.252,0,0,1,1.875-.445,4.038,4.038,0,0,1,1.682.268,1.679,1.679,0,0,1,.778.679,3.48,3.48,0,0,1,.225,1.511l-.018,1.971A6.851,6.851,0,0,0,45,107.317a3.614,3.614,0,0,0,.3.856H43.632q-.066-.168-.162-.5-.042-.15-.06-.2a3.044,3.044,0,0,1-.925.631,2.65,2.65,0,0,1-1.052.21,2.175,2.175,0,0,1-1.553-.535,1.777,1.777,0,0,1-.568-1.352,1.814,1.814,0,0,1,.258-.965,1.687,1.687,0,0,1,.724-.649,5.652,5.652,0,0,1,1.343-.394,9.179,9.179,0,0,0,1.641-.415v-.168a.874.874,0,0,0-.24-.694,1.441,1.441,0,0,0-.907-.208,1.21,1.21,0,0,0-.7.177A1.232,1.232,0,0,0,41.018,103.739Zm2.26,1.37a10.574,10.574,0,0,1-1.028.258,3.1,3.1,0,0,0-.919.295.7.7,0,0,0-.331.595.827.827,0,0,0,.264.613.923.923,0,0,0,.673.259,1.46,1.46,0,0,0,.871-.3,1.057,1.057,0,0,0,.4-.559,3.334,3.334,0,0,0,.066-.823Z" transform="translate(-20.176 -41.632)" fill="#3e4146"/>
        <path id="Path_117" data-name="Path 117" d="M50.881,106.645v-8.81H52.57v4.675l1.977-2.247h2.079l-2.181,2.332,2.338,4.05H54.961l-1.6-2.866-.787.823v2.043Z" transform="translate(-24.825 -40.104)" fill="#3e4146"/>
        <path id="Path_118" data-name="Path 118" d="M61.908,99.4V97.835H63.6V99.4Zm0,7.247v-6.382H63.6v6.382Z" transform="translate(-29.255 -40.104)" fill="#3e4146"/>
        <path id="Path_119" data-name="Path 119" d="M72.906,108.178H71.217v-3.257a5.031,5.031,0,0,0-.108-1.337.939.939,0,0,0-.351-.472,1.008,1.008,0,0,0-.586-.168,1.353,1.353,0,0,0-.787.241,1.209,1.209,0,0,0-.478.637,5.5,5.5,0,0,0-.129,1.466v2.89H67.089V101.8h1.568v.938a2.615,2.615,0,0,1,3.125-.88,1.712,1.712,0,0,1,.7.514,1.866,1.866,0,0,1,.331.709,5.278,5.278,0,0,1,.093,1.136Z" transform="translate(-31.336 -41.637)" fill="#3e4146"/>
        <path id="Path_120" data-name="Path 120" d="M78.744,108.6l1.929.234a.659.659,0,0,0,.222.463,1.27,1.27,0,0,0,.757.18,1.967,1.967,0,0,0,.991-.2.82.82,0,0,0,.337-.427,2.57,2.57,0,0,0,.078-.775v-.932a2.285,2.285,0,0,1-1.911,1.034,2.352,2.352,0,0,1-2.037-1.088,3.7,3.7,0,0,1-.589-2.139,3.519,3.519,0,0,1,.772-2.452,2.492,2.492,0,0,1,1.92-.847,2.338,2.338,0,0,1,1.953,1.04v-.9h1.58v5.727a5.7,5.7,0,0,1-.186,1.689,2.093,2.093,0,0,1-.523.877,2.314,2.314,0,0,1-.9.5,4.727,4.727,0,0,1-1.421.18,3.679,3.679,0,0,1-2.3-.556,1.744,1.744,0,0,1-.679-1.409C78.738,108.747,78.74,108.678,78.744,108.6Zm1.508-3.744a2.3,2.3,0,0,0,.393,1.487,1.217,1.217,0,0,0,.971.472,1.341,1.341,0,0,0,1.045-.484,2.105,2.105,0,0,0,.427-1.433,2.234,2.234,0,0,0-.409-1.472,1.3,1.3,0,0,0-1.033-.481,1.247,1.247,0,0,0-1,.472,2.213,2.213,0,0,0-.393,1.439Z" transform="translate(-35.926 -41.637)" fill="#3e4146"/>
        <path id="Path_121" data-name="Path 121" d="M96.393,106.645v-8.81h2.662l1.6,6.009,1.58-6.009H104.9v8.809h-1.653V99.71l-1.749,6.935H99.788l-1.743-6.935v6.935Z" transform="translate(-43.109 -40.104)" fill="#3e4146"/>
        <path id="Path_122" data-name="Path 122" d="M117.208,108.275v-.956a2.458,2.458,0,0,1-.916.805,2.569,2.569,0,0,1-1.2.295,2.345,2.345,0,0,1-1.154-.282,1.667,1.667,0,0,1-.739-.793,3.532,3.532,0,0,1-.228-1.412v-4.038h1.689v2.933a8.118,8.118,0,0,0,.093,1.649.9.9,0,0,0,.34.481,1.044,1.044,0,0,0,.625.177,1.329,1.329,0,0,0,.775-.237,1.207,1.207,0,0,0,.469-.589,6.831,6.831,0,0,0,.126-1.722v-2.692h1.689v6.382Z" transform="translate(-49.768 -41.734)" fill="#3e4146"/>
        <path id="Path_123" data-name="Path 123" d="M124.091,106.35l1.695-.259a1.24,1.24,0,0,0,.438.748,1.482,1.482,0,0,0,.925.255,1.669,1.669,0,0,0,.985-.24.537.537,0,0,0,.223-.451.444.444,0,0,0-.12-.319,1.352,1.352,0,0,0-.565-.222,9.1,9.1,0,0,1-2.59-.823,1.644,1.644,0,0,1-.757-1.436,1.77,1.77,0,0,1,.655-1.394,3.058,3.058,0,0,1,2.031-.565,3.542,3.542,0,0,1,1.947.427,2.181,2.181,0,0,1,.878,1.262l-1.593.295a.983.983,0,0,0-.388-.571,1.415,1.415,0,0,0-.814-.2,1.836,1.836,0,0,0-.956.186.4.4,0,0,0-.192.343.373.373,0,0,0,.168.306,6.345,6.345,0,0,0,1.577.475,4.7,4.7,0,0,1,1.884.751,1.562,1.562,0,0,1,.529,1.256,1.928,1.928,0,0,1-.733,1.508,3.247,3.247,0,0,1-2.169.631,3.56,3.56,0,0,1-2.064-.529A2.435,2.435,0,0,1,124.091,106.35Z" transform="translate(-54.237 -41.63)" fill="#3e4146"/>
        <path id="Path_124" data-name="Path 124" d="M141.326,103.681l-1.665.3a1.208,1.208,0,0,0-.381-.751,1.155,1.155,0,0,0-.772-.252,1.262,1.262,0,0,0-1.007.436,2.233,2.233,0,0,0-.375,1.457,2.581,2.581,0,0,0,.382,1.6,1.253,1.253,0,0,0,1.024.469,1.138,1.138,0,0,0,.787-.273,1.646,1.646,0,0,0,.433-.941l1.658.282a2.943,2.943,0,0,1-.991,1.725,3.069,3.069,0,0,1-1.965.583,2.922,2.922,0,0,1-2.232-.883,4.026,4.026,0,0,1,0-4.906,2.966,2.966,0,0,1,2.259-.88,3.082,3.082,0,0,1,1.854.5A2.784,2.784,0,0,1,141.326,103.681Z" transform="translate(-58.776 -41.635)" fill="#3e4146"/>
        <path id="Path_125" data-name="Path 125" d="M146.938,106.645v-8.81h1.689v8.809Z" transform="translate(-63.416 -40.104)" fill="#3e4146"/>
        <path id="Path_126" data-name="Path 126" d="M155.5,106.145l1.683.282a2.762,2.762,0,0,1-1.025,1.409,3.009,3.009,0,0,1-1.752.484,2.856,2.856,0,0,1-2.464-1.088,3.655,3.655,0,0,1-.631-2.2,3.524,3.524,0,0,1,.829-2.485,2.731,2.731,0,0,1,2.1-.9,2.832,2.832,0,0,1,2.247.941,4.161,4.161,0,0,1,.787,2.881h-4.23a1.707,1.707,0,0,0,.409,1.169,1.278,1.278,0,0,0,.974.418,1.033,1.033,0,0,0,.667-.216,1.336,1.336,0,0,0,.409-.7Zm.1-1.707a1.628,1.628,0,0,0-.379-1.115,1.162,1.162,0,0,0-.877-.382,1.173,1.173,0,0,0-.914.4,1.559,1.559,0,0,0-.355,1.094Z" transform="translate(-65.17 -41.635)" fill="#3e4146"/>
      </g>
      <g id="Group_277" data-name="Group 277" transform="translate(55.455 1428.671)">
        <path id="Path_161" data-name="Path 161" d="M1077.231,10.169a8.389,8.389,0,0,0-3.687,2.661,11.637,11.637,0,0,0-2.981,9.326c.28,2.415.642,4.82,1,7.225a6.8,6.8,0,0,1-1.117,5.252c0-1.591.046-2.942-.01-4.289-.107-2.585-1.7-4.229-3.826-5.594.048.462.091.925.144,1.386.329,2.881.127,5.636-1.564,8.156a11.4,11.4,0,0,0-2.082,6.7L1050.19,28.078l26.239-26.111,26.517,26.427L1088.6,42.573c.7-2.732-.2-5.223-.982-7.734-.539-1.731-1.057-3.469-1.571-5.208a11.739,11.739,0,0,1,.037-7.06c.131-.408.194-.838.3-1.291-2.927.613-5.166,3.967-5.457,8.063C1076.806,24.938,1073.665,17.305,1077.231,10.169Z" transform="translate(-1034.203 -1.967)" fill="#3e4146"/>
        <path id="Path_162" data-name="Path 162" d="M1090.542,75.915c-1.966-1.9-3.8-3.626-5.585-5.4-.889-.885-.693-2.046-.585-3.148a4.175,4.175,0,0,1,.253-1.03,16.512,16.512,0,0,0,1.253-6.768c1.029.649,1.029.649,1.676,3.866a8.969,8.969,0,0,0,2.769-4.013,35.606,35.606,0,0,0,.561-4.763,3.264,3.264,0,0,1,1.324,2.476c.045,1.5-.012,3.007-.085,4.509a6.6,6.6,0,0,0,1.249,4.293c.443-1.6-.347-3.207.919-4.624.034.5.072.779.07,1.06a5.945,5.945,0,0,0,.935,3.266,6.24,6.24,0,0,1,.859,2.055,3.887,3.887,0,0,1-1.3,3.936C1093.329,72.966,1091.965,74.485,1090.542,75.915Z" transform="translate(-1047.897 -23.134)" fill="#3e4146"/>
        <path id="Path_163" data-name="Path 163" d="M1028.722,98.013v1.466c0,1.8-.87,2.787-2.642,2.787h-.839V106.5h-1.772V95.226h2.61C1027.848,95.226,1028.722,96.209,1028.722,98.013Zm-3.48-1.176v3.818h.838c.564,0,.87-.258.87-1.063V97.9c0-.805-.306-1.063-.87-1.063Z" transform="translate(-1023.467 -39.433)" fill="#3e4146"/>
        <path id="Path_164" data-name="Path 164" d="M1037.461,106.5a3.468,3.468,0,0,1-.161-1.386v-1.772c0-1.047-.354-1.434-1.16-1.434h-.612V106.5h-1.772V95.226h2.674c1.837,0,2.626.854,2.626,2.594v.886a2.248,2.248,0,0,1-1.16,2.288c.886.371,1.176,1.225,1.176,2.4v1.74a3.325,3.325,0,0,0,.193,1.37Zm-1.933-9.667V100.3h.693c.66,0,1.063-.29,1.063-1.192V98c0-.806-.274-1.16-.9-1.16Z" transform="translate(-1027.601 -39.433)" fill="#3e4146"/>
        <path id="Path_165" data-name="Path 165" d="M1044.34,97.846a2.694,2.694,0,1,1,5.381,0v5.865a2.694,2.694,0,1,1-5.381,0Zm1.772,5.977c0,.806.355,1.112.918,1.112s.918-.306.918-1.112v-6.09c0-.805-.354-1.112-.918-1.112s-.918.306-.918,1.112Z" transform="translate(-1031.853 -39.347)" fill="#3e4146"/>
        <path id="Path_166" data-name="Path 166" d="M1060.5,98.013v1.466c0,1.8-.87,2.787-2.643,2.787h-.838V106.5h-1.772V95.226h2.61C1059.629,95.226,1060.5,96.209,1060.5,98.013Zm-3.48-1.176v3.818h.838c.564,0,.87-.258.87-1.063V97.9c0-.805-.306-1.063-.87-1.063Z" transform="translate(-1036.236 -39.433)" fill="#3e4146"/>
        <path id="Path_167" data-name="Path 167" d="M1070.6,106.5h-1.788l-.306-2.046h-2.175l-.306,2.046H1064.4l1.8-11.278h2.594Zm-4.044-3.577h1.708l-.854-5.7Z" transform="translate(-1039.913 -39.434)" fill="#3e4146"/>
        <path id="Path_168" data-name="Path 168" d="M1077.719,98.336V106.5h-1.595V95.226h2.223l1.82,6.751V95.226h1.579V106.5h-1.821Z" transform="translate(-1044.622 -39.433)" fill="#3e4146"/>
        <path id="Path_169" data-name="Path 169" d="M1089.42,99.978h2.433v1.611h-2.433v3.3h3.061V106.5h-4.833V95.226h4.833v1.611h-3.061Z" transform="translate(-1049.252 -39.433)" fill="#3e4146"/>
        <path id="Path_170" data-name="Path 170" d="M1103.5,100.236h2.288v1.611H1103.5V106.5h-1.772V95.226h4.689v1.611H1103.5Z" transform="translate(-1054.908 -39.433)" fill="#3e4146"/>
        <path id="Path_171" data-name="Path 171" d="M1110.99,95.226h1.772V106.5h-1.772Z" transform="translate(-1058.63 -39.433)" fill="#3e4146"/>
        <path id="Path_172" data-name="Path 172" d="M1115.25,95.226h5.478v1.611h-1.852V106.5H1117.1V96.837h-1.853Z" transform="translate(-1060.341 -39.433)" fill="#3e4146"/>
        <path id="Path_173" data-name="Path 173" d="M1127.269,98.336V106.5h-1.595V95.226h2.223l1.821,6.751V95.226h1.579V106.5h-1.821Z" transform="translate(-1064.529 -39.433)" fill="#3e4146"/>
        <path id="Path_174" data-name="Path 174" d="M1138.97,99.978h2.433v1.611h-2.433v3.3h3.061V106.5H1137.2V95.226h4.833v1.611h-3.061Z" transform="translate(-1069.159 -39.433)" fill="#3e4146"/>
        <path id="Path_175" data-name="Path 175" d="M1149.3,95.011c1.724,0,2.61,1.031,2.61,2.836V98.2h-1.675v-.468c0-.805-.322-1.112-.886-1.112s-.886.306-.886,1.112c0,2.32,3.464,2.755,3.464,5.977,0,1.8-.9,2.836-2.643,2.836s-2.642-1.031-2.642-2.836v-.693h1.676v.806c0,.806.355,1.1.919,1.1s.918-.29.918-1.1c0-2.32-3.464-2.755-3.464-5.977C1146.7,96.042,1147.582,95.011,1149.3,95.011Z" transform="translate(-1072.955 -39.347)" fill="#3e4146"/>
        <path id="Path_176" data-name="Path 176" d="M1159.375,95.011c1.724,0,2.61,1.031,2.61,2.836V98.2h-1.676v-.468c0-.805-.323-1.112-.886-1.112s-.886.306-.886,1.112c0,2.32,3.464,2.755,3.464,5.977,0,1.8-.9,2.836-2.642,2.836s-2.642-1.031-2.642-2.836v-.693h1.676v.806c0,.806.354,1.1.918,1.1s.918-.29.918-1.1c0-2.32-3.464-2.755-3.464-5.977C1156.766,96.042,1157.652,95.011,1159.375,95.011Z" transform="translate(-1077 -39.347)" fill="#3e4146"/>
      </g>
      <g id="Group_275" data-name="Group 275" transform="translate(168.938 1430.524)">
        <path id="Path_177" data-name="Path 177" d="M669.871,50.487q.2-12,.4-24.009c.349.151,3.931,3.44,5.894,5.319,1.914,1.832,3.875,3.614,5.842,5.442l12.081-10.294c-.14,8.137-.278,16.141-.418,24.26-1.408-1.318-2.638-2.674-3.936-3.962s-2.567-2.593-3.847-3.893-2.578-2.626-3.918-3.99l-12,11.176Z" transform="translate(-628.445 -11.427)" fill="#3e4146"/>
        <path id="Path_178" data-name="Path 178" d="M655.113,26.905l-.173-.011c-.1-.007-.191-.013-.281-.013h-2.676c-2.262,0-4.6,0-6.9-.006h0a1.069,1.069,0,0,0-.728.268c-1.341,1.1-2.709,2.214-4.032,3.291l-2.009,1.637a.926.926,0,0,0-.138.153c-.025.032-.054.069-.089.111l-.1.119.155,0c1.686.041,3.382.069,5.021.1,2,.032,4.075.066,6.117.125v2.959c0,3.015,0,6.133-.005,9.2a1.056,1.056,0,0,0,.318.812c1.19,1.23,2.391,2.489,3.554,3.707l1.631,1.707a1,1,0,0,0,.184.14c.034.022.071.046.11.074l.118.084V26.909Zm-4.833,7.966v-3.2l-9.638-.169,0,0a1.97,1.97,0,0,1,.161-.155l1.345-1.1c.858-.7,1.745-1.422,2.615-2.137a.732.732,0,0,1,.492-.2h0q2.838.005,5.677,0h3.039a.9.9,0,0,1,.155.019l.038.007v21a1.081,1.081,0,0,1-.09-.08l-.991-1.034c-.824-.86-1.675-1.749-2.523-2.615a.974.974,0,0,1-.29-.756C650.28,41.259,650.28,38.012,650.28,34.871Z" transform="translate(-615.633 -11.587)" fill="#3e4146"/>
        <path id="Path_179" data-name="Path 179" d="M751.963,104.622a4.364,4.364,0,0,1-2.033.444,4.18,4.18,0,0,1-.663-.083.977.977,0,0,1-.823-.79,6.046,6.046,0,0,1-.127-1.072c-.017-.947-.006-1.894-.006-2.842v-.365l-.55-.08c-.044-.206-.086-.4-.129-.6a.249.249,0,0,1,.127-.271,1.982,1.982,0,0,1,.386-.22.6.6,0,0,0,.366-.411c.083-.241.177-.478.278-.712a.619.619,0,0,1,.687-.4c.178.016.359,0,.559,0a2.963,2.963,0,0,1,.039.792c.009.253,0,.506,0,.79h1.736v1.045c-.559.023-1.119,0-1.7.015a2.051,2.051,0,0,0-.032.25q0,1.453,0,2.905c0,.021,0,.043,0,.064.025.587.209.756.8.7.242-.023.479-.092.756-.148l.33.795Z" transform="translate(-659.684 -39.844)" fill="#3e4146"/>
        <path id="Path_180" data-name="Path 180" d="M717.423,106.011h-2.87c-.036-.271-.075-.532-.1-.794a.322.322,0,0,1,.222-.353c.428-.144.472-.456.454-.848-.033-.722-.025-1.446-.036-2.17a1.287,1.287,0,0,0-.019-.19.623.623,0,0,0-.628-.6,1.613,1.613,0,0,0-1.073.221.385.385,0,0,0-.215.358q.018,1.389.022,2.778a.28.28,0,0,0,.187.3.643.643,0,0,1,.443.925,2.816,2.816,0,0,0-.071.378H710.88c-.042-.288-.092-.567-.118-.849a.4.4,0,0,1,.1-.217.261.261,0,0,1,.131-.087c.4-.123.461-.417.444-.793-.026-.574,0-1.149-.01-1.724,0-.254-.037-.509-.061-.763a.526.526,0,0,0-.433-.491,1.609,1.609,0,0,0-1.338.247.38.38,0,0,0-.137.368q0,1.118,0,2.236v.661c.159.1.318.2.482.293a.331.331,0,0,1,.18.371c-.035.22-.065.441-.1.7a2.951,2.951,0,0,1-.391.054c-.745.007-1.49.011-2.235.005-.247,0-.261-.027-.294-.277-.108-.823-.169-.695.521-1.1a.436.436,0,0,0,.063-.064v-1.16c0-.671,0-1.341,0-2.012a.327.327,0,0,0-.189-.327c-.5-.291-.5-.3-.412-.887.02-.135.041-.27.063-.416a5.64,5.64,0,0,1,2.11-.117l.069.514a2.1,2.1,0,0,0,.237-.1,2.776,2.776,0,0,1,2.455-.229,4.712,4.712,0,0,1,.792.467c.061-.039.166-.11.273-.177a2.972,2.972,0,0,1,2.81-.226,1.207,1.207,0,0,1,.678.685,3.972,3.972,0,0,1,.286,1.5q.021,1.117.008,2.235a.406.406,0,0,0,.24.428c.522.268.451.251.387.8C717.477,105.7,717.45,105.842,717.423,106.011Z" transform="translate(-643.376 -40.81)" fill="#3e4146"/>
        <path id="Path_181" data-name="Path 181" d="M658.594,105.986h-2.87c-.043-.269-.093-.527-.122-.788a.343.343,0,0,1,.211-.33c.146-.086.294-.169.458-.263v-.954c0-.724-.009-1.448.005-2.171a.383.383,0,0,0-.249-.423c-.058-.024-.109-.067-.166-.1a.386.386,0,0,1-.238-.492c.045-.174.037-.361.083-.534a.3.3,0,0,1,.179-.187,5.494,5.494,0,0,1,1.972-.077l.042.518a3.669,3.669,0,0,1,1.773-.53,2.915,2.915,0,0,1,1.678.642,8.777,8.777,0,0,1,.808-.424,2.956,2.956,0,0,1,2.27.016,1.279,1.279,0,0,1,.739.749,3.406,3.406,0,0,1,.248,1.212c.014.819.029,1.638.026,2.457a.407.407,0,0,0,.261.449.667.667,0,0,1,.247.143.5.5,0,0,1,.159.288,7.809,7.809,0,0,1-.1.79h-2.885c-.033-.266-.065-.517-.1-.768a.326.326,0,0,1,.193-.337l.472-.277c0-.465,0-.942,0-1.419,0-.394-.006-.787-.011-1.181-.01-.755-.26-.993-1.016-.954a1.489,1.489,0,0,0-.435.088c-.453.168-.49.232-.49.723,0,.819.007,1.639-.005,2.458a.413.413,0,0,0,.247.426c.5.271.5.217.4.817-.019.125-.035.251-.056.4a3.432,3.432,0,0,1-.434.058q-1.085.009-2.171,0c-.271,0-.277-.017-.314-.288-.02-.147-.038-.3-.061-.442a.394.394,0,0,1,.231-.444.5.5,0,0,1,.082-.048c.315-.092.372-.319.363-.616-.023-.744-.013-1.489-.035-2.233s-.258-.944-.992-.906a1.545,1.545,0,0,0-.4.079c-.495.166-.559.261-.559.78,0,.809.008,1.618-.005,2.426a.382.382,0,0,0,.251.423.592.592,0,0,1,.083.047c.368.22.368.219.3.659C658.643,105.627,658.621,105.794,658.594,105.986Z" transform="translate(-622.713 -40.81)" fill="#3e4146"/>
        <path id="Path_182" data-name="Path 182" d="M615.736,104.213h-2.874c-.039-.277-.087-.546-.11-.817a.359.359,0,0,1,.1-.219.418.418,0,0,1,.184-.122c.325-.109.394-.334.391-.661q-.024-2.6,0-5.2c0-.276-.051-.472-.322-.578a.632.632,0,0,1-.212-.138c-.058-.058-.135-.141-.13-.209a6.994,6.994,0,0,1,.109-.819c.009-.048.105-.1.17-.116a5.811,5.811,0,0,1,2.122-.06v3.062c.2-.077.354-.14.51-.2a3.388,3.388,0,0,1,2.1-.131,1.492,1.492,0,0,1,1.063.925,3.157,3.157,0,0,1,.226,1.151c.012.83.017,1.66.007,2.49a.375.375,0,0,0,.254.417c.059.022.11.066.167.093a.372.372,0,0,1,.23.465c-.045.217-.062.44-.1.7-.952.015-1.894,0-2.877.007-.037-.295-.083-.575-.1-.857a.393.393,0,0,1,.123-.238.543.543,0,0,1,.215-.134.5.5,0,0,0,.342-.568c-.022-.755-.023-1.51-.034-2.265a1.689,1.689,0,0,0-.021-.254.706.706,0,0,0-.674-.652,1.811,1.811,0,0,0-1.251.271.3.3,0,0,0-.16.284c0,.99,0,1.979,0,2.991l.4.241c.264.158.292.22.245.515C615.8,103.784,615.77,103.983,615.736,104.213Z" transform="translate(-605.497 -39.037)" fill="#3e4146"/>
        <path id="Path_183" data-name="Path 183" d="M635.839,104.611c0-.938.011-1.843,0-2.747-.009-.544-.273-.788-.812-.823a1.876,1.876,0,0,0-1.07.255.345.345,0,0,0-.214.322c0,.989,0,1.979,0,2.982.158.1.308.194.465.28a.341.341,0,0,1,.195.394c-.038.219-.066.44-.1.689a3.508,3.508,0,0,1-.435.057q-1.085.01-2.171,0c-.275,0-.277-.016-.314-.288-.017-.126-.032-.254-.056-.379a.43.43,0,0,1,.253-.524c.124-.06.239-.137.371-.213.005-.081.016-.164.016-.247,0-.969,0-1.937,0-2.906,0-.19-.033-.332-.227-.4-.039-.014-.07-.05-.109-.066a.5.5,0,0,1-.3-.655c.039-.176.057-.356.089-.561a5.548,5.548,0,0,1,2.113-.122l.07.516c.1-.042.175-.068.246-.1a3.317,3.317,0,0,1,2.564-.266,1.462,1.462,0,0,1,1.028,1.041,4.406,4.406,0,0,1,.181,1.291c.005.713,0,1.426,0,2.14v.334c.133.075.259.154.39.219a.436.436,0,0,1,.257.523c-.036.187-.058.377-.094.61a17.479,17.479,0,0,1-2.884.03c-.036-.277-.062-.519-.1-.759a.309.309,0,0,1,.169-.345C635.523,104.8,635.678,104.707,635.839,104.611Z" transform="translate(-612.95 -40.809)" fill="#3e4146"/>
        <path id="Path_184" data-name="Path 184" d="M742.309,105.979h-2.893c-.029-.247-.052-.478-.086-.707a.375.375,0,0,1,.2-.4c.143-.09.29-.176.446-.27,0-.716,0-1.428,0-2.141,0-.2.007-.405-.009-.606-.047-.565-.3-.789-.86-.815a1.853,1.853,0,0,0-1.063.28.287.287,0,0,0-.169.275c.006,1,0,2,0,3.011.158.1.309.193.465.282a.331.331,0,0,1,.185.369c-.038.241-.069.483-.106.745h-2.875c-.037-.273-.084-.554-.107-.836a.341.341,0,0,1,.1-.216.517.517,0,0,1,.211-.138c.321-.106.372-.334.365-.643-.019-.893-.014-1.787,0-2.681a.419.419,0,0,0-.251-.425c-.477-.265-.472-.273-.388-.8.025-.156.047-.312.073-.479a5.774,5.774,0,0,1,2.1-.123l.09.518.477-.211a3.224,3.224,0,0,1,2.332-.153,1.4,1.4,0,0,1,1.012,1.05,6.732,6.732,0,0,1,.179,1.289c.029.7.008,1.4.008,2.106v.352c.16.094.305.182.453.265a.349.349,0,0,1,.2.394C742.366,105.5,742.341,105.73,742.309,105.979Z" transform="translate(-654.786 -40.81)" fill="#3e4146"/>
        <path id="Path_185" data-name="Path 185" d="M606.483,97.348h-1.454v.328c0,1.7,0,3.4,0,5.106,0,.214.036.369.257.447a.577.577,0,0,1,.241.15.5.5,0,0,1,.149.293c-.012.284-.065.566-.1.861h-2.928c-.033-.3-.068-.588-.1-.88a.32.32,0,0,1,.239-.341c.38-.126.408-.4.4-.747-.016-1.606-.007-3.213-.007-4.819v-.4h-1.454a.22.22,0,0,0-.046.043c-.246.434-.281.452-.785.374-.083-.013-.166-.034-.271-.055V95.993c.213-.015.43-.043.647-.044q2.984-.005,5.967,0c.113,0,.226.018.352.029V97.7c-.057.017-.105.035-.155.045C606.827,97.866,606.827,97.866,606.483,97.348Z" transform="translate(-600.626 -39.336)" fill="#3e4146"/>
        <path id="Path_186" data-name="Path 186" d="M679.9,102.8a4.828,4.828,0,0,1-.29,1.593,2.531,2.531,0,0,1-1.9,1.673,4.1,4.1,0,0,1-1.9.006,2.209,2.209,0,0,1-1.734-1.563,4.857,4.857,0,0,1-.018-2.922,2.524,2.524,0,0,1,2.133-1.823,4.269,4.269,0,0,1,1.988.108,2.1,2.1,0,0,1,1.482,1.454,5.351,5.351,0,0,1,.236,1.475Zm-1.8-.036a8.545,8.545,0,0,0-.246-1.08,1.017,1.017,0,0,0-1.193-.674.993.993,0,0,0-.909.985c-.021.211-.044.423-.052.635a3.471,3.471,0,0,0,.2,1.6.941.941,0,0,0,1.019.645.968.968,0,0,0,.995-.777,5.165,5.165,0,0,0,.186-1.332Z" transform="translate(-630.042 -40.841)" fill="#3e4146"/>
        <path id="Path_187" data-name="Path 187" d="M701.785,104.388l.372.985a1.944,1.944,0,0,1-1.006.6,3.936,3.936,0,0,1-2.778-.083,2.093,2.093,0,0,1-1.213-1.242,4.476,4.476,0,0,1,.035-3.362,2.305,2.305,0,0,1,1.217-1.251,3.386,3.386,0,0,1,2.362-.225,1.776,1.776,0,0,1,1.4,1.449,7.13,7.13,0,0,1,.125,1.075c.031.705-.255,1-.957,1.011-.745.008-1.49,0-2.234,0h-.343a1.155,1.155,0,0,0,.932,1.376,3.25,3.25,0,0,0,1.842-.222C701.6,104.474,701.67,104.441,701.785,104.388Zm-3.058-2.086c.669-.065,1.3-.01,1.921-.11a1,1,0,0,0-.255-1.026,1.042,1.042,0,0,0-1.416.241,1.675,1.675,0,0,0-.25.9Z" transform="translate(-639.284 -40.843)" fill="#3e4146"/>
        <path id="Path_188" data-name="Path 188" d="M727.175,103.349a1.135,1.135,0,0,0,.952,1.378,3.241,3.241,0,0,0,1.812-.224l.252-.108.368.969a1.281,1.281,0,0,1-.522.413,3.962,3.962,0,0,1-3.222.13,2.082,2.082,0,0,1-1.237-1.218,4.442,4.442,0,0,1,.018-3.393,2.535,2.535,0,0,1,1.84-1.488,3.314,3.314,0,0,1,1.919.057,1.721,1.721,0,0,1,1.219,1.39,7.2,7.2,0,0,1,.124,1.139c.023.64-.251.92-.887.951-.085,0-.17,0-.255,0h-2.38Zm0-1.061,1.9-.071c.061-.457.038-.86-.369-1.1a.964.964,0,0,0-1.083.056,1.08,1.08,0,0,0-.448,1.118Z" transform="translate(-650.694 -40.842)" fill="#3e4146"/>
        <path id="Path_189" data-name="Path 189" d="M684.432,99.936a25.294,25.294,0,0,1,2.868-.041,8.4,8.4,0,0,1,.115.832.481.481,0,0,1-.166.286,2.185,2.185,0,0,1-.324.23c.182.517.369,1.023.538,1.536.153.463.284.934.43,1.4a2.093,2.093,0,0,0,.13.265l1.056-3.143c-.142-.09-.274-.175-.409-.257a.327.327,0,0,1-.19-.339c.035-.251.076-.5.117-.77h2.751c.036.262.086.521.1.782a.42.42,0,0,1-.135.27.834.834,0,0,1-.317.206.817.817,0,0,0-.514.524q-.867,2.074-1.748,4.143c-.045.107-.1.212-.149.327h-1.391c-.127-.29-.257-.58-.38-.873-.49-1.166-.983-2.331-1.463-3.5a1,1,0,0,0-.6-.643c-.391-.141-.426-.248-.387-.658C684.374,100.331,684.4,100.153,684.432,99.936Z" transform="translate(-634.26 -40.913)" fill="#3e4146"/>
        <path id="Path_190" data-name="Path 190" d="M643.619,95.374a5.942,5.942,0,0,1,2.281-.118v7.557c.174.1.336.2.5.3a.358.358,0,0,1,.191.427c-.047.216-.071.436-.108.669h-2.875c-.038-.274-.089-.534-.1-.8,0-.087.081-.18.133-.267a.154.154,0,0,1,.081-.049c.393-.138.467-.417.461-.816-.025-1.692-.02-3.385,0-5.077a.55.55,0,0,0-.368-.612c-.039-.015-.072-.045-.11-.064a.347.347,0,0,1-.2-.395c0-.032.01-.063.015-.094C643.547,95.828,643.58,95.619,643.619,95.374Z" transform="translate(-617.846 -39.035)" fill="#3e4146"/>
        <path id="Path_191" data-name="Path 191" d="M651.979,106.148c-.132.015-.215.032-.3.033-.479,0-.957,0-1.435,0a.465.465,0,0,1-.431-.215q-.965-1.425-1.937-2.846a2.1,2.1,0,0,1-.107-.2l1.329-1.743c-.486-.349-.106-.776-.165-1.2h2.784c.031.261.081.53.087.8a.406.406,0,0,1-.168.279,2.539,2.539,0,0,1-.506.264,1.535,1.535,0,0,0-.634.463c-.279.346-.578.677-.879,1.026.108.147.207.283.307.418.28.375.563.747.84,1.123a1.1,1.1,0,0,0,.669.454,1.747,1.747,0,0,1,.323.129.476.476,0,0,1,.3.59C652.02,105.724,652.007,105.926,651.979,106.148Z" transform="translate(-619.566 -40.957)" fill="#3e4146"/>
        <path id="Path_192" data-name="Path 192" d="M627.676,99.671v4.909c.187.11.35.208.515.3a.318.318,0,0,1,.179.342c-.036.241-.078.48-.121.739h-2.873c-.037-.262-.086-.521-.1-.781a.42.42,0,0,1,.113-.249.48.48,0,0,1,.206-.145c.275-.1.341-.281.336-.564-.019-.925-.012-1.85,0-2.775a.362.362,0,0,0-.23-.4.593.593,0,0,1-.4-.774c.1-.517.063-.533.584-.614a5.174,5.174,0,0,1,1.555-.042C627.509,99.63,627.579,99.65,627.676,99.671Z" transform="translate(-610.524 -40.796)" fill="#3e4146"/>
        <path id="Path_193" data-name="Path 193" d="M627.12,95.279h.064a.926.926,0,0,1,.917,1.347.707.707,0,0,1-.455.455,1.524,1.524,0,0,1-1.087-.012.549.549,0,0,1-.088-.036.948.948,0,0,1-.383-1.008.721.721,0,0,1,.562-.688,4.638,4.638,0,0,1,.467-.077Z" transform="translate(-610.844 -39.06)" fill="#3e4146"/>
        <path id="Path_194" data-name="Path 194" d="M659.262,53.975a26.313,26.313,0,1,1,10.246-2.069A26.327,26.327,0,0,1,659.262,53.975Zm0-51.449a25.129,25.129,0,1,0,25.129,25.129A25.129,25.129,0,0,0,659.262,2.525Z" transform="translate(-613.612 -1.32)" fill="#3e4146"/>
      </g>
      <g id="Group_276" data-name="Group 276" transform="translate(256.822 1378.273)">
        <path id="Path_127" data-name="Path 127" d="M887.764,67.785c-.178-.146-.466-.158-.481-.457a19.788,19.788,0,0,1-1.238-2.067c-.432-.723-.8-1.484-1.258-2.2a22.129,22.129,0,0,1-1.283-2.231,6.911,6.911,0,0,1-.267-.75l.286-.151a4.587,4.587,0,0,1,1.395.575l.755-.761a3.621,3.621,0,0,0,1.461.168l.183.184c-.026.52-.458.863-.655,1.35.493.2.862-.266,1.25-.188.616.27.784.867,1.115,1.322.53.731.911,1.56,1.451,2.29a6.528,6.528,0,0,1,.406.813c.281.52.567,1.038.867,1.547a2.369,2.369,0,0,0,.368.376c.1-.125.212-.2.232-.3a6.23,6.23,0,0,0,.262-1.434c-.027-1.168,0-2.337-.014-3.506,0-.229.109-.491-.117-.687.221-.56-.019-1.226.415-1.772.165,0,.346.012.526,0a1.808,1.808,0,0,0,.759-.1.934.934,0,0,1,.711.02.992.992,0,0,0,.458.077c.184-.006.413-.136.54-.065.207.116.4.024.606.084l.29.3V76.616l-.542.4H892.82a2.338,2.338,0,0,1-.811-1.079c-.451-.818-.927-1.622-1.377-2.44q-.567-1.029-1.164-2.043c-.23-.392-.447-.8-.673-1.2-.216-.38-.392-.781-.621-1.245a5.078,5.078,0,0,0-.179-1.831Zm5.959,3.955a4.656,4.656,0,0,0,1.211.786,1.978,1.978,0,0,0,1.376.265c-.136-.4-.284-.75-.372-1.118a.4.4,0,0,0-.289-.325c-.262.156-.26.556-.629.634-.37-.082-.517-.415-.683-.7-.035-.355.024-.7-.043-1.094a1.742,1.742,0,0,0-.845,1.011Zm-2.551-.116c.518-.474-.126-.877-.064-1.174l-.376-.376c-.269.24.093.693-.2.9.062.391.324.515.644.65Zm3.969-6.087-.208.422c.062.21.113.393.174.572.006.019.07.018.137.033l.188-.356c-.046-.131-.077-.24-.122-.344S895.206,65.66,895.141,65.536Z" transform="translate(-833.888 -40.792)" fill="#3e4146"/>
        <path id="Path_128" data-name="Path 128" d="M934.868,76.793l-.457.27h-3.586c-.244-.406-.507-.83-.756-1.263-.333-.579-.65-1.168-.984-1.746-.449-.778-.842-1.587-1.34-2.339a12.649,12.649,0,0,1-.66-1.263c-.147-.289-.364-.534-.49-.843a2.676,2.676,0,0,1-.227-.893c-.026-.492-.1-.982-.158-1.583l-.262.681a6.685,6.685,0,0,1-1.55-2.094c-.441-.759-.816-1.55-1.23-2.321-.2-.374-.518-.684-.723-1.056a9.2,9.2,0,0,1-1.06-2.145c0-.017-.028-.029-.042-.044a.325.325,0,0,1,.438-.176c.2.07.4.133.586.22s.366.2.553.3a1.921,1.921,0,0,0,.261.091l.616-.632h1.658c.2.268,0,.493-.1.706a8.289,8.289,0,0,1-.512.818c.233.1.4.137.582-.012a.964.964,0,0,1,.745-.153,3.487,3.487,0,0,1,.962,1.29c.174.3.4.57.6.859.152.222.3.448.434.682.2.348.363.714.571,1.055.45.736.808,1.527,1.331,2.219a.435.435,0,0,1,.041.159c.337.043.275-.306.412-.394a12.665,12.665,0,0,0,.162-3.044c.013-1,.007-2.01,0-3.015a3.816,3.816,0,0,1,.282-1.171c.9,0,1.786,0,2.667,0a3.167,3.167,0,0,0,.516-.09l.561.135.16.309Zm-3.33-5.548a1.925,1.925,0,0,0,.825,1.015,2.315,2.315,0,0,0,.668.311c.438.108.839.426,1.315.279.178-.389-.209-.619-.231-.953-.011-.174-.169-.338-.314-.6l-.622.651a.654.654,0,0,1-.665-.472V70.308H932.2c-.246.282-.588.491-.664.937Zm-2.676-1.064a3.269,3.269,0,0,0-.143.489,2.4,2.4,0,0,0-.005.417l.291.423h.4l.134-.287-.373-1.042Zm4.374-4.7-.142.37.085.626.3.143a1.3,1.3,0,0,0-.239-1.139Z" transform="translate(-849.197 -40.838)" fill="#3e4146"/>
        <path id="Path_129" data-name="Path 129" d="M954.941,33.795l.095-.223a1.041,1.041,0,0,1,.775-.149,6.413,6.413,0,0,1,1.374,1.864,2.321,2.321,0,0,0,.6.836l.31-.016c-.085-.4.1-.8-.132-1.18-.055-.089-.008-.241-.008-.364V32.686l.5-1.165a.966.966,0,0,0-.365-.867V28.648l.347-.255a7.731,7.731,0,0,1,3.058-.235,3.054,3.054,0,0,1,.632.2V44.618a2.183,2.183,0,0,0-1.018.206,3.378,3.378,0,0,1-.982.15c-.45.024-.9,0-1.353.008a.834.834,0,0,1-.637-.25,4.009,4.009,0,0,1-.569-.81c-.5-.824-1.021-1.633-1.577-2.515-.1-.492.19-1.127-.222-1.638-.055-.038-.085-.073-.119-.079a1.557,1.557,0,0,0-.23,0,8.675,8.675,0,0,1-1.553-2.148c-.214-.5-.545-.963-.795-1.456a6.166,6.166,0,0,1-.285-.866,1.461,1.461,0,0,0-.164-.423c-.215-.286-.472-.54-.687-.826a8.2,8.2,0,0,1-.859-1.244c-.372-.756-.795-1.478-1.214-2.206-.256-.444-.53-.883-.752-1.347a8.912,8.912,0,0,1-.323-.936c.331.061.61-.125.856.124a2.34,2.34,0,0,0,1.231-.131.7.7,0,0,1,.388-.11h1.2c.64.159.789.633,1.059.981a6.457,6.457,0,0,1,.688,1.128,8.274,8.274,0,0,1,.232.826,1.078,1.078,0,0,1-.008.8,1.475,1.475,0,0,0-.033.72,9.517,9.517,0,0,0,.271,1.055.958.958,0,0,0,.123.211Zm6.081-2.886a1.243,1.243,0,0,0,.092-.812l-.208-.15c-.352.179-.362.519-.488.787l.2.355Zm-1.629,7.9-.492.337.227.394.561-.52Zm-5.9-5.337v-.191l-.163.028Z" transform="translate(-860.223 -28.077)" fill="#3e4146"/>
        <path id="Path_130" data-name="Path 130" d="M951.248,67.35h-.263a3.051,3.051,0,0,0-1.876-.936l-.246.122a2.577,2.577,0,0,0-.134.636.565.565,0,0,0,.353.553c.337.126.675.251,1.016.368.162.056.33.095.548.156a1.773,1.773,0,0,1,.662,1.261,4.021,4.021,0,0,0,.259.875c.245.6.51,1.183.781,1.767a3.875,3.875,0,0,0,.316.485h1.759l1.175.708c.2.108.3-.073.431-.194.2-.011.411-.069.563.191a10.615,10.615,0,0,1-.02,1.613,7.429,7.429,0,0,0-.1,1.243,2.523,2.523,0,0,0,.12.478l-.4.162.105.118c-.49,0-.983-.024-1.471.008a2.076,2.076,0,0,1-1.119-.272,2.512,2.512,0,0,0-1.472-.344c-.312-.242-.17-.655-.348-.915l-.418-.324-.2-1.366-.271.255c-.338-.46-.16-1.223-.853-1.445a.942.942,0,0,1-.269.091,1.473,1.473,0,0,0-.919.314.727.727,0,0,1-.654.172c-.391-.181-.366-.621-.542-.935a6.527,6.527,0,0,1-.274-.806,3.729,3.729,0,0,1-.21-.767A4.269,4.269,0,0,1,947.3,69.3c.085-.5.37-1,.078-1.545a1.94,1.94,0,0,1-.129-.864,1.87,1.87,0,0,1,.124-.744,9.8,9.8,0,0,0,.326-1.336,5.381,5.381,0,0,1,.518-1.2,5.274,5.274,0,0,1,1-1.49c.207-.182.437-.337.71-.546h.827c.246-.282.327-.644.612-.883a2.758,2.758,0,0,1,.969-.491,7.915,7.915,0,0,0,1.715-.458.131.131,0,0,1,.054-.018,9.5,9.5,0,0,1,2.4-.1c.5.089,1,.038,1.489.108a6.521,6.521,0,0,1,1.716.456c.3.129.449.393.684.564a1.708,1.708,0,0,1-.245.946.769.769,0,0,1-.307.357c-.564.313-1.143.6-1.708.894-.292.342-.447.814-.933.963a4.845,4.845,0,0,0-2.421.024c-.221.051-.427.165-.648.215a3.585,3.585,0,0,0-1.993,1.28A5.412,5.412,0,0,0,951.248,67.35ZM955.71,75.1v-.347h-.2V75.1Z" transform="translate(-859.599 -40.729)" fill="#3e4146"/>
        <path id="Path_131" data-name="Path 131" d="M801.246,39.331l.23-1.008-.51-.667c0-.657,0-1.312,0-1.967,0-.3.21-.564.125-.872s.1-.577.134-.871a4.559,4.559,0,0,1,.236-.822,1.647,1.647,0,0,1,.153-.428A19.364,19.364,0,0,1,802.9,30.76a8.663,8.663,0,0,1,1.816-1.41,6.807,6.807,0,0,1,.921-.446,5,5,0,0,1,.965-.345c.053-.014.1-.076.149-.083a9.108,9.108,0,0,0,1.176-.137,7.659,7.659,0,0,1,1.49-.119,2.992,2.992,0,0,0,.583-.158l.324.439a20.383,20.383,0,0,1-.15,3.627,1.165,1.165,0,0,1-.743.294,6.247,6.247,0,0,0-2.059.522,4.523,4.523,0,0,0-1.06.566,3.546,3.546,0,0,0-.792,1.021,4.832,4.832,0,0,1-.217.524c-.083.2.034.412-.134.628-.114.146-.028.4-.113.623a1.631,1.631,0,0,0-.01.97c.133.461.059.974.353,1.39.084.674.6,1.047,1.033,1.478a12.065,12.065,0,0,0,1.852.87c.451.064.9.111,1.386.168a.835.835,0,0,1,.535.956c-.024.491-.011.984,0,1.476a1.378,1.378,0,0,0,.085.323l-.127.886a.847.847,0,0,1-.994.176.874.874,0,0,0-.655-.022,1.845,1.845,0,0,1-1.258-.012,12.134,12.134,0,0,1-1.441-.384,8.156,8.156,0,0,1-2.159-1.177c-.149-.125-.318-.227-.469-.351a6.916,6.916,0,0,1-1.342-1.784,4.358,4.358,0,0,1-.379-1.071C801.374,39.91,801.314,39.609,801.246,39.331Zm1.658-4.3c.172.942.595,1.78.806,2.67h.157a5.989,5.989,0,0,0,.168-.725c.029-.262-.006-.531.01-.795a1.513,1.513,0,0,0-.423-1.05,1.809,1.809,0,0,0-.216-.216.651.651,0,0,0-.151-.062Zm3.419,8.478c.029-.228.31-.383.13-.633-.2-.033-.382.009-.435.212-.048.186.034.341.3.42Z" transform="translate(-800.835 -28.062)" fill="#3e4146"/>
        <path id="Path_132" data-name="Path 132" d="M853.718,63.586l.59-1.236c-.132-.1-.255-.17-.361-.264a1.092,1.092,0,0,1-.275-1.249c.116-.359.285-.7.434-1.058a2.137,2.137,0,0,1,1.651-.057c.059.1.118.194.176.293a1.271,1.271,0,0,0,.141.248,1.928,1.928,0,0,1,.489.906c.074.318.3.566.388.887a9.746,9.746,0,0,0,.483,1.151c.3.678.683,1.317.965,2,.231.561.464,1.12.709,1.675a16.362,16.362,0,0,1,.675,1.629c.1.314.283.618.418.932.27.627.6,1.229.858,1.859a33.843,33.843,0,0,1,1.311,3.149c.065.218.139.433.213.663l-.237.761.486.783-.324.291a22.562,22.562,0,0,1-3.912.121c-1.312.026-2.625.006-3.937.006-.492,0-.985-.014-1.476.005a1,1,0,0,1-.837-.348c.22-.4.466-.8.673-1.229a6.516,6.516,0,0,1,.466-.915c.254-.363.471-.751.7-1.129a1.019,1.019,0,0,1,.654-.51.959.959,0,0,1,.848.063.372.372,0,0,0,.108.03,7.6,7.6,0,0,0,.567,1.339c.471-.4.286-.925.33-1.357a3.1,3.1,0,0,1-.355-.81,15.724,15.724,0,0,1-.51-2.5l.525-.9-.557-.76-.712.155a1.1,1.1,0,0,1-.552-.762c-.167-.527-.479-.992-.6-1.542-.033-.152-.046-.306-.074-.458s-.068-.3-.113-.49c.1-.245.418-.255.636-.4.254-.166.177-.47.35-.674l-.289-.481Zm4.948,8.092.413.827.334.137a1.357,1.357,0,0,0,.1-.389c-.032-.554-.086-1.107-.131-1.656l-.186-.176C858.956,70.826,858.552,71.145,858.665,71.677Zm-3.838,5.163c.192-.059.34,0,.531-.073.261-.1.547-.341.864-.067.057.05.195.007.269.007l.236-.216-.155-.36-1.155-.188c-.249.264-.535.465-.59.9Zm4.531-1.761-.836-1.242-.424.227.354,1.061c.3.145.527.344.767.2Zm1.379-.239c-.112-.327-.261-.506-.347-.42v.273Z" transform="translate(-821.478 -40.725)" fill="#3e4146"/>
        <path id="Path_133" data-name="Path 133" d="M832.612,40.784c-.176-.493-.339-.959-.51-1.422-.243-.658-.509-1.308-.729-1.973a2.667,2.667,0,0,1-.046-.7l.376-.55a1.361,1.361,0,0,0-.2-.962c-.143-.18.036-.461-.154-.676-.1-.116-.1-.322-.145-.476-.328-.167-.426.138-.627.272v.544c-.379-.181-.429-.572-.572-.865-.231-.473-.409-.978-.635-1.458a1.776,1.776,0,0,1-.133-1.45c.314-.855.67-1.691,1-2.54.027-.071.1-.124.194-.235l1.319.14a2.075,2.075,0,0,1,.719,1.177,3.91,3.91,0,0,0,.5,1.017,10.721,10.721,0,0,1,.617,1.468c.193.513.478.991.7,1.493.38.847.732,1.706,1.117,2.552a19,19,0,0,1,1,2.42,2.074,2.074,0,0,1,.105.569c0,.246.011.493,0,.738a1.582,1.582,0,0,0,.6,1.3l.193-.146.282.146a35.546,35.546,0,0,1,1.552,3.691l-.245.2h-1.11l-.392-.489c-.378-.026-.59.358-1.054.5-.222,0-.57-.01-.916,0a.878.878,0,0,0-.578.1.619.619,0,0,1-.534.008,2.884,2.884,0,0,0-1.124-.11c-.1-.009-.2,0-.335,0v-.842c-.193-.392-.589-.176-.8-.388-.474.057-.968-.13-1.425.123-.376-.062-.642.235-.982.31a1.194,1.194,0,0,1-.556.016c.146-.318.289-.605.413-.9a6.173,6.173,0,0,1,.613-1.224,5.892,5.892,0,0,1,.611-.721,1.1,1.1,0,0,1,.856-.3,3.019,3.019,0,0,0,.749-.144C832.417,40.975,832.5,40.865,832.612,40.784Zm.205-7.751a2.5,2.5,0,0,1-.251.32c-.258.226,0,.583-.231.835-.081.089-.013.314-.013.47l.16.16c.317-.05.363-.376.542-.5l.169-.742Zm3.056,7.547a3.388,3.388,0,0,0-.416-.315c-.074-.041-.189-.007-.294-.007v.29c.335.356.553.491.71.415Zm-1.78-1.047.119.251.087-.048-.049-.359Z" transform="translate(-812.13 -28.154)" fill="#3e4146"/>
        <path id="Path_134" data-name="Path 134" d="M933.291,41l.146-.146c.18-.264-.011-.514-.092-.722-.24-.619-.435-1.255-.655-1.878a2.632,2.632,0,0,1-.253-1.815l.189-.189a3.015,3.015,0,0,0-.125-1.219,1.246,1.246,0,0,1-.118-.741l-.312-.312h-.412l-.2.847a16.666,16.666,0,0,1-.783-1.705,6.1,6.1,0,0,1-.445-1.108c-.018-.135-.092-.284-.056-.4a8.264,8.264,0,0,1,.353-1.329c.2-.406.335-.844.5-1.267.09-.229.185-.457.3-.735l1.509.151a9.213,9.213,0,0,1,.9,1.819c.007.018-.007.046,0,.06a15.324,15.324,0,0,1,.886,2.031c.156.325.3.653.468.974.156.305.344.594.487.905.3.654.55,1.332.873,1.974a16.2,16.2,0,0,1,1,2.478,3.552,3.552,0,0,1,.092,1.062,2.383,2.383,0,0,0,.357,1.188c.225.069.429.12.624.195a.727.727,0,0,1,.4.466c.237.557.415,1.138.7,1.677a7.548,7.548,0,0,1,.562,1.77h-1.258l-.367-.457h-.44a.454.454,0,0,0-.077.051,1.624,1.624,0,0,1-1.113.428c-1,.005-2.008,0-3.01,0l-.18-.18v-.878c-.312-.091-.638-.125-.955-.192a3.648,3.648,0,0,0-2.036.357c-.175.062-.359.1-.579.156a.858.858,0,0,1,.005-.31c.221-.483.478-.95.684-1.438a3.011,3.011,0,0,1,.955-1.291A3.1,3.1,0,0,1,933.291,41Zm.13-6.246c.558-.255.494-.772.673-1.137l-.164-.49c-.173-.05-.372-.008-.4.147-.088.425-.387.807-.2,1.2Zm3.077,5.482-.527.073.536.568.455-.03c-.078-.3-.319-.41-.463-.612Zm-1.58-.537c.282-.1.426-.173.411-.423-.267-.027-.338.113-.411.423Z" transform="translate(-852.737 -28.149)" fill="#3e4146"/>
        <path id="Path_135" data-name="Path 135" d="M895.552,30.046a.649.649,0,0,0-.483.622c-.027.635-.013,1.271,0,1.907,0,.066.077.13.118.2a6.2,6.2,0,0,1-.713,1.352c-.161-.16-.312-.252-.378-.386-.227-.458-.421-.933-.633-1.4-.118-.259-.256-.509-.366-.772-.242-.577-.457-1.164-.7-1.741-.22-.525-.387-1.073-.6-1.665.171-.013.284-.028.4-.028.759,0,1.518,0,2.277,0a1.914,1.914,0,0,1,1.257.376,1.517,1.517,0,0,1,.708,1.057c0,.046.071.089.126.154l-.495.873-.113.842h.291a2.755,2.755,0,0,0,.467-1.091.475.475,0,0,1,.429.355,9.187,9.187,0,0,0,.733,1.544c.251.49.489.988.744,1.476a4.811,4.811,0,0,0,.293.448c.3-.009.3-.238.391-.371a9.082,9.082,0,0,0,.707-1.183c.224-.444.57-.831.761-1.286.268-.635.655-1.2.94-1.826.123-.271.293-.52.507-.894.075.292.249.4.227.614-.093.912.158,1.807.134,2.719-.014.535.079,1.073.11,1.611a5.74,5.74,0,0,1,0,.861c-.025.27-.1.534-.165.862-.277.375-.365.54.148,1.145-.119.337-.246.654-.343.981a7.675,7.675,0,0,1-.65,1.637,8.04,8.04,0,0,0-.813,2.124,9.513,9.513,0,0,1-.605,1.66c-.193.432-.35.881-.518,1.324-.061.16-.107.326-.157.48h-.269A2.659,2.659,0,0,1,898.5,43.3c-.024-.071-.079-.131-.107-.2-.373-.914-.831-1.789-1.239-2.687a14.885,14.885,0,0,1-.908-2.149.994.994,0,0,1-.009-.672,11.438,11.438,0,0,1,.433-1.235,1.35,1.35,0,0,0,.09-.937,3.367,3.367,0,0,0-.7-1.558,2.57,2.57,0,0,1-.522-1.073,1.544,1.544,0,0,1-.006-1.136.848.848,0,0,0,.013-.179c0-.082,0-.164,0-.246Zm5.114,6.074c-.515.548-1.137,1-1.284,1.6l.26.487h.659a5.235,5.235,0,0,1,.928-1.556.533.533,0,0,0-.562-.531Zm-.641,4.829-.17.17.026.571c.391-.211.425-.269.448-.741Z" transform="translate(-837.328 -28.088)" fill="#3e4146"/>
        <path id="Path_136" data-name="Path 136" d="M845.014,40.984c.3-.382.041-.758-.007-1.154a2.442,2.442,0,0,0-.577-.473.481.481,0,0,1-.287-.429,1.718,1.718,0,0,0-.231-.514c-.41-.916-.84-1.824-1.219-2.753-.488-1.193-1.01-2.369-1.55-3.539a7.963,7.963,0,0,1-.8-2.127,2.662,2.662,0,0,1-.442-1.047.491.491,0,0,1,.14-.614c1.215,0,2.462-.017,3.708.01a1.006,1.006,0,0,1,.974.6,15.622,15.622,0,0,1,1.04,2.583,4.634,4.634,0,0,0,.3.737c.263.567.557,1.122.8,1.7.309.733.563,1.488.871,2.221.353.839.609,1.715.985,2.543.344.76.628,1.543.939,2.316a1.775,1.775,0,0,1,.15.791,5.194,5.194,0,0,1-.268,1.114c-.141.432-.321.851-.471,1.281a1.128,1.128,0,0,1-.957.839c-.25.024-.459.2-.77.025a2.029,2.029,0,0,1-.842-.915c-.332-.682-.662-1.365-.984-2.052C845.344,41.766,845.194,41.4,845.014,40.984Zm-1.77-10.291h-.427c-.092.437.226.736.314,1.1.011.045.086.076.135.108.014.009.04,0,.086,0l.187-.21v-.426Zm4.253,9.329c-.22-.376-.224-.838-.7-1.012a.893.893,0,0,0,.381,1.012Zm-1.4-2.58v-.613h-.221l-.313.343.137.27Z" transform="translate(-816.456 -28.169)" fill="#3e4146"/>
        <path id="Path_137" data-name="Path 137" d="M823.979,77.034l-.177-.354c0-.893-.01-1.836.006-2.778.005-.332.092-.662.113-1s0-.655,0-1.02l.6-.324a1.413,1.413,0,0,0-.363-1.235,1.089,1.089,0,0,1-.239-.766c0-2.625.009-5.251,0-7.876,0-.475-.078-.95-.116-1.426-.008-.1,0-.2,0-.306a2.117,2.117,0,0,0,1.228.037c.054-.013.105-.06.158-.061a13.4,13.4,0,0,1,2.544-.089l.256.418v7.15a6.456,6.456,0,0,0-.1,2.53c.13,1.137.064,2.266.089,3.4s.006,2.256.006,3.394l-.31.284c-.4.1-.809-.035-1.238.116a5.57,5.57,0,0,1-1.22.035C824.789,77.208,824.4,76.983,823.979,77.034Zm2.221-2.96c.361-.278.144-.553.036-.808-.037-.087-.173-.132-.284-.211a2.684,2.684,0,0,1-.09.255,1.584,1.584,0,0,1-.106.17c.16.411.16.411.443.595Zm.629-12.886.242-.4-.129-.293c-.386.3-.386.3-.114.69Zm-2.537,11.6.262.248.227-.294-.161-.282Zm.583-7.848-.07.074.217.4.177-.233Zm.311,3.042v.2l.315-.055Z" transform="translate(-810.009 -40.808)" fill="#3e4146"/>
        <path id="Path_138" data-name="Path 138" d="M913.776,71.356a2.46,2.46,0,0,1-.321-1.285l-.651-.536h-.7l-.194.427c.723.109.945.76,1.348,1.054.144.378.279.674.368.982a6.35,6.35,0,0,1,.439,1.294c.2.132.112.333.114.5.008.922,0,1.845,0,2.774l-.262.452h-.834v-1l-.484.124v.628l-.214.416-2.233-.178L910,76.85V71.465c0-1.968.014-3.935-.012-5.9a6.109,6.109,0,0,1,.148-1.115,2.31,2.31,0,0,0-.008-1.254A6.886,6.886,0,0,1,910,62.077c-.02-.654-.005-1.31-.005-1.958l.185-.185a2.547,2.547,0,0,0,.967-.024,2.568,2.568,0,0,1,1.006-.089c.31-.02.605.185.932.115a2.232,2.232,0,0,1,.935.149,1.121,1.121,0,0,1,.163.718c0,3.115,0,6.231-.008,9.346a4.78,4.78,0,0,1-.131.929C914.03,71.156,913.916,71.216,913.776,71.356Zm-1.633-9.338c-.26.427-.238.541.172,1.005l.177-.658Zm-1.09,4.07c.116-.175.411-.268.271-.587-.209-.046-.421-.091-.589.17l.021.417Z" transform="translate(-844.635 -40.815)" fill="#3e4146"/>
        <path id="Path_139" data-name="Path 139" d="M874.326,77.111h-2.441c-.026-1.561-.052-3.107-.082-4.652,0-.032-.044-.062-.036-.052a5.357,5.357,0,0,0,.088-.667q.009-3.35,0-6.7a5.392,5.392,0,0,1,.228-1.113c-.216-.2-.074-.548-.2-.845-.111-.259.068-.646-.047-.9a2.51,2.51,0,0,1-.094-.944c-.024-.3-.005-.612-.005-.913a1.064,1.064,0,0,1,.8-.3c.86-.011,1.721-.008,2.582,0a.834.834,0,0,1,.836.471.875.875,0,0,1,.081.334q.006,4.672,0,9.343a5.006,5.006,0,0,1-.136.87l-.206.363a1.375,1.375,0,0,1-.389-1.23l-.46-.411a1.221,1.221,0,0,0-1.132.033c-.05.208.131.312.246.372a5.737,5.737,0,0,1,1.072.969,1.26,1.26,0,0,1,.288.618c.152.467.365.913.506,1.388a3.794,3.794,0,0,1,.221,1.138c-.01.84,0,1.68,0,2.55l-.349.289h-.566c-.333-.166-.137-.493-.222-.825l-.3-.253a1.173,1.173,0,0,0-.28,1.071ZM873.7,62.188a1.379,1.379,0,0,0,.253.842c.032.047.124.053.221.09v-.787Zm-1.144,3.383c.092.227-.039.441.14.657l.5-.467c-.146-.279-.36-.2-.636-.19Zm2.117,2.929.064.444.244-.4Z" transform="translate(-829.265 -40.899)" fill="#3e4146"/>
        <path id="Path_140" data-name="Path 140" d="M834.113,65.5c-.114-.325.075-.612-.14-.883-.078-.1-.118-.231-.242-.3a7.58,7.58,0,0,1-.831-.512,1.459,1.459,0,0,1-.389-.511,1.867,1.867,0,0,1-.154-.611c-.055-.535-.093-1.073-.124-1.61a2.506,2.506,0,0,1,.032-.54,5.071,5.071,0,0,1,.138-.516,3.8,3.8,0,0,1,2.016.3l.184.4.281.117.049-.02c.193-.085.379-.273.6-.179a2.567,2.567,0,0,1,.836.365,13.19,13.19,0,0,1,1.158,1.43,1.964,1.964,0,0,1,.351.9,5.056,5.056,0,0,1,.271,1.618c-.007.059.076.129.087.148a4.454,4.454,0,0,0-.088.672,5.032,5.032,0,0,1-.372,2.125c-.022.052.022.142-.008.18-.34.424-.41,1.011-.791,1.389a3.524,3.524,0,0,0-.435.75,18.593,18.593,0,0,1,1,3.623c-.29.333-.6.671-.885,1.025a1.553,1.553,0,0,0-.234.455,5.866,5.866,0,0,0-.145.586l-.549-.458c-.126.533.35.9.158,1.411a.9.9,0,0,1-.8.262,5.322,5.322,0,0,1-.509-.862,17.585,17.585,0,0,1-1.256-4.109l.78-.606c-.393-.348-.776-.66-1.128-1a1.812,1.812,0,0,1-.621-1.463c.021-.28-.168-.517-.132-.812.061-.512.068-1.03.1-1.539l1.215-.555Zm2.67.254-.41.264.178.387h.412c.286-.325.589-.64.855-.983a.712.712,0,0,0,.177-.689.9.9,0,0,0-.892-.287l-.32.293Zm-.93-2.932a.859.859,0,0,0,.415-.406l-.152-.294h-.46c.071.248-.094.516.2.7Z" transform="translate(-813.391 -40.886)" fill="#3e4146"/>
        <path id="Path_141" data-name="Path 141" d="M868.253,28.521l.275-.12c.351.172.753,0,1.1.1a1.754,1.754,0,0,0,1.11.08c.4-.167.762.014,1.11-.122l.181.352c.032.721.183,1.453.146,2.2s-.027,1.476,0,2.214a2.685,2.685,0,0,1-.151,1.17c-.231.516,0,.961.047,1.435,0,.05.087.093.092.144.048.454.119.909.121,1.363.013,2.05,0,4.1.011,6.151a4.478,4.478,0,0,1-.258,1.31l-.347.179c-.831,0-1.712,0-2.593,0a1.35,1.35,0,0,1-.833-.265,1.154,1.154,0,0,1,.574-1.366,2.239,2.239,0,0,0,.853-1.055v-.437c-.245-.443-.514-.007-.791-.087l-.523.589-.128-.128Zm1.554,15.331c-.184.133-.3.274-.192.473a.3.3,0,0,0,.359.158.333.333,0,0,0,.222-.433Zm.276-5.541h.368l-.023-.365c-.234.04-.364.118-.345.365Z" transform="translate(-827.854 -28.198)" fill="#3e4146"/>
        <path id="Path_142" data-name="Path 142" d="M915.815,42.595A2.051,2.051,0,0,0,914.7,44.41c.278.151.381-.067.545-.168a2.133,2.133,0,0,1,.538-.153l.2.381-.525.459a18.16,18.16,0,0,1-3.409.157l-.247-.372c-.063-.509-.141-.959-.168-1.412a9.574,9.574,0,0,0-.025-1.41c-.134-.624-.012-1.252-.124-1.856-.1-.521-.021-1.048-.125-1.547-.084-.4-.02-.8-.115-1.18a13.955,13.955,0,0,1-.112-2.474c-.02-.272.076-.553-.11-.818a.533.533,0,0,1,0-.42,5.325,5.325,0,0,0,.117-1.612c0-.017.02-.032.03-.049a3.815,3.815,0,0,1,1.422,1.113c.139.128.239.323.516.351,0-.537.008-1.043-.006-1.549a.559.559,0,0,0-.128-.37,2.976,2.976,0,0,1-.6-.906V29.2l-.519-.723a.759.759,0,0,1,.052-.1c.012-.015.03-.035.046-.035.819,0,1.638,0,2.421,0a2.621,2.621,0,0,1,.374.227.848.848,0,0,1,.333.721c0,.02,0,.041,0,.061-.093,1.136.194,2.258.123,3.393a19.287,19.287,0,0,1,.144,2.344c.115.666-.006,1.337.121,1.978.144.727,0,1.457.121,2.164.126.726.027,1.452.126,2.163a10.617,10.617,0,0,1,.106,1.2Zm-2.907-7.112c.009.5-.186,1,.11,1.443l.371.164.206-.2a1.394,1.394,0,0,0-.687-1.412Zm1.646,6.692.433-.241-.255-.483-.282.243c.027.189-.053.389.1.481Zm-1.219-8.221c.038.27-.031.475.077.683.182-.072.312-.135.31-.333s-.13-.261-.386-.349Z" transform="translate(-845.033 -28.173)" fill="#3e4146"/>
        <path id="Path_143" data-name="Path 143" d="M962.889,75.267c-.51-.444-1.151-.269-1.708-.306l-.307-.151-.644-1.293V71.169a1.7,1.7,0,0,1,1.424-.223c.267.072.584.052.806.284a.241.241,0,0,0,.223.036c.4-.209.875-.122,1.277-.339a.588.588,0,0,1,.475-.013c.4.208.873.12,1.276.344.156.087.4.014.548.014l.557-.287.228.5c-.024.278-.057.485-.057.692q-.005,3.785,0,7.569c0,.246,0,.492,0,.738-.005.543-.144.711-.658.889a5.785,5.785,0,0,1-.809.136c-.187.037-.413.189-.555.086a.884.884,0,0,0-.577-.1c-.388-.014-.776,0-1.154,0l-.185-.185V79.764c0-.267.009-.534,0-.8C962.995,77.731,962.941,76.5,962.889,75.267Zm2.677-1.342c-.363.325-.394.416-.193.585.084.07.231.064.371.1v-.462l-.1.09Z" transform="translate(-864.82 -45.26)" fill="#3e4146"/>
        <path id="Path_144" data-name="Path 144" d="M889.8,30.374l.167-.167a1.272,1.272,0,0,1,.511.749c.217.65.549,1.248.806,1.88s.622,1.217.941,1.822a3.59,3.59,0,0,0,.309.546c.134.171.038.459.3.555.122.44.286.866.419,1.3a2.9,2.9,0,0,1,.221,1.435c-.174.8,0,1.621-.132,2.406-.124.728,0,1.455-.119,2.162-.109.643-.068,1.28-.114,1.918a4.623,4.623,0,0,1-.212.826h-3.765l-.322-.165c0-.653-.012-1.308.006-1.962.008-.291.093-.58.113-.871a3.552,3.552,0,0,1,.024-.915,4.039,4.039,0,0,0,.1-1.062c.035-.352.1-.7.117-1.056s0-.737.01-1.106c0-.066.082-.129.122-.188l.137.189h.563c.111-.48.625-.57.9-.911a3.3,3.3,0,0,0-.949-1.571,1.473,1.473,0,0,1-.4-1,5.54,5.54,0,0,1,.009-1.349c.126-.661.013-1.335.133-1.975C889.795,31.368,889.755,30.877,889.8,30.374Zm.715,9.718-.337-.338v.639l.337.178Z" transform="translate(-836.127 -28.924)" fill="#3e4146"/>
        <path id="Path_145" data-name="Path 145" d="M842.7,80.119a10.689,10.689,0,0,0,.481-1.245c.139-.371.329-.724.456-1.1.215-.643.574-1.236.844-1.862.36-.834.763-1.649,1.077-2.5.116-.317.284-.618.414-.935.237-.578.559-1.121.8-1.7s.505-1.146.724-1.728c.14-.372.405-.649.532-1.07a2.78,2.78,0,0,1,.617.936c.206.467.441.923.616,1.405.3.837.756,1.612,1.008,2.473a2.525,2.525,0,0,1,.031,1.238,15.326,15.326,0,0,1-1.344,3.069c-.124.277-.225.577-.364.83-.349.635-.606,1.312-.957,1.942a1.143,1.143,0,0,1-1.032.576c-1.065.015-2.131,0-3.2.008a.912.912,0,0,1-.707-.33Zm5.527-4.038a1.646,1.646,0,0,0-.284.443,5.488,5.488,0,0,0-.425,1.523l.177.177c.343-.227.376-.608.479-.956.1-.332.206-.66.306-.981Zm-1.606,1.6c-.1-.261-.1-.261-.373-.272Z" transform="translate(-817.603 -44.097)" fill="#3e4146"/>
        <path id="Path_146" data-name="Path 146" d="M920.942,78.78V64.508c.581.185.557.772.87,1.117-.16.123-.1.374-.359.425-.087.017-.14.209-.216.333a3.347,3.347,0,0,0,1.187.941,1.452,1.452,0,0,1,.6.537,15.2,15.2,0,0,1,1.583,2.791,2.318,2.318,0,0,1,.386,1.194c0,.058.089.119.133.173a.65.65,0,0,0-.113.695,1.079,1.079,0,0,1,.092.577c.006,1.762,0,3.524,0,5.339l-.44.335a13.33,13.33,0,0,1-2.53.09C921.795,78.744,921.292,79.131,920.942,78.78Zm2.228-6.835a2.761,2.761,0,0,0-.751,1.383l.319.32c.4-.346.438-.922.619-1.33Z" transform="translate(-849.036 -42.704)" fill="#3e4146"/>
        <path id="Path_147" data-name="Path 147" d="M925.387,36.115c.161.282.3.549.462.8a8.966,8.966,0,0,1,.608,1.593c.268.689.5,1.393.746,2.09a.874.874,0,0,0,.121.169,3.748,3.748,0,0,0,0,.4,4.349,4.349,0,0,1-.543,2.236c-.535,1.192-1.129,2.358-1.559,3.6a2.1,2.1,0,0,1-.762,1.037,4.2,4.2,0,0,1-1.709.161c-.656.012-1.312-.006-1.968.007a1.232,1.232,0,0,1-.76-.213c.082-.222.162-.455.254-.685a21.116,21.116,0,0,1,1.129-2.607c-.01-.39.284-.66.4-1,.108-.321.31-.611.421-.932.229-.664.627-1.255.8-1.947a5.988,5.988,0,0,1,.425-.991c.469-1.036.935-2.073,1.415-3.1a1.041,1.041,0,0,1,.521-.61Zm-2.053,8.01a1.042,1.042,0,0,0-.19.246,2.192,2.192,0,0,0-.256,1,1.028,1.028,0,0,1-.115.746c-.011.015.026.067.043.105h.28c.177-.525.628-.881.753-1.414C923.726,44.581,923.726,44.236,923.334,44.125Zm-2.028,3.69.38-.89-.421-.38-.218.31c-.172.242-.119.553-.242.812-.019.04.021.107.031.149Zm5.156-6.456c0,.177,0,.337,0,.5,0,.024.056.045.118.091l.228-.185V41.2Z" transform="translate(-848.668 -31.297)" fill="#3e4146"/>
        <path id="Path_148" data-name="Path 148" d="M819.469,48.223l-.171-.176a2.766,2.766,0,0,1,.157-.659c.271-.527.4-1.106.639-1.642.179-.4.323-.809.481-1.214.269-.687.572-1.361.845-2.048.257-.649.542-1.291.824-1.933.5-1.144.988-2.3,1.529-3.425a2.325,2.325,0,0,1,.628-.958,5.65,5.65,0,0,1,.915,1.767c.245.616.485,1.233.733,1.848.12.3.242.6.358.9a1.877,1.877,0,0,1,.027,1.432c-.2.491-.373.991-.593,1.476-.172.38-.344.759-.523,1.135s-.357.753-.527,1.134c-.285.64-.562,1.283-.85,1.942l-.677.423Zm2.525-1.884c.413-.283.458-.7.685-.992a2.154,2.154,0,0,0,.209-.852l-.412-.391c-.592.645-.472,1.388-.481,2.235Zm-1.829.461a1.967,1.967,0,0,0-.117,1.176h.265c.355-.219.257-.639.424-.913l-.168-.465Zm5.862-5.533-.474.2c.032.241-.076.485.216.584a.777.777,0,0,0,.258-.78Z" transform="translate(-808.201 -31.319)" fill="#3e4146"/>
        <path id="Path_149" data-name="Path 149" d="M858.411,35.905l-.772.157c-.183.165-.145.448-.144.723,0,.164-.006.328,0,.492a4.3,4.3,0,0,1-.624,2.2,2.47,2.47,0,0,1-.41.466.476.476,0,0,1-.556-.33c-.227-.625-.473-1.239-.74-1.848a6.234,6.234,0,0,0-.594-1.292c-.135-.757-.734-1.407-.442-2.377a46.913,46.913,0,0,0,2.706-5.359l.515-.48h.881c.246,0,.494.016.738,0a5.312,5.312,0,0,1,.626-.11c.6.025,1.193.087,1.794.135.164.21.173.209.162.574l-1.166,1,.454.357c-.068.193-.132.432-.233.655a21.7,21.7,0,0,0-1.059,2.517,16.667,16.667,0,0,1-.7,1.554C858.72,35.234,858.583,35.525,858.411,35.905Zm-.514-3.189.267,1.011.312-.214v-.652l-.381-.328Zm-.525-2.6v.664l.08-.08.308.308.071-.08-.128-.812Z" transform="translate(-822.163 -28.095)" fill="#3e4146"/>
        <path id="Path_150" data-name="Path 150" d="M882.761,64.417c.6.327.653.866.881,1.345-.156.2-.485.285-.515.641.327.274.559.7,1.051.8a5.548,5.548,0,0,1,.874.99c.414.793.883,1.556,1.288,2.356a4.589,4.589,0,0,1,.38,1.386,24.2,24.2,0,0,1,.1,3.4c.028,1.126.006,2.254.006,3.38l-.173.173c-.114.1-.368-.094-.509.127-.024.038-.162.028-.236,0a9.866,9.866,0,0,0-2.409-.118c-.183-.013-.368,0-.562,0-.2-.283-.458-.539-.184-.94.076-.112.012-.32.012-.484V64.417ZM884.79,72a2.3,2.3,0,0,0-.542,1.531l.171.194c.518-.536.861-1.508.615-1.725Z" transform="translate(-833.644 -42.668)" fill="#3e4146"/>
        <path id="Path_151" data-name="Path 151" d="M800.756,63.508a2.07,2.07,0,0,1,.6-1.9c.134-.549-.275-.924-.456-1.386l.105-.105a5.157,5.157,0,0,1,1.782-.18c.047,0,.089.078.157.142.074-.047.156-.144.232-.14.5.032.992-.112,1.486-.122,1.372-.026,2.746-.016,4.119,0a5.024,5.024,0,0,1,.777.122l.41.8.612-.612a2.6,2.6,0,0,1,2.24.689c0,.565-.005,1.1,0,1.627a.734.734,0,0,1-.254.631,3,3,0,0,1-1.87.806c-.336-.194-.378-.533-.463-.851-.123-.459-.249-.917-.371-1.366h-.336l-.391.533a1.228,1.228,0,0,0,.281,1.063c.09.092.071.29.1.437a13.754,13.754,0,0,0-1.458.291,1.62,1.62,0,0,1-.549.01c-.676,0-1.352,0-2.029,0-.152,0-.311.056-.46-.084a.374.374,0,0,0-.344-.025.9.9,0,0,1-.446.116,10.614,10.614,0,0,1-1.839-.031c-.443-.085-.874-.042-1.355-.116Zm9.634-1.789c.047.1.122.274.218.436.035.059.121.086.227.157V61.58l-.067.067-.1-.3-.12.01Zm-3.848-.156c-.246-.067-.338.06-.386.305h.386Z" transform="translate(-800.748 -40.814)" fill="#3e4146"/>
        <path id="Path_152" data-name="Path 152" d="M808.214,77.957c-.2-.1-.489.072-.637-.342l.163-1.088a1.25,1.25,0,0,1,.3.188,3,3,0,0,1,.249.45,9.577,9.577,0,0,0,.146-1.5,7.648,7.648,0,0,0-.323-1.335c.063-.32.153-.715.214-1.115a3.367,3.367,0,0,0,.135-1.245l-.411-.594-.414.394a1.544,1.544,0,0,1-.293-.87c0-.717,0-1.434,0-2.156l.26-.252a4.242,4.242,0,0,0,1.6-.036,11.675,11.675,0,0,1,1.649-.017l.289.289c.007.384.312.72.281,1.142.174.116.105.294.105.447q.005,3.533,0,7.066c0,.27-.094.538-.113.81a7.038,7.038,0,0,0,0,.86,1.461,1.461,0,0,0,.081.518.968.968,0,0,1-.1.874,3.663,3.663,0,0,1-2.193.027c0-.256-.093-.574.022-.764.165-.272,0-.516.107-.712l-.2-.218-.5.151Zm2.935-4.269c.046-.293-.048-.55.123-.8.089-.13-.022-.3-.188-.372-.287.419-.13.879-.185,1.4Z" transform="translate(-803.398 -44.276)" fill="#3e4146"/>
        <path id="Path_153" data-name="Path 153" d="M952.314,46.985v4.07l-.27.457c-.6,0-1.208.018-1.815-.005a5.112,5.112,0,0,1-1.791-.118,1.252,1.252,0,0,1-.189-.783,9.17,9.17,0,0,1,.024-1.531,12.457,12.457,0,0,0,.1-2.225c.02-.757,0-1.514,0-2.3l.182-.194c.3.137.59.244.854.391a6.886,6.886,0,0,1,.769.513c.253.19.482.412.735.6a4.282,4.282,0,0,0,.769.513C952,46.518,952.023,46.9,952.314,46.985Z" transform="translate(-859.999 -34.609)" fill="#3e4146"/>
        <path id="Path_154" data-name="Path 154" d="M882.74,53.19l-.288.288c-.016.011-.031.03-.048.032a9.245,9.245,0,0,1-.994.119c-.88.017-1.761.006-2.705.006l-.128-.209c-.689-.161-1.219.277-1.815.208a1.3,1.3,0,0,1-.189-.9c0-.316-.176-.6-.131-.933s-.1-.711.038-.967c.153-.291-.079-.674.278-.882h1.513l.33.41a2.593,2.593,0,0,1,1.56-.387l-.217.932.224.384c.045-.025.09-.033.1-.056.231-.554.788-.724,1.219-1.042.11-.081.224-.157.349-.244h.58l.312.3v1.542c0,.266-.086.577.022.788C882.883,52.838,882.565,53,882.74,53.19Z" transform="translate(-831.148 -36.853)" fill="#3e4146"/>
        <path id="Path_155" data-name="Path 155" d="M881.882,42.527l-.184.184a1.844,1.844,0,0,0-.737.113c-.225.1-.517-.1-.75.127-.053.051-.2.008-.3.008-.819,0-1.638,0-2.457,0-.117,0-.276.018-.343-.048-.139-.136-.393.013-.469-.209a2.764,2.764,0,0,1-.168-.6,8.546,8.546,0,0,1-.007-.859c0-.43,0-.86,0-1.29a1.908,1.908,0,0,1,.229-.744,7.056,7.056,0,0,1,2.353-.178,5.5,5.5,0,0,1,.564.112c.2.021.409,0,.614.006.279.011.516-.2.81-.129.221.055.452.071.644.1a1.158,1.158,0,0,1,.206.833C881.88,40.807,881.882,41.667,881.882,42.527ZM879.135,42l-.558.274-.171.437a.787.787,0,0,0,.85-.508c.011-.023,0-.057,0-.085Z" transform="translate(-831.165 -32.455)" fill="#3e4146"/>
        <path id="Path_156" data-name="Path 156" d="M948.374,32.555a8.147,8.147,0,0,1,1.123,1.623,7.95,7.95,0,0,1,.818,1.739l-.619.476.175.494c.2.053.452.208.592.138.237-.119.386.1.562.044.531.854,1.207,1.65,1.025,2.765l-.037.037c-.118-.109-.235-.22-.363-.343-.395-.106-.738.108-1.16.247-.21-.117-.456-.26-.707-.393a1.525,1.525,0,0,0-.515-.23.6.6,0,0,1-.546-.456,5.477,5.477,0,0,0-.345-.627c-.029-.238.058-.52-.117-.78a.412.412,0,0,1,0-.358,2.067,2.067,0,0,0,.111-1.059c.011-.982,0-1.965,0-2.947Z" transform="translate(-859.994 -29.867)" fill="#3e4146"/>
        <path id="Path_157" data-name="Path 157" d="M879.206,30.328a3.153,3.153,0,0,1,.551.783,4.614,4.614,0,0,0,.493.62c-.04.23-.162.273-.34.317a20.956,20.956,0,0,1-3,.139,13.3,13.3,0,0,1-.249-3.549l.344-.2-.059-.075h2.386c.255.192.182.447.127.705C879.37,29.487,879.291,29.907,879.206,30.328Z" transform="translate(-831.247 -28.183)" fill="#3e4146"/>
        <path id="Path_158" data-name="Path 158" d="M885.349,28.522a4.576,4.576,0,0,1-.012.961,10.256,10.256,0,0,0-.118,1.85,2.611,2.611,0,0,1-.159.557l-.286.257h-1.069a5.018,5.018,0,0,1-.734-1.573,3.548,3.548,0,0,1-.323-1.779l.229-.394c.051-.04.067-.062.082-.062.735,0,1.47-.005,2.2.006C885.223,28.346,885.28,28.453,885.349,28.522Z" transform="translate(-833.648 -28.172)" fill="#3e4146"/>
        <path id="Path_159" data-name="Path 159" d="M911.493,29.372v1.567l-.312.13c-.007-.006-.049-.067-.084-.063-.466.056-.507-.354-.557-.608a15.888,15.888,0,0,1-.169-1.672l.257-.244a3.552,3.552,0,0,1,.5.36,3.552,3.552,0,0,1,.362.529Z" transform="translate(-844.789 -28.231)" fill="#3e4146"/>
        <path id="Path_160" data-name="Path 160" d="M897.843,40.71h-.307a.847.847,0,0,1-.261-.83C897.713,40.037,897.818,40.19,897.843,40.71Z" transform="translate(-839.519 -32.81)" fill="#3e4146"/>
      </g>
      <g id="Group_271" data-name="Group 271" transform="translate(294.534 1436.281)">
        <g id="Group_270" data-name="Group 270" transform="translate(0 0)">
          <g id="Group_267" data-name="Group 267" transform="translate(0 0)">
            <g id="Group_266" data-name="Group 266" clip-path="url(#clip-path)">
              <path id="Path_205" data-name="Path 205" d="M499.2,343.362a3.807,3.807,0,0,0-.188-.446q-2.3-3.994-4.615-7.982a1.95,1.95,0,0,1-.274-1.028c.006-11.5.005-35.115.005-35.115h10.32V318.23h-4.154V302.983H498.3s0,20.872,0,31.021a1.53,1.53,0,0,0,.218.845c.252.406.486.824.741,1.259.207-.108.242-.319.354-.467a3.836,3.836,0,0,0,.7-2.5c-.041-4.066-.017-12.791-.017-12.791h4.178s0,9.263,0,13.659a1.606,1.606,0,0,1-.226.843q-2.314,3.987-4.615,7.982a5.416,5.416,0,0,0-.237.533Z" transform="translate(-469.446 -283.872)" fill="#3e4146"/>
              <path id="Path_206" data-name="Path 206" d="M760.414,298.791s-1.568,2.782-2.367,4.166H746.066v2H756.89L750.751,315.6l-.092-.017v-6.425h-4.622s-.008,9.581,0,14.077a1.941,1.941,0,0,1-.281,1.026c-1.192,2.04-2.368,4.09-3.55,6.136-.08.139-.17.271-.313.5v-32.1Z" transform="translate(-704.85 -283.872)" fill="#3e4146"/>
              <path id="Path_207" data-name="Path 207" d="M82.032,298.85c3.267,5.658,9.8,17.285,9.8,17.285v-6.927H96.45s0,11.8,0,14.177a1.337,1.337,0,0,0,.15.713c1.263,2.17,3.985,6.885,3.985,6.885V298.85Zm14.418,6.076H90.376s-1.01-1.888-1-1.9,7.074,0,7.074,0Z" transform="translate(-77.936 -283.928)" fill="#3e4146"/>
            </g>
          </g>
          <g id="Group_269" data-name="Group 269" transform="translate(0 0)">
            <g id="Group_268" data-name="Group 268" clip-path="url(#clip-path)">
              <path id="Path_208" data-name="Path 208" d="M108.026,12.907a27.655,27.655,0,0,1,43.785,0h2.683A30.005,30.005,0,0,0,141.532,2.343a29.81,29.81,0,0,0-32.71,6.393,29.967,29.967,0,0,0-3.479,4.17Z" transform="translate(-100.083 0.002)" fill="#3e4146"/>
              <path id="Path_209" data-name="Path 209" d="M26.232,379.339a27.685,27.685,0,0,1-21.97-38.053L2.93,338.979q-.307.64-.585,1.3a29.827,29.827,0,0,0,25.214,41.364Z" transform="translate(0 -322.054)" fill="#3e4146"/>
              <path id="Path_210" data-name="Path 210" d="M667.036,339.11q-.291-.688-.614-1.358l-1.33,2.3a27.685,27.685,0,0,1-22.013,38.128l-1.325,2.3a29.854,29.854,0,0,0,25.282-41.368" transform="translate(-609.711 -320.888)" fill="#3e4146"/>
              <path id="Path_211" data-name="Path 211" d="M100.087,456.018a22.259,22.259,0,0,1-14.6-25.283L83,426.415a25.793,25.793,0,0,0,19.586,33.923Z" transform="translate(-77.467 -405.124)" fill="#3e4146"/>
              <path id="Path_212" data-name="Path 212" d="M214.712,90.324a22.2,22.2,0,0,1,28.657,0h5.064q-.556-.633-1.157-1.234a25.768,25.768,0,0,0-36.471,0q-.6.6-1.157,1.234Z" transform="translate(-199.181 -77.465)" fill="#3e4146"/>
              <path id="Path_213" data-name="Path 213" d="M709.842,430.411A22.259,22.259,0,0,1,695.23,455.72l-2.492,4.317a25.815,25.815,0,0,0,19.6-33.943Z" transform="translate(-658.15 -404.819)" fill="#3e4146"/>
            </g>
          </g>
        </g>
      </g>
      <g id="Group_273" data-name="Group 273" transform="translate(171.645 1334.504)">
        <path id="Path_102" data-name="Path 102" d="M261.024,37.37c-5.061,6.406.757,10.68,4.007,9.99V33.807A11.493,11.493,0,0,0,261.024,37.37Z" transform="translate(-241.222 -17.029)" fill="#3e4146"/>
        <path id="Path_103" data-name="Path 103" d="M283.727,53.866c5.05-6.393-.769-10.67-3.985-10,0,4.388,0,9.674,0,13.547A11.529,11.529,0,0,0,283.727,53.866Z" transform="translate(-249.541 -21.044)" fill="#3e4146"/>
        <path id="Path_104" data-name="Path 104" d="M229.259,5.762v48.59h53.989V5.762ZM252.213,7.87c.62.142,6.586,1.949,17.044-2.108,0,0-12.144,6.975-22.817,3.969Zm7.249,39.69v.164a2.39,2.39,0,0,0,1,2.143c.69.447,5.381,3.135,5.381,3.135a58.229,58.229,0,0,0-9.456-.722,63.718,63.718,0,0,0-9.71.722s4.681-2.694,5.38-3.135a2.1,2.1,0,0,0,1.015-2.135v-.142a25.171,25.171,0,0,1-12.6-4.867,21.662,21.662,0,0,0,12.593,1.331c0-2.456-.005-4.828-.005-4.828A8.875,8.875,0,0,1,250.1,38.9c-2.715-.666-4.675-3.067-5.263-3.749-.465-.541-.673-.857-1.762-.388a9.5,9.5,0,0,0-4.5,4.218s.034-1.466,3.355-5.719a15.821,15.821,0,0,0,2.16-4.637,14.828,14.828,0,0,1,5.945-7.7c1.747-1.261.13-1.308-.594-1.3-.551,0-5.209-.294-13.034,6.512,0,0,6.367-8.164,16.658-9.007l0-3.276a29.461,29.461,0,0,0-8.338,1.714,25.165,25.165,0,0,0-7.453,4.314l.969-9.2c4.552.333,10.339,1.083,15.276,1.083h5.509c4.923,0,10.765-.751,15.316-1.083l.968,9.2a26.2,26.2,0,0,0-7.758-4.443,30.043,30.043,0,0,0-8.1-1.586l0,3.269a25.194,25.194,0,0,1,12.626,4.872,21.662,21.662,0,0,0-12.624-1.325v4.794a8.43,8.43,0,0,1,2.941.33c2.715.666,4.676,3.067,5.264,3.75.464.541.673.857,1.762.389a9.5,9.5,0,0,0,4.5-4.218s-.035,1.466-3.356,5.719a14.112,14.112,0,0,0-2.161,4.405,15.439,15.439,0,0,1-5.946,7.935c-1.746,1.26-.13,1.308.595,1.3.551,0,5.208.294,13.033-6.513,0,0-6.357,8.151-16.635,9Z" transform="translate(-229.259 -5.762)" fill="#3e4146"/>
        <path id="Path_105" data-name="Path 105" d="M251.4,89.99v6.794l-.284-.835-1.929-5.959h-2.675v13.166h2.635V96.217l.284.925,1.79,6.014h2.813V89.99Z" transform="translate(-236.192 -39.601)" fill="#3e4146"/>
        <path id="Path_106" data-name="Path 106" d="M311.818,89.99v6.794l-.284-.835L309.6,89.99H306.93v13.166h2.635V96.217l.285.925,1.789,6.014h2.814V89.99Z" transform="translate(-260.463 -39.601)" fill="#3e4146"/>
        <rect id="Rectangle_139" data-name="Rectangle 139" width="3.209" height="13.166" transform="translate(34.082 50.389)" fill="#3e4146"/>
        <path id="Path_107" data-name="Path 107" d="M296.058,100.889a5.357,5.357,0,0,1-.1-1.494V93.112c0-.961.091-1.218.171-1.334a.624.624,0,0,1,.54-.275.554.554,0,0,1,.563.354,4.212,4.212,0,0,1,.114,1.254V99.3a6.647,6.647,0,0,1-.107,1.548.573.573,0,0,1-.6.418.554.554,0,0,1-.582-.372m-1.346-11.01a3.071,3.071,0,0,0-1.872,2.5c-.062.557-.095,1.517-.095,2.856v2.3a28.337,28.337,0,0,0,.1,2.892,3.089,3.089,0,0,0,1.917,2.48,4.953,4.953,0,0,0,1.886.343,4.83,4.83,0,0,0,1.937-.362,3.07,3.07,0,0,0,1.871-2.5c.063-.554.094-1.515.094-2.855v-2.3a28.5,28.5,0,0,0-.1-2.892,3.093,3.093,0,0,0-1.918-2.481,4.943,4.943,0,0,0-1.885-.342,4.818,4.818,0,0,0-1.936.362" transform="translate(-254.763 -39.41)" fill="#3e4146"/>
        <path id="Path_108" data-name="Path 108" d="M264.228,92.64l.652,6H263.6Zm-2.3-2.65-1.988,13.166h3.318l.211-2.418h1.519l.188,2.418h3.273l-2.2-13.166Z" transform="translate(-241.586 -39.601)" fill="#3e4146"/>
        <path id="Path_109" data-name="Path 109" d="M229.259,89.99v2.4h2.3v10.763h3.209V92.393h2.307v-2.4Z" transform="translate(-229.259 -39.601)" fill="#3e4146"/>
        <path id="Path_110" data-name="Path 110" d="M272.149,89.99v2.4h2.3v10.763h3.209V92.393h2.308v-2.4Z" transform="translate(-246.49 -39.601)" fill="#3e4146"/>
      </g>
    </g>
    <g id="Group_274" data-name="Group 274" transform="translate(257.45 1334.504)">
      <path id="Pfad_56" data-name="Pfad 56" d="M481.2,62.214l-4.014-6.589-3.814,6.589h-5.3l6.514-9.883-5.743-8.694h5.351l3.2,5.3,3.1-5.3h5.325l-5.673,8.793,6.44,9.784Zm-81.331-9.933a4.426,4.426,0,0,1,2.3,1.622,4.587,4.587,0,0,1,.768,2.688,6.172,6.172,0,0,1-.421,2.217,4.315,4.315,0,0,1-1.29,1.82,6.168,6.168,0,0,1-1.412.941,6.4,6.4,0,0,1-1.424.471,8.308,8.308,0,0,1-1.524.161q-.793.012-1.709.012h-9.554V50.72h10a2.763,2.763,0,0,0,1.337-.3,1.2,1.2,0,0,0,.545-1.165,1.577,1.577,0,0,0-.148-.731,1.121,1.121,0,0,0-.409-.446,1.552,1.552,0,0,0-.595-.211,4.8,4.8,0,0,0-.706-.05H392.75v-4.16h2.243q.842,0,1.648.037a8.774,8.774,0,0,1,1.56.211,5.6,5.6,0,0,1,1.433.545,4.781,4.781,0,0,1,1.276,1.04,4.115,4.115,0,0,1,.87,1.4,4.748,4.748,0,0,1,.272,1.623,4.438,4.438,0,0,1-.558,2.192,3.925,3.925,0,0,1-1.623,1.577Zm-10.02,5.8h6.331a3.919,3.919,0,0,0,.842-.087,2.141,2.141,0,0,0,.706-.287,1.442,1.442,0,0,0,.5-.545,1.822,1.822,0,0,0,.186-.866,1.619,1.619,0,0,0-.186-.818,1.3,1.3,0,0,0-.5-.5,2.1,2.1,0,0,0-.717-.235,5.524,5.524,0,0,0-.829-.062h-6.333Zm23.694,4.136a9.583,9.583,0,0,1-6.614-2.613,9.168,9.168,0,0,1-2.044-2.9,8.649,8.649,0,0,1-.755-3.6,10.235,10.235,0,0,1,.717-3.815,7.168,7.168,0,0,1,1.165-1.982,8.974,8.974,0,0,1,3.307-2.749,9.735,9.735,0,0,1,4.25-.916,9.6,9.6,0,0,1,3.678.706,9.373,9.373,0,0,1,3.01,1.957,9.216,9.216,0,0,1,2.03,2.948,9.474,9.474,0,0,1,0,7.357,9.212,9.212,0,0,1-2.031,2.948,9.341,9.341,0,0,1-3.022,1.957,9.69,9.69,0,0,1-3.691.706Zm.025-14.59a4.67,4.67,0,0,0-1.994.421,4.607,4.607,0,0,0-1.536,1.141,5.221,5.221,0,0,0-.978,1.66,5.761,5.761,0,0,0-.347,2.007,6.038,6.038,0,0,0,.347,2.055,5.048,5.048,0,0,0,.99,1.685,4.865,4.865,0,0,0,1.56,1.152,4.693,4.693,0,0,0,2.031.43,4.418,4.418,0,0,0,1.957-.43,4.713,4.713,0,0,0,1.524-1.165,5.342,5.342,0,0,0,.979-1.684,5.72,5.72,0,0,0,.347-1.969,5.786,5.786,0,0,0-.347-1.994,5.373,5.373,0,0,0-.99-1.7,4.736,4.736,0,0,0-1.547-1.178,4.556,4.556,0,0,0-1.995-.43Zm20.407,14.59-4.013-6.589-3.815,6.589h-5.3l6.515-9.883-5.743-8.694h5.35l3.2,5.3,3.1-5.3,8.631.049c.5.006.995.008,1.5.025a11.36,11.36,0,0,1,1.5.148,7.11,7.11,0,0,1,1.433.4,5.47,5.47,0,0,1,1.313.743,5.938,5.938,0,0,1,1.709,2.279,7.073,7.073,0,0,1,.57,2.8,6.734,6.734,0,0,1-.31,2.043,5.735,5.735,0,0,1-.9,1.759,5.382,5.382,0,0,1-1.449,1.313,5.167,5.167,0,0,1-1.944.706l5,6.316h-5.4l-6.614-9.24h3.988a5.215,5.215,0,0,0,1.214-.136,2.612,2.612,0,0,0,.991-.459,2.2,2.2,0,0,0,.656-.818,2.814,2.814,0,0,0,.234-1.213,2.557,2.557,0,0,0-.247-1.177,2.124,2.124,0,0,0-.669-.78,2.851,2.851,0,0,0-.978-.43,4.838,4.838,0,0,0-1.152-.138H440.58l-4.724.049-2.945,4.557,6.44,9.784Zm26.791,0a9.582,9.582,0,0,1-6.613-2.613,9.171,9.171,0,0,1-2.044-2.9,8.651,8.651,0,0,1-.755-3.6,10.238,10.238,0,0,1,.717-3.815,7.166,7.166,0,0,1,1.165-1.982,8.97,8.97,0,0,1,3.307-2.749,9.733,9.733,0,0,1,4.249-.916,9.6,9.6,0,0,1,3.679.706,9.373,9.373,0,0,1,3.01,1.957,9.214,9.214,0,0,1,2.031,2.948,9.475,9.475,0,0,1,0,7.357,9.209,9.209,0,0,1-2.031,2.948,9.334,9.334,0,0,1-3.022,1.957,9.691,9.691,0,0,1-3.691.706Zm.022-14.59a4.67,4.67,0,0,0-1.994.421,4.608,4.608,0,0,0-1.532,1.14,5.223,5.223,0,0,0-.978,1.66,5.752,5.752,0,0,0-.347,2.007,6.035,6.035,0,0,0,.347,2.055,5.05,5.05,0,0,0,.993,1.684,4.866,4.866,0,0,0,1.56,1.152,4.691,4.691,0,0,0,2.031.43,4.416,4.416,0,0,0,1.957-.43,4.708,4.708,0,0,0,1.523-1.165,5.337,5.337,0,0,0,.978-1.684,5.717,5.717,0,0,0,.347-1.969,5.786,5.786,0,0,0-.347-1.994,5.376,5.376,0,0,0-.991-1.7,4.735,4.735,0,0,0-1.548-1.176,4.555,4.555,0,0,0-1.994-.43Z" transform="translate(-385.609 -43.58)" fill="#3e4146"/>
      <path id="Pfad_57" data-name="Pfad 57" d="M385.609,43.542h4.243v4.242h-4.243Z" transform="translate(-385.609 -43.542)" fill="#3e4146" fill-rule="evenodd"/>
    </g>
    <path id="Path_1127" data-name="Path 1127" d="M-49.514-11.951h7.258v1.292h-5.757v3.971h5.358V-5.4h-5.358V0h-1.5ZM-36.955-1.007A1.884,1.884,0,0,0-34.808-2.66h1.539A3.121,3.121,0,0,1-34.475-.541a4.007,4.007,0,0,1-2.479.75,3.755,3.755,0,0,1-2.964-1.3,5.074,5.074,0,0,1-1.14-3.467A5.011,5.011,0,0,1-39.91-8.018,3.893,3.893,0,0,1-36.85-9.31,3.147,3.147,0,0,1-34-7.828a5.244,5.244,0,0,1,.655,3.61h-6.213a3.716,3.716,0,0,0,.684,2.308A2.269,2.269,0,0,0-36.955-1.007Zm1.1-6.878a2.277,2.277,0,0,0-1.064-.228,2.287,2.287,0,0,0-1.833.788,3.453,3.453,0,0,0-.788,1.966h4.845A2.607,2.607,0,0,0-35.853-7.885ZM-24.681-5.89a2.5,2.5,0,0,0-.513-1.767,1.977,1.977,0,0,0-1.492-.532,2.851,2.851,0,0,0-1.577.39,1.356,1.356,0,0,0-.6,1.226h-1.653a2.476,2.476,0,0,1,2.242-2.584A6.828,6.828,0,0,1-26.79-9.31a3.807,3.807,0,0,1,2.641.855,3.328,3.328,0,0,1,.95,2.6V0h-1.292l-.152-1.52A3.058,3.058,0,0,1-27.664.209,3.319,3.319,0,0,1-30.01-.608a2.656,2.656,0,0,1-.884-2.033,2.19,2.19,0,0,1,.979-1.9,4.159,4.159,0,0,1,2.441-.684,7.956,7.956,0,0,1,2.793.494Zm0,2.109a8.858,8.858,0,0,0-2.356-.38,3.253,3.253,0,0,0-1.634.361A1.221,1.221,0,0,0-29.3-2.66q0,1.71,1.938,1.71a2.579,2.579,0,0,0,1.891-.789A2.764,2.764,0,0,0-24.681-3.781Zm9.766,3.515A4.01,4.01,0,0,1-17.9.057a2.1,2.1,0,0,1-1.368-1.273,2.819,2.819,0,0,1-.209-1.14V-7.942h-1.463v-1.14h1.463v-2.527h1.482v2.527h2.85v1.14h-2.85v5.567q0,1.387,1.292,1.387a4.383,4.383,0,0,0,1.577-.342ZM-6.346-1.8A3.133,3.133,0,0,1-9.367.171a3.544,3.544,0,0,1-2.479-.855,3.4,3.4,0,0,1-.941-2.641V-9.1h1.5v5.662q0,2.3,2.128,2.3a2.458,2.458,0,0,0,2-.95,3.907,3.907,0,0,0,.807-2.432V-9.1h1.5V0h-1.5Zm9.044-6Q.551-7.809.475-4.427V0h-1.5V-9.1h1.5v1.748a2.466,2.466,0,0,1,2.413-1.9,3.172,3.172,0,0,1,1.045.171L3.857-7.619A3.643,3.643,0,0,0,2.7-7.809Zm6.669,6.8A1.884,1.884,0,0,0,11.514-2.66h1.539A3.121,3.121,0,0,1,11.846-.541a4.007,4.007,0,0,1-2.479.75A3.755,3.755,0,0,1,6.4-1.092,5.074,5.074,0,0,1,5.263-4.56,5.011,5.011,0,0,1,6.412-8.018,3.893,3.893,0,0,1,9.471-9.31a3.147,3.147,0,0,1,2.85,1.482,5.244,5.244,0,0,1,.655,3.61H6.764A3.716,3.716,0,0,0,7.448-1.91,2.269,2.269,0,0,0,9.367-1.007Zm1.1-6.878A2.277,2.277,0,0,0,9.4-8.113a2.287,2.287,0,0,0-1.833.788,3.453,3.453,0,0,0-.789,1.966h4.845A2.607,2.607,0,0,0,10.469-7.885Zm11.5.152v-5.206h1.482V0H22.23l-.19-1.52A3.124,3.124,0,0,1,20.881-.228,2.989,2.989,0,0,1,19.3.209a3.7,3.7,0,0,1-2.9-1.33,5.061,5.061,0,0,1-1.168-3.467,4.968,4.968,0,0,1,1.149-3.429A3.723,3.723,0,0,1,19.294-9.31,2.912,2.912,0,0,1,21.964-7.733ZM19.38-7.98a2.294,2.294,0,0,0-1.852.931,3.85,3.85,0,0,0-.75,2.489,3.856,3.856,0,0,0,.76,2.5,2.278,2.278,0,0,0,1.824.94,2.54,2.54,0,0,0,1.814-.712,2.631,2.631,0,0,0,.789-1.91V-5.225a2.721,2.721,0,0,0-.741-2.014A2.5,2.5,0,0,0,19.38-7.98ZM31.92-9.1h1.5V0h-1.5Zm.741-2.128a.963.963,0,0,1-.713-.257.924.924,0,0,1-.257-.684.924.924,0,0,1,.257-.684.963.963,0,0,1,.713-.256,1.03,1.03,0,0,1,.731.256.89.89,0,0,1,.276.684.89.89,0,0,1-.276.684A1.03,1.03,0,0,1,32.661-11.229ZM38.95-7.334A3.115,3.115,0,0,1,42.009-9.31a3.122,3.122,0,0,1,2.517,1.064,4.351,4.351,0,0,1,.9,2.907V0H43.947V-5.339a2.81,2.81,0,0,0-.618-1.976,2.28,2.28,0,0,0-1.757-.665,2.2,2.2,0,0,0-1.843.931,4.378,4.378,0,0,0-.741,2.584V0h-1.5V-9.082h1.292Zm10.26,6.9a1.069,1.069,0,0,1-.789-.314,1.035,1.035,0,0,1-.313-.76,1.035,1.035,0,0,1,.313-.76,1.081,1.081,0,0,1,.8-.314,1.113,1.113,0,0,1,.808.314,1.02,1.02,0,0,1,.323.76,1.02,1.02,0,0,1-.323.76A1.125,1.125,0,0,1,49.21-.437Zm0-5.814a1.069,1.069,0,0,1-.789-.313,1.035,1.035,0,0,1-.313-.76,1.035,1.035,0,0,1,.313-.76,1.081,1.081,0,0,1,.8-.313,1.113,1.113,0,0,1,.808.313,1.02,1.02,0,0,1,.323.76,1.02,1.02,0,0,1-.323.76A1.125,1.125,0,0,1,49.21-6.251Z" transform="translate(195.602 1304.575)" fill="#3e4146"/>
  </g>
</svg>
