{
    "/js/app.js": "/js/app.js?id=a96e2e7df4ef5e93e217e08e0079c99c",
    "/js/manifest.js": "/js/manifest.js?id=fdf109899aef5b9c39eea4320f4f76de",
    "/js/FreeVideos.js": "/js/FreeVideos.js?id=9d35094324512f5e0ca6d681bfd96a29",
    "/js/MailingList.js": "/js/MailingList.js?id=64e3636c0cbf0d863073cce2b63e3891",
    "/js/SevenDaysMailingList.js": "/js/SevenDaysMailingList.js?id=6bd03bb4333d82f21d25b559adfe7ee0",
    "/js/ShopIndex.js": "/js/ShopIndex.js?id=955aa469969579ff76586ea9cb0fb88c",
    "/js/Products.js": "/js/Products.js?id=f412ac03982cb6ee55d9137c170574a3",
    "/js/Countries.js": "/js/Countries.js?id=10a18b794bcf2ce6e303efa3247db53a",
    "/js/Checkout.js": "/js/Checkout.js?id=aa8bf1c75c6f8fdc9f17dde24b802e05",
    "/js/UserCheckout.js": "/js/UserCheckout.js?id=e68a5487e86594639aad130e07063929",
    "/js/Blog.js": "/js/Blog.js?id=be860a6dd82736a0d2fc3a91720feb49",
    "/js/BlogPosts.js": "/js/BlogPosts.js?id=673d96ebab8b24db795d6ac8177ebf45",
    "/js/Seminars.js": "/js/Seminars.js?id=1d6af50b58786f4a9037870a3b8dc458",
    "/js/RequestSeminar.js": "/js/RequestSeminar.js?id=e13c4a5834d6711fa80d5d3f344df0f6",
    "/js/Facts.js": "/js/Facts.js?id=d966c537aede72aa488fffa561ff04ed",
    "/js/ContactForm.js": "/js/ContactForm.js?id=70162afcd1ff4b9600ae13fa9fbd798c",
    "/js/SupportForm.js": "/js/SupportForm.js?id=da8b44c41db9c0a5a1db2709610804cf",
    "/js/AskAQuestion.js": "/js/AskAQuestion.js?id=89499b330e5195a32f6c12eb34f12a7d",
    "/js/Questionnaire.js": "/js/Questionnaire.js?id=801c93e0b1ed4212d6a0588de875cde1",
    "/js/VideoQuestionnaire.js": "/js/VideoQuestionnaire.js?id=03a29a5f08c89fc5d3fb6d98d93153b4",
    "/js/VideoTestimonials.js": "/js/VideoTestimonials.js?id=d73293ce860f7a96d15b5544a98eb139",
    "/js/Loader.js": "/js/Loader.js?id=f82075b9dddb9d1e61f617a408349d03",
    "/js/ShareJourney.js": "/js/ShareJourney.js?id=8cb3b5d39252c8d22cc8b4a06f3442ce",
    "/js/Timer.js": "/js/Timer.js?id=199b6125741e90244c53e27112b1cd9b",
    "/js/OrderStatus.js": "/js/OrderStatus.js?id=bc58c2cae4ad85503edc23ee01510e75",
    "/js/Homepage.js": "/js/Homepage.js?id=eb6d84b22dfa518a58dcf06d9645d886",
    "/js/HelpPage.js": "/js/HelpPage.js?id=672adcb81e0618bef88afb6451e4daba",
    "/js/ProductBundles.js": "/js/ProductBundles.js?id=6777de1620991143863f19cbe803817e",
    "/js/ShopBundles.js": "/js/ShopBundles.js?id=e823b9a641a605c5cf4da62861802cf5",
    "/js/ShopLevelOne.js": "/js/ShopLevelOne.js?id=6e159f70e66b59329414ff7aea945b71",
    "/js/ShopLevelTwo.js": "/js/ShopLevelTwo.js?id=048029d0cfd24bce619b5352c56db785",
    "/js/ShopLevelThree.js": "/js/ShopLevelThree.js?id=03e8c8024a4e6a5a384cea20fdde76dc",
    "/js/ShopBundlesTwo.js": "/js/ShopBundlesTwo.js?id=489e406a82b074ce7a131f90b89c71d5",
    "/js/ShopLevelFour.js": "/js/ShopLevelFour.js?id=ef108e7ca3c68221d227e75bc98eb34f",
    "/js/ShopLevelFive.js": "/js/ShopLevelFive.js?id=98d2dfcfdcffe256491386b846dbdf9f",
    "/js/ShopOnlineCamps.js": "/js/ShopOnlineCamps.js?id=1b99777abb357a6aa3c8343c43a20687",
    "/js/HomeSectionOne.js": "/js/HomeSectionOne.js?id=8c4353ec669e901c51d25b35b83fa2fa",
    "/js/FeaturedProducts.js": "/js/FeaturedProducts.js?id=099c0bdc9eb982772c248ff6d3e47794",
    "/js/HomeBundles.js": "/js/HomeBundles.js?id=97759d914395cc64b965cdf34a40422c",
    "/js/SignupMailingList.js": "/js/SignupMailingList.js?id=e2aa7668a40e143ff5dad236e3ffb695",
    "/js/HomeReviews.js": "/js/HomeReviews.js?id=aebc1908068c88ebc24d5ad2af8e5770",
    "/js/HomeBlog.js": "/js/HomeBlog.js?id=e2b666999ce080f0dd690d355cf91a50",
    "/js/RecentVideos.js": "/js/RecentVideos.js?id=00cac52d1391c5aac9d4d624ded7f7ec",
    "/js/ProductCard.js": "/js/ProductCard.js?id=06d177d77f8242c12e1a6e926d53e7f4",
    "/js/BlogPost.js": "/js/BlogPost.js?id=eadd6bca8f77a97b8ec8489f74c75687",
    "/css/app.css": "/css/app.css?id=e0c752ea50d6df517464d2cb6db2f220",
    "/js/vendor.js": "/js/vendor.js?id=1692dbdf9d848857fa94d0725c6e5017",
    "/js/app.min.js": "/js/app.min.js?id=a96e2e7df4ef5e93e217e08e0079c99c",
    "/js/vendor.min.js": "/js/vendor.min.js?id=1692dbdf9d848857fa94d0725c6e5017",
    "/css/app.min.css": "/css/app.min.css?id=e0c752ea50d6df517464d2cb6db2f220"
}
