<svg id="Group_125" data-name="Group 125" xmlns="http://www.w3.org/2000/svg" width="100" height="100" viewBox="0 0 100 100">
  <path id="Path_115" data-name="Path 115" d="M-170,0a50,50,0,0,0-50,50,50,50,0,0,0,50,50,50,50,0,0,0,50-50A50,50,0,0,0-170,0Z" transform="translate(220)" fill="#d82737"/>
  <g id="Group_120" data-name="Group 120" transform="translate(39.972 20.077)">
    <path id="Path_126" data-name="Path 126" d="M-121.6,106.331h-2.351V81.289a2.639,2.639,0,0,0-2.658-2.658h-10.733A2.639,2.639,0,0,0-140,81.289v5.52a2.639,2.639,0,0,0,2.658,2.658h2.147v16.967h-2.147A2.639,2.639,0,0,0-140,109.091v5.52a2.639,2.639,0,0,0,2.658,2.658H-121.6a2.639,2.639,0,0,0,2.658-2.658v-5.52A2.728,2.728,0,0,0-121.6,106.331Z" transform="translate(140 -59.415)" fill="#fff"/>
    <circle id="Ellipse_52" data-name="Ellipse 52" cx="6.765" cy="6.765" r="6.765" transform="translate(2.597)" fill="#fff"/>
  </g>
</svg>
