<svg id="Group_108" data-name="Group 108" xmlns="http://www.w3.org/2000/svg" width="100" height="100" viewBox="0 0 100 100">
  <g id="Group_106" data-name="Group 106">
    <path id="Path_109" data-name="Path 109" d="M50,0a50,50,0,1,0,50,50A50,50,0,0,0,50,0Z" fill="#d82737"/>
  </g>
  <g id="Group_107" data-name="Group 107" transform="translate(34.098 14.046)">
    <path id="Path_110" data-name="Path 110" d="M74.231,35.286l-.172-.139a2.977,2.977,0,0,0-3.158-.175,31.281,31.281,0,0,0,.4,3.358c.787,1.905,1.743,2.977,2.843,3.185,1.057.2,2.335-.416,3.6-1.738a3.234,3.234,0,0,1,2.407-2.246,2.174,2.174,0,0,1,2.309.59,24.163,24.163,0,0,1,2.012,3.526c4.9.734,7.029.281,7.05.277l.115-.012c2.468.027,4.209-.531,5.177-1.659a3.58,3.58,0,0,0,.808-2.68l-.01-.06,0-.06c.2-2.466-1.236-6.154-2.107-8.132a1.988,1.988,0,0,0-2.595-1.044L86.789,30.8a5.4,5.4,0,0,1-3.11-.41l-1.269.506.07.167-.052.172a1.153,1.153,0,0,1-.719.837,1.14,1.14,0,0,1-.874-.1,3.233,3.233,0,0,1-1.815-1.241c-.575-.8-.9-.834-.991-.822-.171.021-.337.241-.432.411a3.52,3.52,0,0,1-.406,3.053.9.9,0,0,1-.044.569c-.361.876-2.155,1.224-2.7,1.309Z" transform="translate(-69.535 -28.119)" fill="#fff"/>
    <path id="Path_111" data-name="Path 111" d="M88.435,155.728a3.438,3.438,0,0,0,1.954-1.82l.057-.106c.982-1.412,1.741-4.116,2.136-7.617a1.985,1.985,0,0,0-1.711-2.2l-6.217-.877a5.3,5.3,0,0,1-2.378-1.837L81,141.1l-.027.188-.127.119a1.11,1.11,0,0,1-1.022.357,1.093,1.093,0,0,1-.681-.529,3.266,3.266,0,0,1-.892-1.912c-.058-.746-.236-1.069-.384-1.134a.718.718,0,0,0-.53.122,3.363,3.363,0,0,1-1.806,2.336.883.883,0,0,1-.31.439c-.7.537-2.239.039-2.866-.2l-.2-.077-.081-.2a2.887,2.887,0,0,0-2.523-1.629,30.459,30.459,0,0,0-1.291,2.934c-.262,2.007.047,3.368.921,4.046,1.218.946,3.26.352,3.7.208a3.194,3.194,0,0,1,3.133-.712,2.112,2.112,0,0,1,1.63,1.613,22.388,22.388,0,0,1-.015,3.873,22.152,22.152,0,0,0,5.689,3.616l.1.047C85.419,155.8,87.108,156.18,88.435,155.728Z" transform="translate(-68.166 -83.098)" fill="#fff"/>
    <path id="Path_112" data-name="Path 112" d="M98.127,125.463l.047-.115c1.221-2.148,1.442-6.1,1.465-8.259a1.991,1.991,0,0,0-1.919-2.023l-6.672-.281a5.418,5.418,0,0,1-2.651-1.667l-1.4-.05-.014.187-.1.122a1.16,1.16,0,0,1-1.009.5,1.13,1.13,0,0,1-.762-.46,3.123,3.123,0,0,1-1.132-1.882c-.186-.982-.476-1.143-.56-1.17a.757.757,0,0,0-.561.19,3.461,3.461,0,0,1-1.637,2.607.894.894,0,0,1-.265.488c-.661.63-2.307.271-2.983.087l-.214-.058-.1-.2a2.986,2.986,0,0,0-2.8-1.468c-.479,1.282-.937,2.915-1.024,3.231-.078,2.081.358,3.461,1.3,4.1,1.306.892,3.318.17,4.018-.129a3.312,3.312,0,0,1,3.2-1.036,2.12,2.12,0,0,1,1.79,1.488,25.78,25.78,0,0,1,.357,4.057c4.148,2.694,6.272,3.177,6.293,3.182l.107.035c2.224,1.041,4.036,1.253,5.382.629A3.591,3.591,0,0,0,98.127,125.463Z" transform="translate(-71 -69.201)" fill="#fff"/>
    <path id="Path_113" data-name="Path 113" d="M101.9,97.494c.756-2.343.181-6.265-.23-8.394a1.99,1.99,0,0,0-2.28-1.6l-6.527,1.047-.06,0a5.508,5.508,0,0,1-2.959-1.1l-1.355.228.03.2-.087.152a1.144,1.144,0,0,1-.892.657,1.107,1.107,0,0,1-.81-.3c-.823-.264-1.378-1.371-1.487-1.6-.38-.93-.69-1.03-.777-1.04a.767.767,0,0,0-.5.294,3.518,3.518,0,0,1-1.087,2.915.9.9,0,0,1-.172.532c-.549.765-2.365.7-2.909.669l-.221-.015-.137-.174a2.936,2.936,0,0,0-3.039-.886,32.946,32.946,0,0,0-.362,3.362c.355,2.091,1.078,3.364,2.152,3.782,1.518.59,3.4-.653,3.824-.957a3.3,3.3,0,0,1,2.892-1.639,2.193,2.193,0,0,1,2.1,1.091,25.059,25.059,0,0,1,1.148,3.907c4.608,1.823,6.776,1.859,6.8,1.859l.116.014c2.4.58,4.23.428,5.426-.455a3.551,3.551,0,0,0,1.38-2.414Z" transform="translate(-72.11 -56.903)" fill="#fff"/>
    <path id="Path_114" data-name="Path 114" d="M97.961,57.771,91.524,59.31h-.064a5.672,5.672,0,0,1-3.031-.9l-1.32.306.041.183-.069.153a1.049,1.049,0,0,1-1.688.5c-.836-.212-1.464-1.29-1.588-1.515-.433-.9-.746-.976-.832-.979h-.008c-.167,0-.359.189-.472.331a3.554,3.554,0,0,1-.88,2.977.9.9,0,0,1-.123.541c-.466.789-2.158.9-2.864.906l-.221,0-.151-.162a3.019,3.019,0,0,0-3.119-.638c-.135,1.344-.122,3.041-.118,3.362.482,2,1.261,3.2,2.314,3.579.723.259,1.983.262,3.884-1.185a3.283,3.283,0,0,1,2.755-1.832,2.143,2.143,0,0,1,2.155.938,26.135,26.135,0,0,1,1.451,3.79c4.716,1.495,6.889,1.384,6.91,1.381l.057,0,.058.009c2.419.409,4.217.127,5.346-.835a3.6,3.6,0,0,0,1.22-2.535v-.062l.014-.059c.584-2.4-.264-6.262-.822-8.353A1.989,1.989,0,0,0,97.961,57.771Z" transform="translate(-71.593 -42.575)" fill="#fff"/>
  </g>
</svg>
