<svg id="Group_133" data-name="Group 133" xmlns="http://www.w3.org/2000/svg" width="180.141" height="32.583" viewBox="0 0 180.141 32.583">
  <path id="Path_7" data-name="Path 7" d="M-415.04,48.273h12.746l4.165-12.5,4.5,12.273,12.659.3-10.248,7.562,3.672,12.342-10.46-7.411-10.581,7.515,3.935-12.388Z" transform="translate(415.04 -35.775)" fill="#e46f23"/>
  <path id="Path_8" data-name="Path 8" d="M-350.558,48.273h12.746l4.165-12.5,4.5,12.273,12.659.3-10.248,7.562,3.672,12.342-10.46-7.411-10.581,7.515,3.935-12.388Z" transform="translate(387.077 -35.775)" fill="#e46f23"/>
  <path id="Path_9" data-name="Path 9" d="M-286.077,48.273h12.746l4.165-12.5,4.5,12.273,12.659.3-10.248,7.562,3.672,12.342-10.46-7.411-10.581,7.515,3.935-12.388Z" transform="translate(359.113 -35.775)" fill="#e46f23"/>
  <path id="Path_10" data-name="Path 10" d="M-221.6,48.273h12.746l4.165-12.5,4.5,12.273,12.659.3-10.248,7.562,3.672,12.342-10.46-7.411-10.581,7.515,3.935-12.388Z" transform="translate(331.15 -35.775)" fill="#e46f23"/>
  <path id="Path_11" data-name="Path 11" d="M-157.114,48.273h12.746l4.165-12.5,4.5,12.273,12.659.3-10.248,7.562,3.672,12.342-10.46-7.411-10.581,7.515,3.935-12.388Z" transform="translate(303.187 -35.775)" fill="#e46f23"/>
</svg>
