<svg xmlns="http://www.w3.org/2000/svg" width="100" height="100" viewBox="0 0 100 100">
  <g id="Group_102" data-name="Group 102" transform="translate(-199 -1594)">
    <circle id="Ellipse_49" data-name="Ellipse 49" cx="50" cy="50" r="50" transform="translate(199 1594)" fill="#d82737"/>
    <path id="Path_104" data-name="Path 104" d="M-560.459,50.99a1.614,1.614,0,0,0-.932-.82l-32.1-10.936a1.623,1.623,0,0,0-2.057,1.015l-1.329,3.914a1.628,1.628,0,0,0,1.013,2.061l.29.1-2.28,6.721c-1.29,3.8-.4,5.256,1.224,7.2l6.228,7.472-.453,1.336c-3.373.734-8.676,1.9-9.494,2.135a7.445,7.445,0,0,0-5.391,5.088l-1.892,5.574-.29-.1a1.621,1.621,0,0,0-2.057,1.016l-1.328,3.913a1.627,1.627,0,0,0,1.013,2.061l32.1,10.936a1.607,1.607,0,0,0,.521.087,1.624,1.624,0,0,0,1.536-1.1l1.328-3.913a1.616,1.616,0,0,0-.081-1.24,1.612,1.612,0,0,0-.932-.821l-.29-.1,1.936-5.707c1.291-3.8.4-5.257-1.224-7.2l-6.228-7.472.453-1.336c2.866-.624,8.641-1.888,9.493-2.135a7.442,7.442,0,0,0,5.391-5.089l2.237-6.589.289.1a1.605,1.605,0,0,0,1.238-.082,1.609,1.609,0,0,0,.819-.933l1.329-3.913A1.617,1.617,0,0,0-560.459,50.99ZM-583.44,66.6a2.338,2.338,0,0,0-1.708,1.525l-1.3,3.819a2.343,2.343,0,0,0,.415,2.239l7.065,8.475a5.163,5.163,0,0,1,.754,1.026,3.886,3.886,0,0,1-.362,1.7l-1.937,5.707-22.73-7.743,1.891-5.574a2.837,2.837,0,0,1,2.286-2.118c.6-.173,5.842-1.333,10.469-2.335a2.336,2.336,0,0,0,1.707-1.525l1.3-3.82a2.346,2.346,0,0,0-.416-2.238l-7.065-8.475a5.143,5.143,0,0,1-.754-1.026,3.887,3.887,0,0,1,.362-1.7l2.281-6.721,22.731,7.743-2.237,6.588a2.834,2.834,0,0,1-2.284,2.118C-573.574,64.444-578.815,65.6-583.44,66.6Z" transform="translate(834.845 1574.544)" fill="#fff"/>
  </g>
</svg>
