<svg xmlns="http://www.w3.org/2000/svg" width="26.383" height="26.383" viewBox="0 0 26.383 26.383">
  <g id="Group_8" data-name="Group 8" transform="translate(-161.6 -301.6)">
    <g id="Group_1" data-name="Group 1" transform="translate(161.6 301.6)">
      <path id="Path_1" data-name="Path 1" d="M63.191,50A13.192,13.192,0,1,0,76.383,63.192,13.207,13.207,0,0,0,63.191,50Zm0,23.63A10.439,10.439,0,1,1,73.63,63.192,10.439,10.439,0,0,1,63.191,73.63Z" transform="translate(-50 -50)" fill="#26ad1d"/>
      <path id="Path_2" data-name="Path 2" d="M129.066,142.266a1.376,1.376,0,0,0-1.947,0l-8.193,8.192-2.161-2.161a1.376,1.376,0,1,0-1.947,1.947l3.135,3.135a1.377,1.377,0,0,0,1.947,0l9.166-9.166A1.376,1.376,0,0,0,129.066,142.266Z" transform="translate(-108.751 -133.784)" fill="#26ad1d"/>
    </g>
  </g>
</svg>
