<svg xmlns="http://www.w3.org/2000/svg" width="31.21" height="26.926" viewBox="0 0 31.21 26.926">
  <g id="Group_371" data-name="Group 371" transform="translate(-210.5 -4630.514)">
    <path id="Path_75" data-name="Path 75" d="M12.647,42.074A12.647,12.647,0,1,1,25.295,29.426,12.662,12.662,0,0,1,12.647,42.074Zm0-21.785a9.137,9.137,0,1,0,9.137,9.137,9.137,9.137,0,0,0-9.137-9.137Z" transform="translate(210.5 4615.366)" fill="#3e4146"/>
    <path id="Path_76" data-name="Path 76" d="M65.192,20.2a2.2,2.2,0,0,1-1.544-.639l-5.414-5.414a2.183,2.183,0,1,1,3.087-3.087l3.87,3.87L79.479.643a2.182,2.182,0,1,1,3.087,3.086L66.735,19.559a2.2,2.2,0,0,1-1.543.639Z" transform="translate(158.505 4630.511)" fill="#00bc0d"/>
  </g>
</svg>
