<svg xmlns="http://www.w3.org/2000/svg" width="45.965" height="114.115" viewBox="0 0 45.965 114.115">
  <path id="Path_195" data-name="Path 195" d="M5375.2,1611.2l34.8,54.081-34.8,54.081" transform="translate(-5370.575 -1608.224)" fill="none" stroke="#e4e4e4" stroke-width="11"/>
</svg>
