<?xml version="1.0" encoding="utf-8"?>
<!-- Generator: Adobe Illustrator 25.0.0, SVG Export Plug-In . SVG Version: 6.00 Build 0)  -->
<svg version="1.1" id="Capa_1" xmlns="http://www.w3.org/2000/svg" xmlns:xlink="http://www.w3.org/1999/xlink" x="0px" y="0px"
	 viewBox="0 0 387.7654 387.7654" style="enable-background:new 0 0 387.7654 387.7654;" xml:space="preserve">
<style type="text/css">
	.st0{fill:#27ADE4;}
	.st1{fill:none;}
	.st2{fill:#FFFFFF;}
</style>
<rect class="st0" width="387.7654" height="387.7654"/>
<polygon class="st1" points="0,173.0522 0,171.6377 -0.5971,173.0522 "/>
<path class="st0" d="M11.1329,173.0522l4.195-10.219h22.487l4.15,10.219h21.972v-35.913l15.6999,35.913h9.485l15.663-35.883
	l0.041,35.883h11.075v-45.814H97.9108l-12.9839,31.079l-14.136-31.079H53.1639v43.374l-18.368-43.374h-16.052L0,171.6377v1.4146
	H11.1329z M26.5228,135.0203l7.397,18.264h-14.75L26.5228,135.0203z"/>
<rect x="217.1799" y="127.2423" class="st0" width="11.02" height="45.81"/>
<path class="st0" d="M254.9168,173.0522h12.64l4.082-10.219h22.439l4.198,10.219h22.002v-34.387l20.471,34.387h15.311l0.001-45.809
	h-11.064v31.902l-18.986-31.902h-16.449v43.333l-18.286-43.333h-16.187l-15.225,36.026h-4.849c-2.844,0-5.867-0.55-7.525-2.365
	c-2.01-2.309-2.975-5.849-2.975-10.754c0-4.801,1.265-8.446,3.106-10.38c2.147-2.1219,4.37-2.717,8.31-2.717h10.237v-9.815h-10.4541
	c-7.443,0-12.913,1.688-16.404,5.347c-4.651,4.898-5.826,11.1201-5.826,17.908c0,8.333,1.972,13.601,5.77,17.489
	C243.0178,171.8732,249.6709,173.0522,254.9168,173.0522z M282.9239,135.0203l7.472,18.264h-14.903L282.9239,135.0203z"/>
<polygon class="st0" points="160.0369,163.5703 134.7579,163.5703 134.7579,154.4332 159.4309,154.4332 159.4309,145.0413 
	134.7579,145.0413 134.7579,136.7833 160.0369,136.7833 160.0369,127.2383 123.9509,127.2383 123.9509,173.0522 160.0359,173.0522 
	"/>
<path class="st0" d="M178.3189,156.3863h11.599c3.892,0,6.294,0.352,7.873,1.961c1.964,2.2,1.706,6.17,1.706,8.928l0.041,5.777
	h10.896v-9.003c0-4.085-0.265-6.125-1.792-8.396c-0.958-1.339-2.978-2.948-5.343-3.865c2.802-1.127,7.614-4.91,7.614-12.206
	c0-5.1151-2.05-8.097-5.47-10.151c-3.487-2.047-7.554-2.193-13.077-2.193h-24.849v45.814h10.802V156.3863z M178.3189,136.7833
	h13.302c1.882,0,3.847,0.079,5.122,0.819c1.399,0.674,2.264,2.095,2.264,4.056c0.004,1.999-0.823,3.612-2.219,4.352
	c-1.485,0.917-3.24,0.947-5.343,0.947h-13.126V136.7833z"/>
<polygon class="st2" points="26.5228,135.0203 19.1699,153.2842 33.9199,153.2842 "/>
<path class="st2" d="M21.8939,171.8732h9.313l4.15,10.178h36.314v-7.7791l3.244,7.809h18.847l3.2401-7.925v7.895h90.244
	l-0.045-16.707h1.747c1.224,0.045,1.579,0.161,1.579,2.208v14.499h46.675v-3.888c3.768,2.047,9.624,3.888,17.332,3.888h19.633
	l4.202-10.178h9.317l4.108,10.178h37.837v-9.669l5.732,9.669h30.323v-63.894h-30.013v7.547l-4.198-7.547h-30.795v7.547l-3.854-7.547
	h-41.5949c-6.956,0-13.077,0.988-18.024,3.731v-3.731h-28.703v3.731c-3.143-2.829-7.427-3.731-12.198-3.731H91.4429l-7.035,16.501
	l-7.225-16.501h-33.033v7.547l-3.63-7.547h-28.163L0,146.8457v24.792l18.7438-44.3994h16.052l18.368,43.374v-43.374h17.6269
	l14.136,31.079l12.9839-31.079h17.9901v45.814h0.001h-0.001h-11.075l-0.041-35.883l-15.663,35.883h-9.485l-15.6999-35.913v35.913
	h-21.972l-4.15-10.219h-22.487l-4.195,10.219H0v8.999h17.7328L21.8939,171.8732z M239.3098,132.5852
	c3.491-3.659,8.961-5.347,16.404-5.347h10.4541v9.815h-10.237c-3.94,0-6.163,0.595-8.31,2.717c-1.841,1.934-3.106,5.579-3.106,10.38
	c0,4.905,0.965,8.445,2.975,10.754c1.658,1.815,4.681,2.365,7.525,2.365h4.849l15.225-36.026h16.187l18.286,43.333v-43.333h16.449
	l18.986,31.902v-31.902h11.064l-0.001,45.809h-15.311l-20.471-34.387v34.387h-22.002l-4.198-10.219h-22.439l-4.082,10.219h-12.64
	c-5.246,0-11.899-1.179-15.663-5.07c-3.798-3.888-5.77-9.156-5.77-17.489C233.4838,143.7053,234.6588,137.4832,239.3098,132.5852z
	 M217.1799,127.2423h11.02v45.81h-11.02V127.2423z M167.5169,127.2383h24.849c5.523,0,9.59,0.146,13.077,2.193
	c3.42,2.054,5.47,5.0359,5.47,10.151c0,7.296-4.812,11.079-7.614,12.206c2.3651,0.917,4.385,2.526,5.343,3.865
	c1.527,2.271,1.792,4.311,1.792,8.396v9.003h-10.896l-0.041-5.777c0-2.758,0.258-6.728-1.706-8.928
	c-1.579-1.609-3.981-1.961-7.873-1.961h-11.599v16.666h-10.802V127.2383z M123.9509,127.2383h36.086v9.545h-25.279v8.258h24.673
	v9.392h-24.673v9.137h25.279l-0.001,9.482h-36.085V127.2383z"/>
<polygon class="st2" points="282.9239,135.0203 275.4929,153.2842 290.3959,153.2842 "/>
<path class="st2" d="M196.7879,146.0103c1.396-0.74,2.223-2.353,2.219-4.352c0-1.961-0.865-3.382-2.264-4.056
	c-1.275-0.74-3.24-0.819-5.122-0.819h-13.302v10.174h13.126C193.5479,146.9573,195.3029,146.9272,196.7879,146.0103z"/>
<polygon class="st0" points="262.4149,250.8392 298.4819,250.8392 298.4819,241.3392 273.1729,241.2943 273.1729,232.1832 
	297.8649,232.1832 297.8649,222.8403 273.1729,222.8403 273.1729,214.5153 298.4819,214.5153 298.4819,205.0403 262.4149,205.0403 
	"/>
<path class="st0" d="M327.4129,223.0052l-5.822-0.168c-1.841,0-3.061-0.116-4.206-0.513c-1.355-0.513-2.365-1.688-2.365-3.413
	c0-1.459,0.445-2.555,1.624-3.3c1.089-0.748,2.369-0.823,4.333-0.823h19.824v-9.7469h-21.669c-11.327,0-15.45,6.989-15.45,13.631
	c0,14.492,12.658,13.834,22.765,14.178c1.883,0,3.016,0.311,3.847,1.014c0.745,0.637,1.321,1.699,1.321,3.035
	c0,1.242-0.539,2.275-1.276,2.978c-0.913,0.868-2.365,1.137-4.415,1.137h-20.969v9.822h21.047c10.904,0,16.977-4.603,16.98-14.458
	c0-4.711-1.122-7.495-3.229-9.695C337.3059,224.1762,333.2759,223.1432,327.4129,223.0052z"/>
<path class="st0" d="M256.4279,217.3682c0-5.227-2.144-8.082-5.557-10.166c-3.551-1.92-7.533-2.163-13.003-2.163h-24.95v45.792
	h10.855v-16.729h11.551c3.948,0,6.346,0.397,7.929,2.036c2.009,2.133,1.751,6.211,1.751,8.965v5.729h10.844v-9.078
	c-0.045-4.041-0.265-6.125-1.792-8.359c-0.921-1.335-2.893-2.944-5.287-3.844
	C251.6119,228.4102,256.4279,224.6763,256.4279,217.3682z M242.2319,223.8542c-1.444,0.868-3.233,0.943-5.332,0.943h-13.134v-10.282
	h13.306c1.927,0,3.854,0.041,5.16,0.827c1.407,0.737,2.241,2.155,2.241,4.119
	C244.4729,221.4182,243.6348,222.9973,242.2319,223.8542z"/>
<path class="st0" d="M189.6298,205.0402h-34.533l-13.747,15.008l-13.294-15.008h-43.468v45.792h42.809l13.826-15.162l13.309,15.162
	h21.003v-15.36h13.485c9.444,0,18.817-2.623,18.817-15.349C207.8369,207.4462,198.2019,205.0402,189.6298,205.0402z
	 M121.9229,241.2913h-26.574v-9.111h23.727v-9.343h-23.727v-8.322h27.098l11.824,13.343L121.9229,241.2913z M164.7778,246.6713
	l-16.595-18.656l16.595-18.054V246.6713z M189.5029,226.1743h-13.964v-11.659h14.095c3.895,0,6.608,1.605,6.608,5.612
	C196.2419,224.0972,193.6559,226.1743,189.5029,226.1743z"/>
<path class="st0" d="M382.5717,227.4415c0.098,0.1246,0.1944,0.2471,0.2912,0.3738
	C382.7643,227.6904,382.6687,227.5656,382.5717,227.4415z"/>
<path class="st0" d="M358.7919,215.6122c1.104-0.748,2.413-0.827,4.374-0.827h19.281v-9.744h-21.115
	c-11.345,0-15.506,6.989-15.506,13.631c0,14.492,12.658,13.834,22.806,14.178c1.886,0,3.027,0.311,3.809,1.014
	c0.797,0.637,1.321,1.699,1.321,3.035c0,1.242-0.524,2.275-1.276,2.978c-0.868,0.868-2.313,1.137-4.378,1.137h-20.785v9.822h20.872
	c5.99,0,10.582-1.508,13.429-4.423c2.387-2.66,3.8651-6.181,3.866-10.063c0-3.3787-1.1218-6.4891-2.9854-8.9931
	c-0.1862-0.233-0.3862-0.4611-0.6516-0.6719c-2.398-2.511-6.346-3.54-12.258-3.686l-5.856-0.161c-1.796,0-3.016-0.116-4.161-0.52
	c-1.403-0.513-2.365-1.681-2.365-3.413C357.2129,217.4532,357.6509,216.3533,358.7919,215.6122z"/>
<polygon class="st2" points="164.7778,246.6713 164.7778,209.9612 148.1829,228.0153 "/>
<polygon class="st2" points="95.3489,214.5153 95.3489,222.8373 119.0759,222.8373 119.0759,232.1802 95.3489,232.1802 
	95.3489,241.2913 121.9229,241.2913 134.2709,227.8582 122.4469,214.5153 "/>
<path class="st2" d="M382.4929,227.3403c0.0041,0.0055,0.0075,0.0114,0.0116,0.0169c0.0224,0.0281,0.0452,0.056,0.0672,0.0843
	C382.5452,227.4077,382.5199,227.3746,382.4929,227.3403z"/>
<path class="st2" d="M362.8589,195.9373c-6.035,0-10.425,1.463-13.526,3.7339v-3.7339h-29.582c-4.73,0-10.286,1.182-12.905,3.7339
	v-3.7339h-52.835v3.7339c-4.202-3.068-11.3-3.7339-14.57-3.7339h-34.847v3.7339c-3.326-3.259-10.72-3.7339-15.229-3.7339h-38.997
	l-8.924,9.777l-8.3589-9.777h-58.255v63.887h57.155l9.197-9.931l8.658,9.931l35.236,0.037v-15.034h3.461
	c4.673,0.075,10.185-0.116,15.049-2.245v17.238h29.062v-16.655h1.407c1.789,0,1.961,0.079,1.961,1.886v14.769h88.276
	c5.609,0,11.469-1.456,14.716-4.086v4.086h27.996c5.83,0,11.521-0.827,15.85-2.945v-0.067c1.835-1.1836,3.4843-2.632,4.9114-4.2818
	v-56.5892h-5.3224H362.8589z M189.0199,235.4722h-13.485v15.36h-21.003l-13.309-15.162l-13.826,15.162h-42.809v-45.792h43.468
	l13.294,15.008l13.747-15.008h34.533c8.572,0,18.207,2.406,18.207,15.083C207.8369,232.8492,198.4639,235.4722,189.0199,235.4722z
	 M254.0559,233.3953c1.527,2.234,1.747,4.318,1.792,8.359v9.078h-10.844v-5.729c0-2.754,0.258-6.832-1.751-8.965
	c-1.583-1.639-3.981-2.036-7.929-2.036h-11.551v16.729h-10.855v-45.792h24.95c5.47,0,9.452,0.243,13.003,2.163
	c3.413,2.084,5.557,4.939,5.557,10.166c0,7.308-4.816,11.042-7.659,12.183C251.1629,230.4512,253.1349,232.0602,254.0559,233.3953z
	 M298.4819,214.5153h-25.309v8.325h24.692v9.343h-24.692v9.111l25.309,0.045v9.5h-36.067v-45.799h36.067V214.5153z
	 M326.0019,250.8362h-21.047v-9.822h20.969c2.05,0,3.502-0.269,4.415-1.137c0.737-0.703,1.276-1.736,1.276-2.978
	c0-1.336-0.576-2.398-1.321-3.035c-0.831-0.703-1.964-1.014-3.847-1.014c-10.107-0.344-22.765,0.314-22.765-14.178
	c0-6.642,4.123-13.631,15.45-13.631h21.669v9.7469h-19.824c-1.964,0-3.244,0.075-4.333,0.823c-1.179,0.745-1.624,1.841-1.624,3.3
	c0,1.725,1.01,2.9,2.365,3.413c1.145,0.397,2.365,0.513,4.206,0.513l5.822,0.168c5.863,0.138,9.893,1.171,12.34,3.678
	c2.107,2.2,3.229,4.984,3.229,9.695C342.9789,246.2332,336.9059,250.8362,326.0019,250.8362z M359.5779,222.3182
	c1.145,0.404,2.365,0.52,4.161,0.52l5.856,0.161c5.912,0.146,9.86,1.175,12.258,3.686c0.2654,0.2109,0.4654,0.439,0.6516,0.6719
	c-0.0041-0.0055-0.0075-0.0114-0.0116-0.0169c0.027,0.0343,0.0523,0.0674,0.0788,0.1012c0.097,0.1241,0.1926,0.2489,0.2912,0.3738
	c-0.0968-0.1267-0.1932-0.2492-0.2912-0.3738c-0.022-0.0283-0.0448-0.0562-0.0672-0.0843c1.8636,2.504,2.9854,5.6144,2.9854,8.9931
	c-0.001,3.882-1.479,7.403-3.866,10.063c-2.847,2.915-7.439,4.423-13.429,4.423h-20.872v-9.822h20.785
	c2.065,0,3.51-0.269,4.378-1.137c0.752-0.703,1.276-1.736,1.276-2.978c0-1.336-0.524-2.398-1.321-3.035
	c-0.782-0.703-1.923-1.014-3.809-1.014c-10.148-0.344-22.806,0.314-22.806-14.178c0-6.642,4.161-13.631,15.506-13.631h21.115v9.744
	h-19.281c-1.961,0-3.27,0.079-4.374,0.827c-1.141,0.741-1.579,1.841-1.579,3.293
	C357.2129,220.6373,358.1749,221.8052,359.5779,222.3182z"/>
<path class="st2" d="M189.6339,214.5153h-14.095v11.659h13.964c4.153,0,6.739-2.077,6.739-6.047
	C196.2419,216.1202,193.5289,214.5153,189.6339,214.5153z"/>
<path class="st2" d="M242.2319,215.3422c-1.306-0.786-3.233-0.827-5.16-0.827h-13.306v10.282h13.134
	c2.099,0,3.888-0.075,5.332-0.943c1.403-0.857,2.241-2.436,2.241-4.393C244.4729,217.4973,243.6389,216.0792,242.2319,215.3422z"/>
</svg>
