<svg xmlns="http://www.w3.org/2000/svg" width="273.598" height="131.18" viewBox="0 0 273.598 131.18">
  <g id="Group_36" data-name="Group 36" transform="translate(-89.052 -4895.254)">
    <g id="Group_35" data-name="Group 35" transform="translate(185.892 4895.254)">
      <path id="Path_57" data-name="Path 57" d="M691.115,93.532a40.523,40.523,0,0,0-3.208-15.882c-.149-.353-.3-.7-.461-1.049v8.306a38.11,38.11,0,0,1-4,27.48H651.657V92.849L670.373,65.38h13.065v44.21a36.255,36.255,0,0,0,2.69-7.574V62.69H614.494v39.326a36.433,36.433,0,0,0,2.69,7.574V65.38h13.1l18.683,27.829v19.178H617.181a38.292,38.292,0,0,1-4-27.48V76.6q-.238.519-.461,1.049a40.794,40.794,0,0,0,2.849,37.288v.14h.086a40.838,40.838,0,0,0,69.32,0h.086v-.14a40.712,40.712,0,0,0,6.058-21.406Zm-39.458-5.461V65.38h15.461ZM633.525,65.38h15.442v23Zm-14.658,49.7h25.818l-16.641,9.39a38.577,38.577,0,0,1-9.177-9.39Zm11.694,11.06,18.4-10.384V131.62a37.979,37.979,0,0,1-18.4-5.483Zm34.585,2.512a37.814,37.814,0,0,1-13.489,2.971V115.872l18.665,10.106A38.006,38.006,0,0,1,665.146,128.649Zm12.115-8.168a38.474,38.474,0,0,1-4.422,3.8l-17-9.2h25.914A38.224,38.224,0,0,1,677.26,120.481Z" transform="translate(-609.51 -52.73)" fill="#3e4146"/>
      <path id="Path_58" data-name="Path 58" d="M955.289,400.292v12.083H940.161a41.525,41.525,0,0,1-7.451,2.69h25.27v-18.6A42.714,42.714,0,0,1,955.289,400.292Z" transform="translate(-881.36 -333.47)" fill="#3e4146"/>
      <path id="Path_59" data-name="Path 59" d="M658.7,412.383H643.57V400.3a41.707,41.707,0,0,1-2.69-3.831v18.6h25.27A41.513,41.513,0,0,1,658.7,412.383Z" transform="translate(-635.896 -333.479)" fill="#3e4146"/>
      <path id="Path_60" data-name="Path 60" d="M667.105,88.33q-.52.6-1.015,1.211V94.1a38.217,38.217,0,0,1,4.682-5.764h-3.667Z" transform="translate(-657.101 -74.296)" fill="#3e4146"/>
      <path id="Path_61" data-name="Path 61" d="M712.3,8.711a38.09,38.09,0,0,1,41.147,0h4.633a40.775,40.775,0,0,0-50.412,0Z" transform="translate(-692.074 0)" fill="#3e4146"/>
      <path id="Path_62" data-name="Path 62" d="M1041.734,89.541c-.33-.41-.669-.812-1.016-1.211h-3.668a38.2,38.2,0,0,1,4.682,5.764V89.541Z" transform="translate(-969.122 -74.296)" fill="#3e4146"/>
    </g>
    <path id="Path_63" data-name="Path 63" d="M17.55,678.26a.888.888,0,0,1,.532.171.68.68,0,0,1,.27.513v1.57a.787.787,0,0,1-.2.537.757.757,0,0,1-.605.226h-6.8v19.344a.71.71,0,0,1-.753.715H8.341a.763.763,0,0,1-.523-.2.654.654,0,0,1-.229-.513V681.274H.753a.791.791,0,0,1-.54-.186A.725.725,0,0,1,0,680.513v-1.57a.63.63,0,0,1,.213-.5.788.788,0,0,1,.54-.186Z" transform="translate(89.052 4324.756)" fill="#3e4146"/>
    <path id="Path_64" data-name="Path 64" d="M137.066,676.31a12.97,12.97,0,0,1,3.313.419,12.573,12.573,0,0,1,2.978,1.2,12.869,12.869,0,0,1,2.528,1.857,11.544,11.544,0,0,1,1.954,2.409,11.981,11.981,0,0,1,1.26,2.852,11.41,11.41,0,0,1,.008,6.316,11.3,11.3,0,0,1-1.26,2.828,12.138,12.138,0,0,1-1.954,2.393,12.3,12.3,0,0,1-2.528,1.849,12.861,12.861,0,0,1-2.993,1.188,13.451,13.451,0,0,1-6.665,0,12.534,12.534,0,0,1-5.5-3.054,11.914,11.914,0,0,1-1.946-2.393,11.509,11.509,0,0,1-1.252-2.828,11.487,11.487,0,0,1,0-6.309,11.376,11.376,0,0,1,1.26-2.836,12.241,12.241,0,0,1,4.482-4.266,13.145,13.145,0,0,1,2.985-1.2A12.813,12.813,0,0,1,137.066,676.31Zm-9.357,11.824a8.2,8.2,0,0,0,.335,2.355,8.836,8.836,0,0,0,2.4,3.908,9.175,9.175,0,0,0,1.889,1.382,9.8,9.8,0,0,0,2.224.893,9.476,9.476,0,0,0,2.479.318,9.659,9.659,0,0,0,4.693-1.211,9.3,9.3,0,0,0,1.881-1.382,8.836,8.836,0,0,0,2.4-3.908,8.425,8.425,0,0,0-.4-5.8,9.018,9.018,0,0,0-2-2.8,9.517,9.517,0,0,0-2.952-1.9,9.408,9.408,0,0,0-3.623-.7,9.571,9.571,0,0,0-2.479.318,9.865,9.865,0,0,0-2.224.893,9.168,9.168,0,0,0-1.889,1.382,8.934,8.934,0,0,0-1.455,1.787,8.692,8.692,0,0,0-.941,2.113A8.279,8.279,0,0,0,127.709,688.134Z" transform="translate(-15.726 4326.396)" fill="#3e4146"/>
    <path id="Path_65" data-name="Path 65" d="M316.086,700.341q-.36,0-.639-.575l-7.18-16.5-1.913,17.388q0,.684-.72.683h-1.7q-.753,0-.753-.683l2.585-21.708a.593.593,0,0,1,.245-.5.873.873,0,0,1,.54-.186h2.518a.729.729,0,0,1,.72.575l7.1,16.487,7.164-16.487a.833.833,0,0,1,.262-.427.623.623,0,0,1,.408-.148h2.6a.692.692,0,0,1,.532.2.683.683,0,0,1,.187.482l2.585,21.708q0,.684-.72.683h-1.7q-.753,0-.753-.683l-1.913-17.388-7.213,16.5q-.279.575-.655.575h-1.587Z" transform="translate(-165.958 4324.756)" fill="#3e4146"/>
    <path id="Path_66" data-name="Path 66" d="M571.4,700.341q-.36,0-.639-.575l-7.18-16.5-1.913,17.388q0,.684-.72.683h-1.7q-.753,0-.753-.683l2.585-21.708a.593.593,0,0,1,.245-.5.873.873,0,0,1,.54-.186h2.518a.729.729,0,0,1,.72.575l7.1,16.487,7.164-16.487a.834.834,0,0,1,.262-.427.624.624,0,0,1,.408-.148h2.6a.692.692,0,0,1,.532.2.683.683,0,0,1,.187.482l2.585,21.708q0,.684-.72.683h-1.7q-.753,0-.753-.683l-1.913-17.388-7.213,16.5q-.279.575-.655.575H571.4Z" transform="translate(-380.704 4324.756)" fill="#3e4146"/>
    <path id="Path_67" data-name="Path 67" d="M764.126,676.31a12.969,12.969,0,0,1,3.312.419,12.575,12.575,0,0,1,2.978,1.2,12.881,12.881,0,0,1,2.528,1.857,11.542,11.542,0,0,1,1.954,2.409,11.988,11.988,0,0,1,1.26,2.852,11.407,11.407,0,0,1,.008,6.316,11.287,11.287,0,0,1-1.26,2.828,12.136,12.136,0,0,1-1.954,2.393,12.3,12.3,0,0,1-2.528,1.849,12.86,12.86,0,0,1-2.994,1.188,13.45,13.45,0,0,1-6.665,0,12.535,12.535,0,0,1-5.5-3.054,11.9,11.9,0,0,1-1.946-2.393,11.5,11.5,0,0,1-1.252-2.828,11.488,11.488,0,0,1,0-6.309,11.378,11.378,0,0,1,1.26-2.836,12.241,12.241,0,0,1,4.482-4.266,13.144,13.144,0,0,1,2.985-1.2A12.813,12.813,0,0,1,764.126,676.31Zm-9.357,11.824a8.2,8.2,0,0,0,.335,2.355,8.835,8.835,0,0,0,2.4,3.908,9.179,9.179,0,0,0,1.889,1.382,9.8,9.8,0,0,0,2.224.893,9.477,9.477,0,0,0,2.478.318,9.658,9.658,0,0,0,4.693-1.211,9.3,9.3,0,0,0,1.881-1.382,8.837,8.837,0,0,0,2.4-3.908,8.426,8.426,0,0,0-.4-5.8,9.015,9.015,0,0,0-2-2.8,9.52,9.52,0,0,0-2.952-1.9,9.408,9.408,0,0,0-3.623-.7,9.572,9.572,0,0,0-2.478.318,9.864,9.864,0,0,0-2.224.893,9.172,9.172,0,0,0-1.889,1.382,8.929,8.929,0,0,0-1.455,1.787,8.692,8.692,0,0,0-.941,2.113A8.276,8.276,0,0,0,754.77,688.134Z" transform="translate(-543.158 4326.396)" fill="#3e4146"/>
    <path id="Path_68" data-name="Path 68" d="M1220.552,678.943a.683.683,0,0,1,.187-.481.69.69,0,0,1,.532-.2h1.7a.8.8,0,0,1,.522.186.609.609,0,0,1,.229.5v21.708q0,.684-.753.683h-1.7q-.72,0-.719-.683V678.943Z" transform="translate(-937.575 4324.756)" fill="#3e4146"/>
    <path id="Path_69" data-name="Path 69" d="M1283.106,681.52q-.229-.141-.753-.543a10.084,10.084,0,0,0-1.284-.823,11.3,11.3,0,0,0-1.709-.753,6.122,6.122,0,0,0-2.045-.334,7.4,7.4,0,0,0-2.224.3,4.672,4.672,0,0,0-1.538.785,3.115,3.115,0,0,0-.891,1.1,2.909,2.909,0,0,0-.286,1.236,1.956,1.956,0,0,0,.605,1.46,5.305,5.305,0,0,0,1.6,1.026,16.95,16.95,0,0,0,2.266.785q1.268.35,2.585.739t2.585.871a9.912,9.912,0,0,1,2.266,1.2,5.813,5.813,0,0,1,1.6,1.71,4.55,4.55,0,0,1,.6,2.409,6.156,6.156,0,0,1-.712,2.96,6.964,6.964,0,0,1-1.946,2.269,9.174,9.174,0,0,1-2.9,1.452,12.14,12.14,0,0,1-3.583.513,12.012,12.012,0,0,1-4.932-1.065,11.412,11.412,0,0,1-2.151-1.266,9.993,9.993,0,0,1-1.783-1.71.737.737,0,0,1-.205-.5.629.629,0,0,1,.286-.465l1.292-1.026a.77.77,0,0,1,.54-.194.711.711,0,0,1,.475.272l.213.2a7.5,7.5,0,0,0,1.562,1.266,11.381,11.381,0,0,0,1.751.885,10.372,10.372,0,0,0,1.676.521,6.657,6.657,0,0,0,1.357.172,8.854,8.854,0,0,0,2.045-.248,6.821,6.821,0,0,0,1.913-.761,4.568,4.568,0,0,0,1.423-1.3,3.1,3.1,0,0,0,.556-1.841,2.17,2.17,0,0,0-.548-1.5,4.8,4.8,0,0,0-1.481-1.073,13.6,13.6,0,0,0-2.183-.823q-1.251-.365-2.674-.769a27.234,27.234,0,0,1-3.369-1.142,10.019,10.019,0,0,1-2.316-1.32,4.355,4.355,0,0,1-1.758-3.629,5.611,5.611,0,0,1,.6-2.587,6.02,6.02,0,0,1,1.692-2.027,8.14,8.14,0,0,1,2.642-1.328,11.772,11.772,0,0,1,3.459-.474,9.857,9.857,0,0,1,2.143.248,12.715,12.715,0,0,1,2.167.691,11.928,11.928,0,0,1,1.979,1.057,8.352,8.352,0,0,1,1.6,1.36.729.729,0,0,1,.236.489.633.633,0,0,1-.254.489l-1.161,1.057a.729.729,0,0,1-.533.218A.818.818,0,0,1,1283.106,681.52Z" transform="translate(-977.72 4326.53)" fill="#3e4146"/>
    <path id="Path_70" data-name="Path 70" d="M1418.476,676.31a12.968,12.968,0,0,1,3.313.419,12.577,12.577,0,0,1,2.978,1.2,12.869,12.869,0,0,1,2.527,1.857,11.538,11.538,0,0,1,1.955,2.409,12.012,12.012,0,0,1,1.26,2.852,11.414,11.414,0,0,1,.007,6.316,11.284,11.284,0,0,1-1.26,2.828,12.15,12.15,0,0,1-1.954,2.393,12.288,12.288,0,0,1-2.528,1.849,12.854,12.854,0,0,1-2.993,1.188,13.45,13.45,0,0,1-6.665,0,12.531,12.531,0,0,1-5.5-3.054,11.9,11.9,0,0,1-1.946-2.393,11.482,11.482,0,0,1-1.252-2.828,11.369,11.369,0,0,1,1.26-9.145,12.241,12.241,0,0,1,4.482-4.266,13.137,13.137,0,0,1,2.985-1.2A12.806,12.806,0,0,1,1418.476,676.31Zm-9.357,11.824a8.194,8.194,0,0,0,.335,2.355,8.83,8.83,0,0,0,2.4,3.908,9.17,9.17,0,0,0,1.889,1.382,9.8,9.8,0,0,0,2.224.893,9.477,9.477,0,0,0,2.479.318,9.659,9.659,0,0,0,4.693-1.211,9.313,9.313,0,0,0,1.881-1.382,8.829,8.829,0,0,0,2.4-3.908,8.423,8.423,0,0,0-.4-5.8,9.015,9.015,0,0,0-2-2.8,9.523,9.523,0,0,0-2.952-1.9,9.407,9.407,0,0,0-3.622-.7,9.571,9.571,0,0,0-2.479.318,9.86,9.86,0,0,0-2.224.893,9.163,9.163,0,0,0-1.889,1.382,8.924,8.924,0,0,0-1.456,1.787,8.7,8.7,0,0,0-.94,2.113A8.22,8.22,0,0,0,1409.12,688.134Z" transform="translate(-1093.544 4326.396)" fill="#3e4146"/>
    <path id="Path_71" data-name="Path 71" d="M1609.815,701.336a.768.768,0,0,1-.621-.341l-14.278-18.181v17.839q0,.684-.753.683h-1.652q-.72,0-.72-.683V678.975a.705.705,0,0,1,.2-.513.693.693,0,0,1,.523-.2h2.191a.824.824,0,0,1,.686.341l13.92,17.574v-17.34a.643.643,0,0,1,.719-.575h1.653a.908.908,0,0,1,.548.186.59.59,0,0,1,.254.5v21.708q0,.684-.8.683h-1.865Z" transform="translate(-1249.832 4324.756)" fill="#3e4146"/>
    <path id="Path_72" data-name="Path 72" d="M952.86,691.118a7.378,7.378,0,0,0,1.374-1.53,7.3,7.3,0,0,0,.891-1.857,6.845,6.845,0,0,0,.319-2.089,6.967,6.967,0,0,0-.6-2.866,7.374,7.374,0,0,0-1.645-2.347,7.876,7.876,0,0,0-5.5-2.169H938.27q-.72,0-.72.745v21.646q0,.684.72.683h1.7q.753,0,.753-.683V681.228h6.984a4.551,4.551,0,0,1,1.824.365,4.725,4.725,0,0,1,1.455.971,4.535,4.535,0,0,1,.964,1.4,4.01,4.01,0,0,1,.351,1.648,4.136,4.136,0,0,1-.343,1.662,4.491,4.491,0,0,1-.948,1.4,4.566,4.566,0,0,1-3.238,1.32h-4.66v2.968h3.5c.316,0,.569,0,.761-.008s.338-.008.442-.008a2.3,2.3,0,0,0,.286-.016l3.926,7.831a.862.862,0,0,0,.785.575h1.98q.605,0,.6-.481v-.2l-4.318-8.406A7.723,7.723,0,0,0,952.86,691.118Z" transform="translate(-699.539 4324.756)" fill="#3e4146"/>
    <path id="Path_73" data-name="Path 73" d="M1094.42,691.118a7.371,7.371,0,0,0,1.375-1.53,7.283,7.283,0,0,0,.891-1.857,6.853,6.853,0,0,0,.319-2.089,6.969,6.969,0,0,0-.6-2.866,7.381,7.381,0,0,0-1.644-2.347,7.877,7.877,0,0,0-5.5-2.169h-9.437a.647.647,0,0,0-.72.745v21.646q0,.684.72.683h1.7q.753,0,.753-.683V681.228h6.984a4.549,4.549,0,0,1,1.824.365,4.727,4.727,0,0,1,1.455.971,4.527,4.527,0,0,1,.965,1.4,4.013,4.013,0,0,1,.351,1.648,4.133,4.133,0,0,1-.343,1.662,4.487,4.487,0,0,1-.948,1.4,4.566,4.566,0,0,1-3.238,1.32h-4.643v2.968h3.481c.316,0,.569,0,.761-.008s.339-.008.442-.008a2.3,2.3,0,0,0,.286-.016l3.926,7.831a.862.862,0,0,0,.785.575h1.979q.605,0,.605-.481v-.2l-4.319-8.406A7.724,7.724,0,0,0,1094.42,691.118Z" transform="translate(-818.607 4324.756)" fill="#3e4146"/>
  </g>
</svg>
