<svg id="icon-bottom3" xmlns="http://www.w3.org/2000/svg" width="50" height="50" viewBox="0 0 50 50">
  <path id="Path_238" data-name="Path 238" d="M25,0A25,25,0,1,0,50,25,25,25,0,0,0,25,0Z" transform="translate(0 0)" fill="#d82737"/>
  <path id="Path_239" data-name="Path 239" d="M89.672,93.193H88.436V80.028a1.387,1.387,0,0,0-1.4-1.4H81.4a1.387,1.387,0,0,0-1.4,1.4v2.9a1.387,1.387,0,0,0,1.4,1.4h1.128v8.92H81.4a1.387,1.387,0,0,0-1.4,1.4v2.9a1.387,1.387,0,0,0,1.4,1.4h8.275a1.387,1.387,0,0,0,1.4-1.4v-2.9a1.434,1.434,0,0,0-1.4-1.451Z" transform="translate(-60.288 -59.641)" fill="#fff"/>
  <ellipse id="Ellipse_35" data-name="Ellipse 35" cx="3.556" cy="3.556" rx="3.556" ry="3.556" transform="translate(21.115 9.99)" fill="#fff"/>
</svg>
