<?xml version="1.0" standalone="no"?>
<!DOCTYPE svg PUBLIC "-//W3C//DTD SVG 20010904//EN"
 "http://www.w3.org/TR/2001/REC-SVG-20010904/DTD/svg10.dtd">
<svg version="1.0" xmlns="http://www.w3.org/2000/svg"
 width="521.000000pt" height="521.000000pt" viewBox="0 0 521.000000 521.000000"
 preserveAspectRatio="xMidYMid meet">
<metadata>
Created by potrace 1.11, written by Peter Selinger 2001-2013
</metadata>
<g transform="translate(0.000000,521.000000) scale(0.100000,-0.100000)"
fill="#000000" stroke="none">
<path d="M2485 5203 c-509 -25 -967 -179 -1381 -465 -127 -87 -128 -86 38 -86
l143 1 82 48 c192 113 467 224 653 265 237 51 320 59 585 58 222 -1 354 -16
547 -64 235 -59 457 -149 646 -263 l74 -44 144 -1 c79 0 144 1 144 4 0 8 -162
124 -242 172 -355 214 -758 343 -1153 367 -129 8 -217 11 -280 8z"/>
<path d="M325 4570 c-1 -3 -3 -561 -3 -1240 l0 -1235 34 -115 c40 -140 119
-340 133 -340 3 0 6 622 6 1382 l0 1383 400 0 c220 1 407 -1 415 -3 9 -2 20
-12 25 -23 6 -11 156 -236 334 -502 179 -265 437 -648 573 -851 l248 -370 0
-603 0 -603 -27 -1 c-36 0 -1944 0 -1960 0 -10 1 -86 147 -141 271 -72 164
-138 426 -168 660 -10 83 -12 375 -3 465 8 73 31 226 45 300 5 26 9 455 4 525
-1 20 -6 14 -26 -30 -41 -90 -121 -338 -143 -445 -48 -233 -56 -317 -56 -570
0 -224 7 -299 41 -480 8 -44 24 -114 35 -155 12 -41 22 -82 24 -90 8 -36 78
-225 109 -297 41 -92 121 -247 147 -285 11 -14 19 -29 19 -32 0 -10 142 -210
204 -286 80 -99 262 -279 367 -363 400 -322 902 -525 1394 -564 158 -12 462
-6 550 11 11 2 40 7 65 10 25 3 56 8 70 11 14 3 39 8 55 11 124 22 325 84 475
146 411 170 789 464 1062 825 264 351 440 780 494 1203 3 25 8 56 11 70 9 43
11 452 3 505 -4 28 -11 81 -14 119 -4 38 -9 72 -11 75 -1 3 -6 24 -9 46 -12
77 -55 241 -91 347 -44 132 -91 243 -97 232 -2 -5 -4 -124 -3 -264 2 -214 6
-274 24 -375 26 -143 36 -259 35 -415 0 -112 -9 -270 -18 -320 -3 -14 -7 -42
-10 -64 -23 -148 -104 -425 -163 -556 -78 -171 -117 -240 -137 -241 -30 0
-1926 -1 -1956 0 l-25 1 0 612 0 613 155 228 c85 125 252 369 370 542 118 173
249 364 290 425 41 61 140 206 220 323 l145 212 398 0 c220 0 403 -3 409 -6 6
-4 10 -488 10 -1388 0 -759 1 -1381 3 -1381 16 0 114 256 148 385 l23 90 -2
1225 c-1 674 -2 1230 -3 1235 -1 11 -4500 16 -4506 5z m2163 -885 l2 -719 -93
140 c-51 76 -267 399 -480 716 -213 317 -382 578 -377 580 6 2 220 3 477 3
l468 0 3 -720z m1142 717 c0 -3 -49 -75 -343 -507 -212 -310 -436 -639 -540
-793 -43 -62 -78 -109 -78 -105 -5 34 -3 1399 2 1403 8 5 959 7 959 2z m-1436
-3132 c2 -3 -225 -135 -506 -293 l-510 -288 -76 58 c-107 80 -345 320 -425
428 -37 49 -67 92 -67 95 0 7 1577 6 1584 0z m2350 0 c3 -3 -29 -51 -71 -105
-88 -115 -282 -313 -396 -403 l-78 -62 -87 46 c-137 73 -211 114 -294 161 -43
23 -79 43 -82 43 -2 0 -35 17 -73 38 -37 22 -113 63 -168 92 -55 29 -104 56
-110 60 -5 4 -59 33 -120 65 -60 31 -113 60 -117 64 -4 3 352 6 792 6 439 0
801 -2 804 -5z m-2054 -536 l0 -497 -87 6 c-191 13 -497 76 -618 127 -11 5
-51 21 -90 36 -65 24 -281 129 -326 157 -10 6 -19 15 -19 18 0 4 66 44 148 89
81 46 199 113 262 148 63 36 135 76 160 90 25 14 126 71 225 127 99 56 207
117 240 135 33 18 69 39 80 46 11 8 21 14 22 14 2 0 3 -223 3 -496z m269 440
c47 -26 165 -90 261 -142 96 -52 209 -113 250 -135 41 -22 185 -100 319 -173
l244 -132 -40 -25 c-71 -45 -256 -134 -358 -172 -242 -90 -432 -133 -680 -151
l-90 -6 0 491 c0 270 2 491 4 491 2 0 42 -21 90 -46z"/>
<path d="M610 4285 l-34 -35 -1 -145 c-1 -80 0 -145 1 -145 2 0 29 35 61 78
50 67 165 207 182 222 3 3 17 18 30 33 l24 27 -114 0 -115 0 -34 -35z"/>
<path d="M4290 4315 c0 -3 10 -16 23 -28 46 -45 146 -164 206 -246 33 -47 61
-78 62 -70 1 19 1 251 0 266 -1 7 -15 28 -32 48 l-31 35 -114 0 c-63 0 -114
-2 -114 -5z"/>
<path d="M324 652 l1 -587 787 0 c432 0 784 3 782 7 -3 5 -12 8 -19 8 -24 0
-252 79 -348 121 l-90 39 -471 0 -471 0 1 378 0 377 -26 35 c-15 19 -54 74
-87 122 l-61 88 2 -588z"/>
<path d="M4795 1182 c-16 -26 -53 -78 -81 -117 l-52 -70 -1 -330 c0 -181 0
-351 -1 -377 l0 -48 -478 0 c-266 0 -482 -4 -487 -9 -16 -15 -254 -106 -342
-131 -46 -13 -83 -26 -83 -30 0 -4 1522 -6 1555 -1 10 1 15 1161 5 1161 -3 -1
-18 -22 -35 -48z"/>
</g>
</svg>
