<svg id="icon-bottom4" xmlns="http://www.w3.org/2000/svg" width="50" height="50" viewBox="0 0 50 50">
  <path id="Path_227" data-name="Path 227" d="M25,0A25,25,0,1,0,50,25,25,25,0,0,0,25,0Z" transform="translate(0 0)" fill="#d82737"/>
  <path id="Path_228" data-name="Path 228" d="M71.271,55.6A10.13,10.13,0,0,0,60.99,65.545,11.832,11.832,0,0,0,63.5,72.777a4.261,4.261,0,0,1,1.024,2.105A4.3,4.3,0,0,0,66.44,78.3c.031.764.144,2.632.144,2.632v0c.02.53.3,1.617,2.126,2.224a3.076,3.076,0,0,0,.84.826,1.3,1.3,0,0,0,.726.223h1.991a1.286,1.286,0,0,0,.726-.223,3.056,3.056,0,0,0,.84-.826c1.843-.613,2.112-1.712,2.127-2.227,0,0,.112-1.864.143-2.629a4.3,4.3,0,0,0,1.92-3.416,4.27,4.27,0,0,1,1.03-2.113,11.817,11.817,0,0,0,2.5-7.226A10.129,10.129,0,0,0,71.271,55.6ZM76.9,71.313a6.268,6.268,0,0,0-1.476,3.569,1.931,1.931,0,0,1-.974,1.4H68.095a1.929,1.929,0,0,1-.974-1.4A6.3,6.3,0,0,0,65.636,71.3a9.313,9.313,0,0,1-2.046-5.754,7.69,7.69,0,0,1,15.365,0A9.326,9.326,0,0,1,76.9,71.313Z" transform="translate(-46.271 -42.596)" fill="#fff"/>
  <path id="Path_229" data-name="Path 229" d="M98.184,39.122a.649.649,0,0,0,.649-.65v-1.95a.65.65,0,0,0-1.3,0v1.95A.65.65,0,0,0,98.184,39.122Z" transform="translate(-73.184 -26.936)" fill="#fff"/>
  <path id="Path_230" data-name="Path 230" d="M70.828,45.976a.65.65,0,1,0,1.126-.65l-.975-1.689a.65.65,0,1,0-1.126.65Z" transform="translate(-52.367 -32.519)" fill="#fff"/>
  <path id="Path_231" data-name="Path 231" d="M52.1,64.7l-1.689-.974a.65.65,0,0,0-.65,1.126l1.689.974A.65.65,0,0,0,52.1,64.7Z" transform="translate(-37.121 -47.768)" fill="#fff"/>
  <path id="Path_232" data-name="Path 232" d="M45.25,92.056a.65.65,0,0,0-.65-.65H42.65a.65.65,0,1,0,0,1.3H44.6a.65.65,0,0,0,.65-.65Z" transform="translate(-31.537 -68.585)" fill="#fff"/>
  <path id="Path_233" data-name="Path 233" d="M51.453,115.561l-1.689.974a.65.65,0,1,0,.649,1.126l1.689-.974a.65.65,0,1,0-.649-1.126Z" transform="translate(-37.119 -86.676)" fill="#fff"/>
  <path id="Path_234" data-name="Path 234" d="M141.885,116.535l-1.689-.975a.65.65,0,0,0-.651,1.126l1.689.975a.65.65,0,1,0,.651-1.125Z" transform="translate(-104.529 -86.675)" fill="#fff"/>
  <path id="Path_235" data-name="Path 235" d="M148.274,91.406h-1.948a.65.65,0,0,0,0,1.3h1.95a.65.65,0,1,0,0-1.3Z" transform="translate(-109.386 -68.585)" fill="#fff"/>
  <path id="Path_236" data-name="Path 236" d="M139.871,65.916a.644.644,0,0,0,.324-.087l1.689-.974a.65.65,0,1,0-.649-1.126l-1.689.974a.65.65,0,0,0,.324,1.213Z" transform="translate(-104.529 -47.77)" fill="#fff"/>
  <path id="Path_237" data-name="Path 237" d="M121.929,46.215a.64.64,0,0,0,.324.088.65.65,0,0,0,.563-.325l.974-1.688a.65.65,0,0,0-1.126-.649l-.974,1.688A.65.65,0,0,0,121.929,46.215Z" transform="translate(-91.277 -32.522)" fill="#fff"/>
</svg>
