<svg xmlns="http://www.w3.org/2000/svg" width="236.46" height="36.52" viewBox="0 0 236.46 36.52">
  <path id="Path_2" data-name="Path 2" d="M-118.82-12.98h10.4v2.04h-4.02V0h-2.36V-10.94h-4.02Zm19.36-.26a6.379,6.379,0,0,1,2.38.43,5.058,5.058,0,0,1,1.86,1.27A7.123,7.123,0,0,1-93.58-6.5a7.305,7.305,0,0,1-1.64,5.1A5.529,5.529,0,0,1-99.48.28a5.439,5.439,0,0,1-4.24-1.72,7.2,7.2,0,0,1-1.64-5.06,7.185,7.185,0,0,1,1.64-5.08A5.524,5.524,0,0,1-99.46-13.24Zm3.44,6.78a5.563,5.563,0,0,0-.93-3.45,3,3,0,0,0-2.51-1.21,3.027,3.027,0,0,0-2.52,1.21,5.5,5.5,0,0,0-.94,3.44,5.412,5.412,0,0,0,.94,3.42,3.046,3.046,0,0,0,2.52,1.19,3.019,3.019,0,0,0,2.51-1.19A5.436,5.436,0,0,0-96.02-6.46Zm5.5-6.52h10.4v2.04h-4.02V0H-86.5V-10.94h-4.02Zm16.48,0h2.96L-66.82,0h-2.5l-.9-2.8h-4.82L-75.96,0h-2.5Zm-.4,8.4h3.64l-1.8-5.58Zm14.28,2.52h5.34V0h-7.7V-12.98h2.36Zm16.58-10.92h5.24A4.953,4.953,0,0,1-35-11.96a3.015,3.015,0,0,1,1.12,2.42,2.959,2.959,0,0,1-.61,1.88,3.247,3.247,0,0,1-1.71,1.1,3.311,3.311,0,0,1,1.82.99,2.769,2.769,0,0,1,.72,1.97A3.264,3.264,0,0,1-36.04-.32,6.9,6.9,0,0,1-38.32,0h-5.26Zm5.2,10.92a2.428,2.428,0,0,0,1.65-.46,1.563,1.563,0,0,0,.51-1.22,1.566,1.566,0,0,0-.53-1.23,2.4,2.4,0,0,0-1.63-.47h-2.84v3.38ZM-41.22-7.5h2.78a2.411,2.411,0,0,0,1.6-.46,1.556,1.556,0,0,0,.54-1.25,1.6,1.6,0,0,0-.53-1.26,2.335,2.335,0,0,0-1.59-.47h-2.8Zm17.58-5.74a6.379,6.379,0,0,1,2.38.43,5.058,5.058,0,0,1,1.86,1.27A7.123,7.123,0,0,1-17.76-6.5,7.305,7.305,0,0,1-19.4-1.4,5.529,5.529,0,0,1-23.66.28,5.439,5.439,0,0,1-27.9-1.44,7.2,7.2,0,0,1-29.54-6.5a7.185,7.185,0,0,1,1.64-5.08A5.524,5.524,0,0,1-23.64-13.24Zm3.44,6.78a5.563,5.563,0,0,0-.93-3.45,3,3,0,0,0-2.51-1.21,3.027,3.027,0,0,0-2.52,1.21,5.5,5.5,0,0,0-.94,3.44,5.412,5.412,0,0,0,.94,3.42,3.046,3.046,0,0,0,2.52,1.19,3.019,3.019,0,0,0,2.51-1.19A5.436,5.436,0,0,0-20.2-6.46Zm11.44-6.52a6.586,6.586,0,0,1,4.78,1.76A6.251,6.251,0,0,1-2.14-6.48,6.226,6.226,0,0,1-3.98-1.76,6.586,6.586,0,0,1-8.76,0h-4.22V-12.98ZM-10.6-2.14h1.84A3.859,3.859,0,0,0-5.78-3.38,4.458,4.458,0,0,0-4.7-6.48,4.515,4.515,0,0,0-5.78-9.62a3.851,3.851,0,0,0-2.98-1.22H-10.6ZM3.3-12.98,6.16-7.8l3-5.18h2.78L7.32-5.36V0H4.96V-5.36L.5-12.98ZM32.82-9a3.672,3.672,0,0,1-.78,2.36A4.064,4.064,0,0,1,29.8-5.28L33.28,0H30.2L27.34-5.06h-1.8V0H23.18V-12.98h4.8a5.323,5.323,0,0,1,3.58,1.1A3.566,3.566,0,0,1,32.82-9ZM27.76-6.64a2.858,2.858,0,0,0,1.96-.59,1.991,1.991,0,0,0,.66-1.56,2.09,2.09,0,0,0-.6-1.56,2.47,2.47,0,0,0-1.8-.59H25.54v4.3Zm10.28-6.34H46.4v2.04h-6v3.42h5.62v2.04H40.4v3.42h6V0H38.04ZM58.6-9.4q-.32-1.7-2.4-1.7a2.684,2.684,0,0,0-1.59.41,1.2,1.2,0,0,0-.57.99,1.157,1.157,0,0,0,.37.91,3.556,3.556,0,0,0,1.15.61l2.82,1.1A5.819,5.819,0,0,1,60.6-5.67a3.03,3.03,0,0,1,.78,2.13A3.352,3.352,0,0,1,60.06-.75,6,6,0,0,1,56.3.28,5.475,5.475,0,0,1,52.8-.78a4.116,4.116,0,0,1-1.58-3.28h2.34a1.935,1.935,0,0,0,1.66,2.02,5.049,5.049,0,0,0,1.32.14,2.955,2.955,0,0,0,1.52-.41,1.237,1.237,0,0,0,.7-1.1,1.412,1.412,0,0,0-.38-1.06,3.6,3.6,0,0,0-1.24-.69L54.56-6.18a6.763,6.763,0,0,1-2.3-1.36,2.878,2.878,0,0,1-.8-2.16,3.024,3.024,0,0,1,1.26-2.56,5.573,5.573,0,0,1,3.47-.98,5.077,5.077,0,0,1,3.38,1.01A4.067,4.067,0,0,1,60.94-9.4Zm7.92-3.58h8.36v2.04h-6v3.42H74.5v2.04H68.88v3.42h6V0H66.52Zm12,0h10.4v2.04H84.9V0H82.54V-10.94H78.52Zm21.44,0h2.36V0H99.96Zm14.9,3.58q-.32-1.7-2.4-1.7a2.684,2.684,0,0,0-1.59.41,1.2,1.2,0,0,0-.57.99,1.157,1.157,0,0,0,.37.91,3.556,3.556,0,0,0,1.15.61l2.82,1.1a5.819,5.819,0,0,1,2.22,1.41,3.03,3.03,0,0,1,.78,2.13,3.352,3.352,0,0,1-1.32,2.79A6,6,0,0,1,112.56.28a5.475,5.475,0,0,1-3.5-1.06,4.116,4.116,0,0,1-1.58-3.28h2.34a1.935,1.935,0,0,0,1.66,2.02,5.049,5.049,0,0,0,1.32.14,2.955,2.955,0,0,0,1.52-.41,1.237,1.237,0,0,0,.7-1.1,1.412,1.412,0,0,0-.38-1.06,3.6,3.6,0,0,0-1.24-.69l-2.58-1.02a6.763,6.763,0,0,1-2.3-1.36,2.878,2.878,0,0,1-.8-2.16,3.024,3.024,0,0,1,1.26-2.56,5.573,5.573,0,0,1,3.47-.98,5.077,5.077,0,0,1,3.38,1.01A4.067,4.067,0,0,1,117.2-9.4ZM-43.51,14a3.672,3.672,0,0,1-.78,2.36,4.064,4.064,0,0,1-2.24,1.36L-43.05,23h-3.08l-2.86-5.06h-1.8V23h-2.36V10.02h4.8a5.323,5.323,0,0,1,3.58,1.1A3.566,3.566,0,0,1-43.51,14Zm-5.06,2.36a2.858,2.858,0,0,0,1.96-.59,1.991,1.991,0,0,0,.66-1.56,2.09,2.09,0,0,0-.6-1.56,2.47,2.47,0,0,0-1.8-.59h-2.44v4.3Zm10.28-6.34h8.36v2.04h-6v3.42h5.62v2.04h-5.62v3.42h6V23h-8.36Zm12,0h10.4v2.04h-4.02V23h-2.36V12.06h-4.02Zm14.38,0h2.36V23h-2.36ZM5.81,14a3.672,3.672,0,0,1-.78,2.36,4.064,4.064,0,0,1-2.24,1.36L6.27,23H3.19L.33,17.94h-1.8V23H-3.83V10.02H.97a5.323,5.323,0,0,1,3.58,1.1A3.566,3.566,0,0,1,5.81,14ZM.75,16.36a2.858,2.858,0,0,0,1.96-.59,1.991,1.991,0,0,0,.66-1.56,2.09,2.09,0,0,0-.6-1.56,2.47,2.47,0,0,0-1.8-.59H-1.47v4.3Zm10.3-6.34h2.36V23H11.05Zm10.62,0,5.72,9.2v-9.2h2.36V23h-2.4l-5.9-9.52V23H19.09V10.02ZM43.43,20.94a3.18,3.18,0,0,1-3.22,2.34,5.066,5.066,0,0,1-4.02-1.84,7.172,7.172,0,0,1-1.64-4.86,7.021,7.021,0,0,1,1.76-5,5.724,5.724,0,0,1,4.38-1.82,5.534,5.534,0,0,1,3.05.79,5.186,5.186,0,0,1,1.93,2.49l-2.42.56a3.107,3.107,0,0,0-2.68-1.7,3,3,0,0,0-2.46,1.26,5.332,5.332,0,0,0-1.02,3.42,5.429,5.429,0,0,0,.92,3.28,3.01,3.01,0,0,0,4.5.42,3.108,3.108,0,0,0,.84-2.3V17.9l-2.92-.06V16.32h5.18V23H43.69ZM50.87,9.72h2.56l-.28,8.9H51.13Zm1.28,13.46a1.637,1.637,0,0,1-1.18-.44,1.483,1.483,0,0,1-.46-1.12,1.548,1.548,0,0,1,.46-1.14,1.6,1.6,0,0,1,1.18-.46,1.666,1.666,0,0,1,1.2.46,1.515,1.515,0,0,1,.48,1.14,1.453,1.453,0,0,1-.48,1.12A1.708,1.708,0,0,1,52.15,23.18Z" transform="translate(118.82 13.24)" fill="#fff"/>
</svg>
