<svg xmlns="http://www.w3.org/2000/svg" width="233.885" height="42.662" viewBox="0 0 233.885 42.662">
  <path id="Path_78" data-name="Path 78" d="M-110.272-4.443a2.956,2.956,0,0,0,.537,1.475,3.09,3.09,0,0,0,2.51.889,5.3,5.3,0,0,0,1.729-.234,1.67,1.67,0,0,0,1.26-1.67,1.232,1.232,0,0,0-.625-1.1,6.721,6.721,0,0,0-1.963-.674l-1.523-.342a9.627,9.627,0,0,1-3.105-1.1,3.51,3.51,0,0,1-1.455-3.115,4.16,4.16,0,0,1,1.406-3.213,5.946,5.946,0,0,1,4.131-1.279,6.281,6.281,0,0,1,3.882,1.206,4.306,4.306,0,0,1,1.685,3.5H-104.7a2.065,2.065,0,0,0-1.133-1.846,3.8,3.8,0,0,0-1.748-.361,3.264,3.264,0,0,0-1.855.469,1.493,1.493,0,0,0-.693,1.309,1.239,1.239,0,0,0,.684,1.152,8.368,8.368,0,0,0,1.875.6l2.48.6a6.413,6.413,0,0,1,2.461,1.045,3.519,3.519,0,0,1,1.289,2.939,4.148,4.148,0,0,1-1.509,3.276,6.321,6.321,0,0,1-4.263,1.3,6.914,6.914,0,0,1-4.424-1.284,4.267,4.267,0,0,1-1.611-3.53Zm23.621-9.951v2.549h-4.307V0h-3.027V-11.846h-4.326v-2.549Zm6.219,8.955h3.652l-1.8-5.664Zm.186-8.955h3.4L-71.751,0h-3.262l-.928-2.959h-5.3l-1,2.959h-3.145ZM-65-11.895v3.174h3.535a2.947,2.947,0,0,0,1.538-.356,1.355,1.355,0,0,0,.591-1.265,1.288,1.288,0,0,0-.781-1.328,5.529,5.529,0,0,0-1.719-.225Zm0,5.557V-2.5h3.535A3.47,3.47,0,0,0-60-2.754a1.808,1.808,0,0,0,.957-1.8,1.544,1.544,0,0,0-.928-1.543,3.717,3.717,0,0,0-1.455-.244Zm4.121-8.057a4.447,4.447,0,0,1,3.75,1.533,3.648,3.648,0,0,1,.664,2.2,3.213,3.213,0,0,1-.664,2.119,3.428,3.428,0,0,1-1.094.82,3.209,3.209,0,0,1,1.665,1.27A3.8,3.8,0,0,1-56-4.346a4.192,4.192,0,0,1-.645,2.295A3.978,3.978,0,0,1-57.671-.918,4,4,0,0,1-59.307-.2a10.083,10.083,0,0,1-2.046.2h-6.523V-14.395ZM-48.728,0h-2.988V-14.395h2.988Zm4.8-14.395h3.008V-2.588h7.129V0H-43.925ZM-26.954,0h-2.988V-14.395h2.988Zm15.262-14.395v2.549H-16V0h-3.027V-11.846h-4.326v-2.549Zm11.971,0H3.687L-1.128-5.41V0H-4.136V-5.41l-4.98-8.984h3.545l2.988,6.27Zm17.252,2.5v3.174h3.535A2.947,2.947,0,0,0,22.6-9.077a1.355,1.355,0,0,0,.591-1.265,1.288,1.288,0,0,0-.781-1.328,5.529,5.529,0,0,0-1.719-.225Zm0,5.557V-2.5h3.535a3.47,3.47,0,0,0,1.475-.254,1.808,1.808,0,0,0,.957-1.8,1.544,1.544,0,0,0-.928-1.543,3.717,3.717,0,0,0-1.455-.244Zm4.121-8.057a4.447,4.447,0,0,1,3.75,1.533,3.648,3.648,0,0,1,.664,2.2A3.213,3.213,0,0,1,25.4-8.545a3.428,3.428,0,0,1-1.094.82,3.209,3.209,0,0,1,1.665,1.27,3.8,3.8,0,0,1,.562,2.109,4.192,4.192,0,0,1-.645,2.295A3.978,3.978,0,0,1,24.864-.918,4,4,0,0,1,23.229-.2a10.083,10.083,0,0,1-2.046.2H14.659V-14.395Zm9.4,0H34.11v8.848a5,5,0,0,0,.352,2.168,2.333,2.333,0,0,0,2.383,1.211,2.324,2.324,0,0,0,2.373-1.211,5,5,0,0,0,.352-2.168v-8.848h3.057v8.848a7.411,7.411,0,0,1-.713,3.574Q40.585.371,36.845.371T31.767-1.973a7.411,7.411,0,0,1-.713-3.574ZM50.251,0H47.263V-14.395h2.988Zm4.8-14.395h3.008V-2.588H65.19V0H55.054Zm17.137,2.5V-2.5h2.773a3,3,0,0,0,2.969-2.1,7.405,7.405,0,0,0,.459-2.744,6.756,6.756,0,0,0-.688-3.374,2.906,2.906,0,0,0-2.739-1.177Zm3.281-2.5a7.566,7.566,0,0,1,2.227.313,4.752,4.752,0,0,1,2.451,1.826,6.406,6.406,0,0,1,1.025,2.324,11.158,11.158,0,0,1,.273,2.383A9.568,9.568,0,0,1,80.3-2.686,5.2,5.2,0,0,1,75.472,0h-6.2V-14.395Zm20.887,2.549H88.741v3.057h6.992v2.5H88.741v3.7H96.71V0H85.8V-14.395H96.358Zm7.7-.049v3.867h3.408a3.8,3.8,0,0,0,1.523-.234,1.6,1.6,0,0,0,.9-1.621,1.789,1.789,0,0,0-.869-1.758,3.285,3.285,0,0,0-1.465-.254Zm4.121-2.5a6.578,6.578,0,0,1,2.329.371,3.639,3.639,0,0,1,1.382,1.006,4.457,4.457,0,0,1,.742,1.211,3.947,3.947,0,0,1,.273,1.514,4.313,4.313,0,0,1-.518,2.017,2.893,2.893,0,0,1-1.709,1.4,2.688,2.688,0,0,1,1.411,1.138,4.736,4.736,0,0,1,.415,2.251v.967a7.4,7.4,0,0,0,.078,1.338,1.2,1.2,0,0,0,.547.82V0h-3.311q-.137-.479-.2-.771a7.088,7.088,0,0,1-.127-1.24l-.02-1.338a2.614,2.614,0,0,0-.5-1.836,2.668,2.668,0,0,0-1.812-.459h-3.105V0h-2.939V-14.395ZM-116.967,9.469h4.9V11.5h-2.266V25.807h2.266v2.041h-4.9Zm17.039,4.717a1.948,1.948,0,0,0-.591-1.6,2.564,2.564,0,0,0-1.655-.479h-2.8v4.238h2.8a2.43,2.43,0,0,0,1.655-.518A2.073,2.073,0,0,0-99.928,14.186Zm2.979-.02a4.418,4.418,0,0,1-1.289,3.6,5.677,5.677,0,0,1-3.682,1.055h-3.057V24h-2.988V9.605h6.27a5.107,5.107,0,0,1,3.457,1.113A4.314,4.314,0,0,1-96.949,14.166Zm7.264-2.061v3.867h3.408a3.8,3.8,0,0,0,1.523-.234,1.6,1.6,0,0,0,.9-1.621,1.789,1.789,0,0,0-.869-1.758,3.285,3.285,0,0,0-1.465-.254Zm4.121-2.5a6.578,6.578,0,0,1,2.329.371,3.639,3.639,0,0,1,1.382,1.006,4.457,4.457,0,0,1,.742,1.211,3.947,3.947,0,0,1,.273,1.514,4.313,4.313,0,0,1-.518,2.017,2.893,2.893,0,0,1-1.709,1.4,2.688,2.688,0,0,1,1.411,1.138,4.736,4.736,0,0,1,.415,2.251v.967a7.4,7.4,0,0,0,.078,1.338,1.2,1.2,0,0,0,.547.82V24h-3.311q-.137-.479-.2-.771a7.088,7.088,0,0,1-.127-1.24l-.02-1.338a2.614,2.614,0,0,0-.5-1.836,2.668,2.668,0,0,0-1.812-.459h-3.105V24h-2.939V9.605Zm19.959,2.549h-7.617v3.057h6.992v2.5h-6.992v3.7h7.969V24H-76.162V9.605h10.557Zm3.631,4.951h5.605v2.637h-5.605Zm9.725-7.5h3.008V21.412h7.129V24H-52.25ZM-34.1,18.561h3.652l-1.8-5.664Zm.186-8.955h3.4L-25.416,24h-3.262l-.928-2.959h-5.3L-35.9,24h-3.145Zm12.322,0h3.057v8.848a5,5,0,0,0,.352,2.168A2.333,2.333,0,0,0-15.8,21.832a2.324,2.324,0,0,0,2.373-1.211,5,5,0,0,0,.352-2.168V9.605h3.057v8.848a7.411,7.411,0,0,1-.713,3.574q-1.328,2.344-5.068,2.344t-5.078-2.344a7.411,7.411,0,0,1-.713-3.574Zm16.395,0h3.154L3.691,19.654V9.605h2.8V24H3.486L-2.393,13.775V24H-5.2ZM10.672,16.92a7.905,7.905,0,0,1,2.021-5.811,6.024,6.024,0,0,1,4.473-1.777,6.048,6.048,0,0,1,5.313,2.383,5.159,5.159,0,0,1,1,2.686H20.467a4.063,4.063,0,0,0-.752-1.562,3.059,3.059,0,0,0-2.432-.937A3.014,3.014,0,0,0,14.7,13.224a6.361,6.361,0,0,0-.947,3.745,5.583,5.583,0,0,0,1,3.628A3.163,3.163,0,0,0,17.293,21.8a2.91,2.91,0,0,0,2.412-1.035,4.5,4.5,0,0,0,.762-1.67h2.979a6.461,6.461,0,0,1-2,3.828A5.85,5.85,0,0,1,17.332,24.4a6.209,6.209,0,0,1-4.883-1.992A7.974,7.974,0,0,1,10.672,16.92ZM27.721,24V9.605H30.7v5.488h5.625V9.605h2.988V24H36.324V17.574H30.7V24Zm26.2-4.443a2.956,2.956,0,0,0,.537,1.475,3.09,3.09,0,0,0,2.51.889,5.3,5.3,0,0,0,1.729-.234,1.67,1.67,0,0,0,1.26-1.67,1.232,1.232,0,0,0-.625-1.1,6.721,6.721,0,0,0-1.963-.674L55.842,17.9a9.627,9.627,0,0,1-3.105-1.1,3.51,3.51,0,0,1-1.455-3.115,4.16,4.16,0,0,1,1.406-3.213,5.946,5.946,0,0,1,4.131-1.279A6.281,6.281,0,0,1,60.7,10.392a4.306,4.306,0,0,1,1.685,3.5H59.494a2.065,2.065,0,0,0-1.133-1.846,3.8,3.8,0,0,0-1.748-.361,3.264,3.264,0,0,0-1.855.469,1.493,1.493,0,0,0-.693,1.309,1.239,1.239,0,0,0,.684,1.152,8.368,8.368,0,0,0,1.875.6l2.48.6a6.413,6.413,0,0,1,2.461,1.045,3.519,3.519,0,0,1,1.289,2.939,4.148,4.148,0,0,1-1.509,3.276,6.321,6.321,0,0,1-4.263,1.3,6.914,6.914,0,0,1-4.424-1.284,4.267,4.267,0,0,1-1.611-3.53Zm17.1-1h3.652l-1.8-5.664ZM71.2,9.605h3.4L79.7,24H76.436l-.928-2.959h-5.3l-1,2.959H66.064Zm12.322,0h3.008V21.412H93.66V24H83.523Zm24.861,2.549h-7.617v3.057h6.992v2.5h-6.992v3.7h7.969V24H97.828V9.605h10.557Zm3.631,13.652h2.266V11.461h-2.266V9.469h4.9V27.848h-4.9Z" transform="translate(116.967 14.814)" fill="#fff"/>
</svg>
