<svg xmlns="http://www.w3.org/2000/svg" width="226.277" height="15.186" viewBox="0 0 226.277 15.186">
  <path id="Path_77" data-name="Path 77" d="M3.7-4.443a2.956,2.956,0,0,0,.537,1.475,3.09,3.09,0,0,0,2.51.889,5.3,5.3,0,0,0,1.729-.234,1.67,1.67,0,0,0,1.26-1.67,1.232,1.232,0,0,0-.625-1.1,6.721,6.721,0,0,0-1.963-.674L5.625-6.1a9.627,9.627,0,0,1-3.105-1.1,3.51,3.51,0,0,1-1.455-3.115,4.16,4.16,0,0,1,1.406-3.213A5.946,5.946,0,0,1,6.6-14.814a6.281,6.281,0,0,1,3.882,1.206,4.306,4.306,0,0,1,1.685,3.5H9.277a2.065,2.065,0,0,0-1.133-1.846A3.8,3.8,0,0,0,6.4-12.314a3.264,3.264,0,0,0-1.855.469,1.493,1.493,0,0,0-.693,1.309,1.239,1.239,0,0,0,.684,1.152,8.368,8.368,0,0,0,1.875.6l2.48.6a6.413,6.413,0,0,1,2.461,1.045,3.519,3.519,0,0,1,1.289,2.939A4.148,4.148,0,0,1,11.128-.933,6.321,6.321,0,0,1,6.865.371,6.914,6.914,0,0,1,2.441-.913,4.267,4.267,0,0,1,.83-4.443Zm23.621-9.951v2.549H23.016V0H19.988V-11.846H15.662v-2.549Zm6.219,8.955h3.652L35.4-11.1Zm.186-8.955h3.4L42.223,0H38.961l-.928-2.959h-5.3L31.734,0H28.59Zm15.242,2.5v3.174H52.5a2.947,2.947,0,0,0,1.538-.356,1.355,1.355,0,0,0,.591-1.265,1.288,1.288,0,0,0-.781-1.328,5.529,5.529,0,0,0-1.719-.225Zm0,5.557V-2.5H52.5a3.47,3.47,0,0,0,1.475-.254,1.808,1.808,0,0,0,.957-1.8,1.544,1.544,0,0,0-.928-1.543,3.717,3.717,0,0,0-1.455-.244Zm4.121-8.057a4.447,4.447,0,0,1,3.75,1.533,3.648,3.648,0,0,1,.664,2.2,3.213,3.213,0,0,1-.664,2.119,3.428,3.428,0,0,1-1.094.82,3.209,3.209,0,0,1,1.665,1.27,3.8,3.8,0,0,1,.562,2.109,4.192,4.192,0,0,1-.645,2.295A3.978,3.978,0,0,1,56.3-.918,4,4,0,0,1,54.667-.2a10.083,10.083,0,0,1-2.046.2H46.1V-14.395ZM65.246,0H62.258V-14.395h2.988Zm4.8-14.395h3.008V-2.588h7.129V0H70.049ZM87.02,0H84.031V-14.395H87.02Zm15.262-14.395v2.549H97.975V0H94.947V-11.846H90.621v-2.549Zm11.971,0h3.408L112.846-5.41V0h-3.008V-5.41l-4.98-8.984H108.4l2.988,6.27Zm17.252,2.5v3.174h3.535a2.947,2.947,0,0,0,1.538-.356,1.355,1.355,0,0,0,.591-1.265,1.288,1.288,0,0,0-.781-1.328,5.529,5.529,0,0,0-1.719-.225Zm0,5.557V-2.5h3.535a3.47,3.47,0,0,0,1.475-.254,1.808,1.808,0,0,0,.957-1.8,1.544,1.544,0,0,0-.928-1.543,3.717,3.717,0,0,0-1.455-.244Zm4.121-8.057a4.447,4.447,0,0,1,3.75,1.533,3.648,3.648,0,0,1,.664,2.2,3.213,3.213,0,0,1-.664,2.119,3.428,3.428,0,0,1-1.094.82,3.209,3.209,0,0,1,1.665,1.27,3.8,3.8,0,0,1,.562,2.109,4.192,4.192,0,0,1-.645,2.295,3.978,3.978,0,0,1-1.025,1.133A4,4,0,0,1,137.2-.2a10.083,10.083,0,0,1-2.046.2h-6.523V-14.395Zm9.4,0h3.057v8.848a5,5,0,0,0,.352,2.168,2.333,2.333,0,0,0,2.383,1.211,2.324,2.324,0,0,0,2.373-1.211,5,5,0,0,0,.352-2.168v-8.848H156.6v8.848a7.411,7.411,0,0,1-.713,3.574Q154.559.371,150.818.371T145.74-1.973a7.411,7.411,0,0,1-.713-3.574ZM164.225,0h-2.988V-14.395h2.988Zm4.8-14.395h3.008V-2.588h7.129V0H169.027Zm17.137,2.5V-2.5h2.773a3,3,0,0,0,2.969-2.1,7.406,7.406,0,0,0,.459-2.744,6.756,6.756,0,0,0-.688-3.374,2.906,2.906,0,0,0-2.739-1.177Zm3.281-2.5a7.566,7.566,0,0,1,2.227.313,4.752,4.752,0,0,1,2.451,1.826,6.406,6.406,0,0,1,1.025,2.324,11.157,11.157,0,0,1,.273,2.383,9.567,9.567,0,0,1-1.152,4.863A5.2,5.2,0,0,1,189.445,0h-6.2V-14.395Zm20.887,2.549h-7.617v3.057h6.992v2.5h-6.992v3.7h7.969V0H199.775V-14.395h10.557Zm7.7-.049v3.867h3.408a3.8,3.8,0,0,0,1.523-.234,1.6,1.6,0,0,0,.9-1.621A1.789,1.789,0,0,0,223-11.641a3.285,3.285,0,0,0-1.465-.254Zm4.121-2.5a6.578,6.578,0,0,1,2.329.371,3.639,3.639,0,0,1,1.382,1.006,4.457,4.457,0,0,1,.742,1.211,3.947,3.947,0,0,1,.273,1.514,4.313,4.313,0,0,1-.518,2.017,2.893,2.893,0,0,1-1.709,1.4,2.688,2.688,0,0,1,1.411,1.138,4.736,4.736,0,0,1,.415,2.251v.967a7.4,7.4,0,0,0,.078,1.338,1.2,1.2,0,0,0,.547.82V0H223.8q-.137-.479-.2-.771a7.089,7.089,0,0,1-.127-1.24l-.02-1.338a2.614,2.614,0,0,0-.5-1.836,2.668,2.668,0,0,0-1.812-.459h-3.105V0H215.1V-14.395Z" transform="translate(-0.83 14.814)" fill="#fff"/>
</svg>
