<svg xmlns="http://www.w3.org/2000/svg" width="165.381" height="39.127" viewBox="0 0 165.381 39.127">
  <path id="Path_2" data-name="Path 2" d="M-80.757-14.346l4.121,12.217,4.072-12.217h2.178L-75.62,0h-2.061l-5.225-14.346Zm22.1,8.467-2.178-6.338-2.314,6.338Zm-3.193-8.467h2.2L-54.452,0h-2.129l-1.455-4.3H-63.71L-65.263,0h-1.992Zm13.17,0h1.943V-1.709h7.266V0h-9.209Zm15.309,0h10.459v1.758h-8.564v4.355h7.92v1.66h-7.92v4.863h8.711V0H-33.376Zm17.154,0h2.295L-6.681-2.725V-14.346h1.846V0H-7.013l-7.354-11.611V0h-1.855Zm28.883,0v1.709H7.827V0H5.854V-12.637H1.021v-1.709Zm6.217,0h1.963V0H18.878Zm9.117,0H30.29L37.536-2.725V-14.346h1.846V0H37.2L29.851-11.611V0H28Zm18.629,0H57.083v1.758H48.519v4.355h7.92v1.66h-7.92v4.863h8.711V0H46.624Zm18.932,0L65.233-8.6H64.1l-.322-5.742Zm7.311,9.717a3.92,3.92,0,0,0,.576,1.982,3.819,3.819,0,0,0,3.408,1.426,6.033,6.033,0,0,0,1.992-.312A2.214,2.214,0,0,0,80.581-3.7a1.872,1.872,0,0,0-.732-1.67,7.4,7.4,0,0,0-2.324-.85L75.581-6.66a8.8,8.8,0,0,1-2.7-.947,3,3,0,0,1-1.367-2.686,4.135,4.135,0,0,1,1.338-3.174,5.368,5.368,0,0,1,3.789-1.24,6.581,6.581,0,0,1,3.833,1.089,3.93,3.93,0,0,1,1.577,3.481H80.229A3.6,3.6,0,0,0,79.6-11.9a3.631,3.631,0,0,0-3.018-1.123,3.491,3.491,0,0,0-2.471.723,2.262,2.262,0,0,0-.752,1.68,1.64,1.64,0,0,0,.879,1.543,12.9,12.9,0,0,0,2.607.781l2.012.459a6.164,6.164,0,0,1,2.246.908,3.4,3.4,0,0,1,1.367,2.92A3.645,3.645,0,0,1,80.742-.605,7.763,7.763,0,0,1,76.714.42,6.024,6.024,0,0,1,72.524-.947,4.613,4.613,0,0,1,71.04-4.629ZM-81.65,9.654H-71.7v1.758h-8.008v4.355h7.041v1.709h-7.041V24H-81.65Zm16.031,0h1.943V22.291h7.266V24h-9.209Zm22.486,8.467-2.178-6.338-2.314,6.338Zm-3.193-8.467h2.2L-38.924,24h-2.129l-1.455-4.3h-5.674L-49.734,24h-1.992Zm14.439,9.717a3.92,3.92,0,0,0,.576,1.982A3.819,3.819,0,0,0-27.9,22.779a6.033,6.033,0,0,0,1.992-.312A2.214,2.214,0,0,0-24.172,20.3a1.872,1.872,0,0,0-.732-1.67,7.4,7.4,0,0,0-2.324-.85l-1.943-.439a8.8,8.8,0,0,1-2.7-.947,3,3,0,0,1-1.367-2.686A4.135,4.135,0,0,1-31.9,10.533a5.368,5.368,0,0,1,3.789-1.24,6.581,6.581,0,0,1,3.833,1.089A3.93,3.93,0,0,1-22.7,13.863h-1.826a3.6,3.6,0,0,0-.625-1.768,3.631,3.631,0,0,0-3.018-1.123,3.491,3.491,0,0,0-2.471.723,2.262,2.262,0,0,0-.752,1.68,1.64,1.64,0,0,0,.879,1.543A12.9,12.9,0,0,0-27.9,15.7l2.012.459a6.164,6.164,0,0,1,2.246.908,3.4,3.4,0,0,1,1.367,2.92,3.645,3.645,0,0,1-1.733,3.408,7.763,7.763,0,0,1-4.028,1.025,6.024,6.024,0,0,1-4.189-1.367,4.613,4.613,0,0,1-1.484-3.682Zm16.119-9.717H-13.8v5.928h7.461V9.654h1.963V24H-6.344V17.291H-13.8V24h-1.963Zm29.221,9.717a3.92,3.92,0,0,0,.576,1.982,3.819,3.819,0,0,0,3.408,1.426,6.033,6.033,0,0,0,1.992-.312A2.214,2.214,0,0,0,21.168,20.3a1.872,1.872,0,0,0-.732-1.67,7.4,7.4,0,0,0-2.324-.85l-1.943-.439a8.8,8.8,0,0,1-2.7-.947,3,3,0,0,1-1.367-2.686,4.135,4.135,0,0,1,1.338-3.174,5.368,5.368,0,0,1,3.789-1.24,6.581,6.581,0,0,1,3.833,1.089,3.93,3.93,0,0,1,1.577,3.481H20.816a3.6,3.6,0,0,0-.625-1.768,3.631,3.631,0,0,0-3.018-1.123A3.491,3.491,0,0,0,14.7,11.7a2.262,2.262,0,0,0-.752,1.68,1.64,1.64,0,0,0,.879,1.543,12.9,12.9,0,0,0,2.607.781l2.012.459a6.164,6.164,0,0,1,2.246.908,3.4,3.4,0,0,1,1.367,2.92,3.645,3.645,0,0,1-1.733,3.408A7.763,7.763,0,0,1,17.3,24.42a6.024,6.024,0,0,1-4.189-1.367,4.613,4.613,0,0,1-1.484-3.682Zm23.434-1.25-2.178-6.338-2.314,6.338ZM33.693,9.654h2.2L41.1,24H38.967l-1.455-4.3H31.838L30.285,24H28.293Zm13.17,0h1.943V22.291h7.266V24H46.863Zm15.309,0H72.631v1.758H64.066v4.355h7.92v1.66h-7.92v4.863h8.711V24H62.172Zm17.945,0H82.1v4.717l-.479,6.211h-1l-.508-6.211Zm0,12.314h1.943V24H80.117Z" transform="translate(82.905 14.707)" fill="#fad298"/>
</svg>
