<svg xmlns="http://www.w3.org/2000/svg" width="389.334" height="15.127" viewBox="0 0 389.334 15.127">
  <path id="Path_1" data-name="Path 1" d="M2.656-14.346,6.777-2.129,10.85-14.346h2.178L7.793,0H5.732L.508-14.346Zm24.1,8.467-2.178-6.338L22.26-5.879Zm-3.193-8.467h2.2L30.961,0H28.832L27.377-4.3H21.7L20.15,0H18.158Zm15.17,0h1.943V-1.709h7.266V0H38.729Zm17.309,0H66.5v1.758H57.932v4.355h7.92v1.66h-7.92v4.863h8.711V0H56.037Zm19.154,0h2.295L84.732-2.725V-14.346h1.846V0H84.4L77.047-11.611V0H75.191Zm30.883,0v1.709H101.24V0H99.268V-12.637H94.434v-1.709Zm8.217,0h1.963V0h-1.963Zm11.117,0H127.7l7.246,11.621V-14.346h1.846V0h-2.178l-7.354-11.611V0h-1.855Zm20.629,0H156.5v1.758h-8.564v4.355h7.92v1.66h-7.92v4.863h8.711V0H146.037Zm20.932,0L166.646-8.6h-1.133l-.322-5.742Zm9.311,9.717a3.92,3.92,0,0,0,.576,1.982,3.819,3.819,0,0,0,3.408,1.426,6.033,6.033,0,0,0,1.992-.312A2.214,2.214,0,0,0,183.994-3.7a1.872,1.872,0,0,0-.732-1.67,7.4,7.4,0,0,0-2.324-.85l-1.943-.439a8.8,8.8,0,0,1-2.7-.947,3,3,0,0,1-1.367-2.686,4.135,4.135,0,0,1,1.338-3.174,5.368,5.368,0,0,1,3.789-1.24,6.581,6.581,0,0,1,3.833,1.089,3.93,3.93,0,0,1,1.577,3.481h-1.826a3.594,3.594,0,0,0-.625-1.768A3.631,3.631,0,0,0,180-13.027a3.491,3.491,0,0,0-2.471.723,2.262,2.262,0,0,0-.752,1.68,1.64,1.64,0,0,0,.879,1.543,12.9,12.9,0,0,0,2.607.781l2.012.459a6.164,6.164,0,0,1,2.246.908,3.4,3.4,0,0,1,1.367,2.92,3.645,3.645,0,0,1-1.733,3.408A7.763,7.763,0,0,1,180.127.42a6.024,6.024,0,0,1-4.189-1.367,4.613,4.613,0,0,1-1.484-3.682Zm29.813-9.717h9.951v1.758h-8.008v4.355h7.041v1.709h-7.041V0h-1.943Zm18.031,0h1.943V-1.709h7.266V0h-9.209Zm24.486,8.467-2.178-6.338-2.314,6.338Zm-3.193-8.467h2.2L252.818,0h-2.129l-1.455-4.3h-5.674L242.008,0h-1.992Zm16.439,9.717a3.92,3.92,0,0,0,.576,1.982,3.819,3.819,0,0,0,3.408,1.426,6.033,6.033,0,0,0,1.992-.312A2.214,2.214,0,0,0,269.57-3.7a1.872,1.872,0,0,0-.732-1.67,7.4,7.4,0,0,0-2.324-.85L264.57-6.66a8.8,8.8,0,0,1-2.7-.947,3,3,0,0,1-1.367-2.686,4.135,4.135,0,0,1,1.338-3.174,5.368,5.368,0,0,1,3.789-1.24,6.581,6.581,0,0,1,3.833,1.089,3.93,3.93,0,0,1,1.577,3.481h-1.826a3.6,3.6,0,0,0-.625-1.768,3.631,3.631,0,0,0-3.018-1.123,3.491,3.491,0,0,0-2.471.723,2.262,2.262,0,0,0-.752,1.68,1.64,1.64,0,0,0,.879,1.543,12.9,12.9,0,0,0,2.607.781l2.012.459a6.164,6.164,0,0,1,2.246.908,3.4,3.4,0,0,1,1.367,2.92,3.645,3.645,0,0,1-1.733,3.408A7.763,7.763,0,0,1,265.7.42a6.024,6.024,0,0,1-4.189-1.367,4.613,4.613,0,0,1-1.484-3.682Zm18.119-9.717h1.963v5.928H289.4v-5.928h1.963V0H289.4V-6.709h-7.461V0h-1.963ZM313.2-4.629a3.92,3.92,0,0,0,.576,1.982,3.819,3.819,0,0,0,3.408,1.426,6.033,6.033,0,0,0,1.992-.312A2.214,2.214,0,0,0,320.91-3.7a1.872,1.872,0,0,0-.732-1.67,7.4,7.4,0,0,0-2.324-.85L315.91-6.66a8.8,8.8,0,0,1-2.7-.947,3,3,0,0,1-1.367-2.686,4.135,4.135,0,0,1,1.338-3.174,5.368,5.368,0,0,1,3.789-1.24,6.581,6.581,0,0,1,3.833,1.089,3.93,3.93,0,0,1,1.577,3.481h-1.826a3.6,3.6,0,0,0-.625-1.768,3.631,3.631,0,0,0-3.018-1.123,3.491,3.491,0,0,0-2.471.723,2.262,2.262,0,0,0-.752,1.68,1.64,1.64,0,0,0,.879,1.543,12.9,12.9,0,0,0,2.607.781l2.012.459a6.164,6.164,0,0,1,2.246.908,3.4,3.4,0,0,1,1.367,2.92,3.645,3.645,0,0,1-1.733,3.408A7.763,7.763,0,0,1,317.043.42a6.024,6.024,0,0,1-4.189-1.367,4.613,4.613,0,0,1-1.484-3.682Zm25.434-1.25-2.178-6.338-2.314,6.338Zm-3.193-8.467h2.2L342.838,0h-2.129l-1.455-4.3H333.58L332.027,0h-1.992Zm15.17,0h1.943V-1.709h7.266V0h-9.209Zm17.309,0h10.459v1.758h-8.564v4.355h7.92v1.66h-7.92v4.863h8.711V0H367.914Zm19.945,0h1.982v4.717l-.479,6.211h-1l-.508-6.211Zm0,12.314H389.8V0h-1.943Z" transform="translate(-0.508 14.707)" fill="#fad298"/>
</svg>
