<svg xmlns="http://www.w3.org/2000/svg" width="168.773" height="31.148" viewBox="0 0 168.773 31.148">
  <g id="Group_264" data-name="Group 264" transform="translate(-385.609 -43.542)">
    <path id="Pfad_56" data-name="Pfad 56" d="M545.4,74.69l-6.709-11.013L532.312,74.69h-8.865l10.889-16.52-9.6-14.533h8.944l5.342,8.865,5.175-8.865h8.9l-9.482,14.7,10.765,16.354Zm-135.948-16.6A7.4,7.4,0,0,1,413.3,60.8a7.667,7.667,0,0,1,1.283,4.492,10.313,10.313,0,0,1-.7,3.705,7.212,7.212,0,0,1-2.156,3.043,10.313,10.313,0,0,1-2.36,1.573,10.7,10.7,0,0,1-2.38.787,13.887,13.887,0,0,1-2.547.27q-1.325.02-2.857.02h-15.97V55.478h16.721a4.619,4.619,0,0,0,2.235-.5,2.013,2.013,0,0,0,.91-1.947,2.636,2.636,0,0,0-.248-1.222,1.874,1.874,0,0,0-.683-.745,2.594,2.594,0,0,0-.994-.352,8.015,8.015,0,0,0-1.18-.084h-4.826V43.678h3.75q1.408,0,2.755.062a14.669,14.669,0,0,1,2.607.352,9.359,9.359,0,0,1,2.4.91,7.992,7.992,0,0,1,2.132,1.738,6.876,6.876,0,0,1,1.454,2.337,7.938,7.938,0,0,1,.455,2.712,7.417,7.417,0,0,1-.932,3.663,6.56,6.56,0,0,1-2.712,2.636ZM392.7,67.775h10.582a6.552,6.552,0,0,0,1.408-.145,3.578,3.578,0,0,0,1.18-.479,2.41,2.41,0,0,0,.828-.91,3.046,3.046,0,0,0,.31-1.448,2.707,2.707,0,0,0-.31-1.367,2.17,2.17,0,0,0-.828-.828,3.517,3.517,0,0,0-1.2-.393,9.233,9.233,0,0,0-1.386-.1H392.7v5.675Zm39.605,6.914a16.018,16.018,0,0,1-11.055-4.368,15.326,15.326,0,0,1-3.417-4.843,14.46,14.46,0,0,1-1.263-6.025,17.106,17.106,0,0,1,1.2-6.377,11.979,11.979,0,0,1,1.947-3.312,15,15,0,0,1,5.528-4.6,16.272,16.272,0,0,1,7.1-1.531,16.042,16.042,0,0,1,6.148,1.18,15.67,15.67,0,0,1,5.032,3.27,15.405,15.405,0,0,1,3.394,4.927,15.837,15.837,0,0,1,0,12.3,15.4,15.4,0,0,1-3.4,4.927,15.613,15.613,0,0,1-5.051,3.271,16.2,16.2,0,0,1-6.17,1.18Zm.042-24.387a7.806,7.806,0,0,0-3.333.7,7.7,7.7,0,0,0-2.567,1.907,8.727,8.727,0,0,0-1.635,2.775,9.629,9.629,0,0,0-.58,3.354,10.092,10.092,0,0,0,.58,3.436,8.438,8.438,0,0,0,1.656,2.816,8.134,8.134,0,0,0,2.608,1.925,7.846,7.846,0,0,0,3.4.719,7.386,7.386,0,0,0,3.272-.719,7.878,7.878,0,0,0,2.547-1.947,8.928,8.928,0,0,0,1.636-2.815,9.563,9.563,0,0,0,.58-3.291,9.675,9.675,0,0,0-.58-3.333A8.985,8.985,0,0,0,438.27,53a7.918,7.918,0,0,0-2.585-1.968,7.615,7.615,0,0,0-3.334-.719ZM466.46,74.69l-6.709-11.013L453.374,74.69h-8.865L455.4,58.17l-9.6-14.533h8.943l5.341,8.865,5.175-8.865,14.427.083c.828.011,1.663.013,2.505.042a18.989,18.989,0,0,1,2.5.248,11.884,11.884,0,0,1,2.4.662,9.142,9.142,0,0,1,2.195,1.242,9.925,9.925,0,0,1,2.857,3.81,11.821,11.821,0,0,1,.952,4.678,11.261,11.261,0,0,1-.518,3.415,9.584,9.584,0,0,1-1.512,2.94,9,9,0,0,1-2.422,2.195,8.639,8.639,0,0,1-3.25,1.18l8.363,10.558h-9.02L473.682,59.245h6.666a8.718,8.718,0,0,0,2.029-.228,4.367,4.367,0,0,0,1.657-.767,3.676,3.676,0,0,0,1.1-1.367,4.7,4.7,0,0,0,.392-2.027,4.272,4.272,0,0,0-.413-1.967,3.55,3.55,0,0,0-1.118-1.3,4.766,4.766,0,0,0-1.635-.719,8.085,8.085,0,0,0-1.925-.231h-2.935l-7.9.083-4.923,7.617,10.765,16.354Zm44.782,0a16.017,16.017,0,0,1-11.054-4.368,15.327,15.327,0,0,1-3.417-4.845,14.459,14.459,0,0,1-1.263-6.025,17.115,17.115,0,0,1,1.2-6.377,11.979,11.979,0,0,1,1.947-3.312,15,15,0,0,1,5.527-4.6,16.27,16.27,0,0,1,7.1-1.531,16.046,16.046,0,0,1,6.149,1.18,15.669,15.669,0,0,1,5.032,3.27,15.4,15.4,0,0,1,3.4,4.927,15.837,15.837,0,0,1,0,12.3,15.391,15.391,0,0,1-3.4,4.927,15.6,15.6,0,0,1-5.051,3.27,16.2,16.2,0,0,1-6.17,1.18Zm.036-24.387a7.806,7.806,0,0,0-3.333.7,7.7,7.7,0,0,0-2.561,1.906,8.734,8.734,0,0,0-1.635,2.775,9.62,9.62,0,0,0-.58,3.354,10.093,10.093,0,0,0,.58,3.436,8.439,8.439,0,0,0,1.659,2.815,8.134,8.134,0,0,0,2.608,1.925,7.842,7.842,0,0,0,3.4.719,7.381,7.381,0,0,0,3.271-.719,7.869,7.869,0,0,0,2.546-1.947,8.92,8.92,0,0,0,1.635-2.815,9.555,9.555,0,0,0,.58-3.291,9.673,9.673,0,0,0-.58-3.333,8.985,8.985,0,0,0-1.656-2.837,7.914,7.914,0,0,0-2.588-1.966,7.612,7.612,0,0,0-3.333-.719Z" fill="#fff"/>
    <path id="Pfad_57" data-name="Pfad 57" d="M385.609,43.542H392.7v7.091h-7.092Z" fill="#fff" fill-rule="evenodd"/>
  </g>
</svg>
