<svg xmlns="http://www.w3.org/2000/svg" width="153.988" height="115.58" viewBox="0 0 153.988 115.58">
  <g id="Group_262" data-name="Group 262" transform="translate(-7.327 -1.335)">
    <path id="Path_112" data-name="Path 112" d="M79.6,55.532A7.973,7.973,0,0,1,81.451,51.8c.4-.507.793-1.028,1.2-1.534a2.03,2.03,0,0,0,.191-2.494A22.436,22.436,0,0,0,81.213,45.6a7.752,7.752,0,0,1-1.9-3.912.181.181,0,0,1-.008-.042c.16-1.1-.508-1.644-1.342-2.175A7.835,7.835,0,0,1,75.2,36.2a6.047,6.047,0,0,1-.336-2.462c-.141-2.422-.234-4.846-.4-7.271-.187.807-.345,1.622-.566,2.419A9.011,9.011,0,0,1,71.865,32.7a4.919,4.919,0,0,1-4.333,1.33c-.356-.028-.7-.158-1.057-.214a3.773,3.773,0,0,1-2.554-1.763,9.217,9.217,0,0,1-1.467-4.109c-.092-.685-.13-1.377-.2-2.1-.393-.122-.946-.116-.851-.8.074-.537.287-.749.862-.879.392-1.2.686-2.379,1.156-3.481a5.888,5.888,0,0,1,3.432-3.352,4.9,4.9,0,0,1,2.223-.07c.359.031.715.128,1.072.127a3.24,3.24,0,0,1,2.708,1.688,10.174,10.174,0,0,1,1.568,4.483c.029.2.063.395.091.571a14.059,14.059,0,0,1,1.561.154c.6.125.764.444.625,1.1a183.731,183.731,0,0,1,21.922,4.363c.762-.711.834-.717,2.092-.159.113-.351.208-.7.339-1.045a4.709,4.709,0,0,1,3.38-3.235,8.31,8.31,0,0,1,2.172.115,2.986,2.986,0,0,1,2.122,1,5.508,5.508,0,0,1,1.506,2.915,10.687,10.687,0,0,1-2.452,8.5,3.04,3.04,0,0,1-2.04,1.207,6.832,6.832,0,0,1-1.49-.128c-.328-.039-.652-.126-.98-.154a2.356,2.356,0,0,1-1.892-1.352c-.523-.963-.925-1.991-1.374-2.979-.017.032-.094.157-.154.288-.415.9-.873,1.789-1.228,2.715a5.629,5.629,0,0,1-2.276,2.639,9.039,9.039,0,0,1-3.594,1.405,25.5,25.5,0,0,1-1.626,6.788,4.089,4.089,0,0,0,.492,3.629,13.371,13.371,0,0,1,6.2,2.912,12.729,12.729,0,0,1,2.057,2.268,3.725,3.725,0,0,1,.054,4.229c-1.9,3.43-3.733,6.892-5.59,10.342-.1.188-.166.4-.286.688a2.442,2.442,0,0,0,.658.411c.655.154,1.329.229,1.989.362a2,2,0,0,1,1.53.865,2.677,2.677,0,0,1-.669.254c-1.668.133-3.339.244-5.009.358a3.108,3.108,0,0,1-.563-.01c-.661-.076-.924-.4-.8-1.058.119-.619.3-1.227.467-1.836q.827-3.057,1.661-6.112a18.51,18.51,0,0,1,2.495-5.9.564.564,0,0,0,.041-.151A40.893,40.893,0,0,1,86.4,57.374c-1.063,1.243-2.142,2.484-3.2,3.744-1.827,2.181-3.615,4.4-5.475,6.548a6.1,6.1,0,0,1-1.76,1.359c-1.325.694-2.707,1.28-4.07,1.9-.582.266-.729.468-.515,1.076.265.756.607,1.485.937,2.217.059.131.226.212.334.324.152.158.3.323.5.553-.207.119-.332.254-.454.251-.69-.021-1.381-.054-2.067-.125a1.392,1.392,0,0,1-1.056-.746,14.353,14.353,0,0,1-.787-1.291,1.5,1.5,0,0,1-.13-.946,5.192,5.192,0,0,1,.655-1.438,16.573,16.573,0,0,0,1.653-3.023A3.268,3.268,0,0,1,73.7,65.862a1.136,1.136,0,0,0,.705-.316,8.492,8.492,0,0,0,1.117-2.021,22.242,22.242,0,0,1,3.232-6.979C79.009,56.212,79.293,55.9,79.6,55.532Zm8.43-24.065a7.5,7.5,0,0,0,.011,1.059,5.056,5.056,0,0,0,.285.948,2.765,2.765,0,0,1,.111,2.272.85.85,0,0,0-.047.254c-.081.595-.165,1.185-.988,1.163l.06.984c.19.123.357.234.528.34.588.367.747.307,1.311-.078a3.79,3.79,0,0,1,1.387-.606c1.749-.329,3.511-.589,5.137-.854a19.115,19.115,0,0,1,.939-1.682A14.416,14.416,0,0,0,98.794,30.9a122.949,122.949,0,0,0-22.18-4.652L77.768,34.2a23.575,23.575,0,0,1,4.743,3.465l.684-.927c-.2-.349-.416-.716-.628-1.085a7.243,7.243,0,0,1-.548-.974c-.78-2.037.211-3.509,1.706-3.928a5.365,5.365,0,0,1,4.308.714Z" fill="#fff"/>
    <g id="Group_261" data-name="Group 261">
      <path id="Path_111" data-name="Path 111" d="M39.641,47.511v-4.25c.053-.443.123-.884.155-1.328a41.274,41.274,0,0,1,1.545-8.611A44.213,44.213,0,0,1,80.911,1.454a40.258,40.258,0,0,1,13.8,1.33q22.212,6.232,30.472,27.83a38.63,38.63,0,0,1,2.252,9.6c.112,1.016.219,2.033.328,3.05v4.25c-.029.184-.072.366-.086.551a44.665,44.665,0,0,1-1.064,7.254A43.615,43.615,0,0,1,109.2,81.225a43.177,43.177,0,0,1-24.843,8.161,42.191,42.191,0,0,1-10.839-1.194,43.7,43.7,0,0,1-23-13.92,43.126,43.126,0,0,1-9.009-16.29,40.924,40.924,0,0,1-1.531-7.467C39.868,49.513,39.752,48.512,39.641,47.511ZM83.7,79.787A34.479,34.479,0,1,0,59.164,69.495,34.407,34.407,0,0,0,83.7,79.787Z" fill="#fff"/>
      <path id="Path_113" data-name="Path 113" d="M7.327,97.835h5.886a16.95,16.95,0,0,1,2.606.146,3.828,3.828,0,0,1,1.537.607,3.782,3.782,0,0,1,1.13,1.231,3.331,3.331,0,0,1,.452,1.722,3.492,3.492,0,0,1-2.069,3.195,3.874,3.874,0,0,1,2.069,1.336,3.546,3.546,0,0,1,.723,2.22,4.377,4.377,0,0,1-.467,1.954,3.938,3.938,0,0,1-1.276,1.517,4.216,4.216,0,0,1-1.994.7q-.744.08-3.586.1H7.327Zm2.973,2.451v3.405h1.949q1.738,0,2.159-.05a1.964,1.964,0,0,0,1.2-.527,1.554,1.554,0,0,0,.437-1.15,1.615,1.615,0,0,0-.377-1.11,1.7,1.7,0,0,0-1.12-.517q-.442-.051-2.541-.051Zm0,5.856v3.937h2.752a13.486,13.486,0,0,0,2.039-.09,1.844,1.844,0,0,0,1.08-.588,1.809,1.809,0,0,0,.417-1.25,1.92,1.92,0,0,0-.322-1.125,1.814,1.814,0,0,0-.929-.673,10.1,10.1,0,0,0-2.636-.211Z" fill="#fff"/>
      <path id="Path_114" data-name="Path 114" d="M24.34,112.561H21.517V101.894h2.622v1.517a4.558,4.558,0,0,1,1.21-1.416,2.23,2.23,0,0,1,1.22-.341,3.585,3.585,0,0,1,1.858.533l-.874,2.461a2.478,2.478,0,0,0-1.326-.462,1.565,1.565,0,0,0-1,.326,2.228,2.228,0,0,0-.648,1.18,16.778,16.778,0,0,0-.236,3.576Z" fill="#fff"/>
      <path id="Path_115" data-name="Path 115" d="M35.306,109.166l2.812.472a4.613,4.613,0,0,1-1.712,2.355,5.031,5.031,0,0,1-2.928.809,4.772,4.772,0,0,1-4.118-1.818,6.107,6.107,0,0,1-1.055-3.676,5.89,5.89,0,0,1,1.386-4.154,4.566,4.566,0,0,1,3.505-1.5,4.736,4.736,0,0,1,3.757,1.572,6.955,6.955,0,0,1,1.316,4.816H31.2a2.855,2.855,0,0,0,.683,1.954,2.136,2.136,0,0,0,1.627.7,1.729,1.729,0,0,0,1.115-.361A2.235,2.235,0,0,0,35.306,109.166Zm.161-2.853a2.717,2.717,0,0,0-.633-1.864,1.942,1.942,0,0,0-1.466-.638,1.962,1.962,0,0,0-1.527.673,2.6,2.6,0,0,0-.592,1.828Z" fill="#fff"/>
      <path id="Path_116" data-name="Path 116" d="M42.165,105.148l-2.561-.462a3.989,3.989,0,0,1,1.487-2.29,5.436,5.436,0,0,1,3.134-.744,6.75,6.75,0,0,1,2.812.447,2.806,2.806,0,0,1,1.3,1.135,5.816,5.816,0,0,1,.377,2.526l-.03,3.294a11.451,11.451,0,0,0,.136,2.074,6.041,6.041,0,0,0,.507,1.431H46.534q-.11-.281-.271-.834-.07-.251-.1-.331a5.089,5.089,0,0,1-1.547,1.054,4.429,4.429,0,0,1-1.758.352,3.635,3.635,0,0,1-2.6-.894,2.971,2.971,0,0,1-.949-2.26,3.033,3.033,0,0,1,.432-1.612,2.819,2.819,0,0,1,1.21-1.085,9.447,9.447,0,0,1,2.245-.658,15.346,15.346,0,0,0,2.742-.693v-.281a1.461,1.461,0,0,0-.4-1.16,2.408,2.408,0,0,0-1.517-.347,2.022,2.022,0,0,0-1.175.3,2.059,2.059,0,0,0-.683,1.04Zm3.777,2.29a17.676,17.676,0,0,1-1.718.432,5.187,5.187,0,0,0-1.537.492,1.178,1.178,0,0,0-.552.994,1.383,1.383,0,0,0,.442,1.024,1.543,1.543,0,0,0,1.125.432,2.44,2.44,0,0,0,1.456-.5,1.767,1.767,0,0,0,.673-.934A5.573,5.573,0,0,0,45.941,108Z" fill="#fff"/>
      <path id="Path_117" data-name="Path 117" d="M50.881,112.561V97.835H53.7v7.815l3.3-3.757h3.475l-3.646,3.9,3.907,6.77H57.7l-2.682-4.791L53.7,109.145v3.415Z" fill="#fff"/>
      <path id="Path_118" data-name="Path 118" d="M61.908,100.447V97.835H64.73v2.612Zm0,12.114V101.893H64.73v10.667Z" fill="#fff"/>
      <path id="Path_119" data-name="Path 119" d="M76.812,112.561H73.99v-5.444a8.41,8.41,0,0,0-.181-2.235,1.57,1.57,0,0,0-.587-.789,1.684,1.684,0,0,0-.979-.281,2.261,2.261,0,0,0-1.316.4,2.022,2.022,0,0,0-.8,1.065,9.187,9.187,0,0,0-.216,2.451v4.831H67.089V101.894h2.622v1.567a4.371,4.371,0,0,1,5.223-1.472,2.862,2.862,0,0,1,1.17.858,3.119,3.119,0,0,1,.552,1.186,8.823,8.823,0,0,1,.156,1.9Z" fill="#fff"/>
      <path id="Path_120" data-name="Path 120" d="M78.9,113.264l3.224.391a1.1,1.1,0,0,0,.372.774,2.123,2.123,0,0,0,1.266.3,3.289,3.289,0,0,0,1.657-.331,1.371,1.371,0,0,0,.563-.714,4.3,4.3,0,0,0,.131-1.3v-1.557a3.82,3.82,0,0,1-3.194,1.728,3.932,3.932,0,0,1-3.405-1.818,6.179,6.179,0,0,1-.984-3.576,5.882,5.882,0,0,1,1.291-4.1,4.166,4.166,0,0,1,3.209-1.416,3.908,3.908,0,0,1,3.264,1.738v-1.5h2.642v9.573a9.524,9.524,0,0,1-.311,2.823,3.5,3.5,0,0,1-.874,1.466,3.867,3.867,0,0,1-1.5.834,7.9,7.9,0,0,1-2.375.3,6.149,6.149,0,0,1-3.847-.929,2.915,2.915,0,0,1-1.135-2.355C78.889,113.512,78.892,113.4,78.9,113.264Zm2.521-6.258a3.848,3.848,0,0,0,.658,2.486,2.034,2.034,0,0,0,1.622.788,2.241,2.241,0,0,0,1.747-.809,3.519,3.519,0,0,0,.713-2.4,3.734,3.734,0,0,0-.683-2.461,2.168,2.168,0,0,0-1.727-.8,2.085,2.085,0,0,0-1.672.789,3.7,3.7,0,0,0-.658,2.406Z" fill="#fff"/>
      <path id="Path_121" data-name="Path 121" d="M96.393,112.561V97.835h4.449l2.672,10.045,2.642-10.045h4.46v14.725h-2.762V100.969l-2.923,11.592h-2.862L99.154,100.97v11.591Z" fill="#fff"/>
      <path id="Path_122" data-name="Path 122" d="M120.055,112.561v-1.6a4.109,4.109,0,0,1-1.532,1.346,4.294,4.294,0,0,1-2,.492,3.92,3.92,0,0,1-1.929-.472A2.787,2.787,0,0,1,113.355,111a5.905,5.905,0,0,1-.382-2.36v-6.75H115.8v4.9a13.572,13.572,0,0,0,.156,2.757,1.5,1.5,0,0,0,.568.8,1.746,1.746,0,0,0,1.044.3,2.222,2.222,0,0,0,1.3-.4,2.018,2.018,0,0,0,.783-.985,11.419,11.419,0,0,0,.211-2.878v-4.5h2.823v10.667Z" fill="#fff"/>
      <path id="Path_123" data-name="Path 123" d="M124.091,109.517l2.833-.432a2.073,2.073,0,0,0,.733,1.25,2.477,2.477,0,0,0,1.547.427,2.79,2.79,0,0,0,1.647-.4.9.9,0,0,0,.372-.753.742.742,0,0,0-.2-.533,2.26,2.26,0,0,0-.944-.372,15.207,15.207,0,0,1-4.329-1.376,2.747,2.747,0,0,1-1.265-2.4,2.958,2.958,0,0,1,1.095-2.33,5.112,5.112,0,0,1,3.395-.944,5.92,5.92,0,0,1,3.254.714,3.646,3.646,0,0,1,1.467,2.109l-2.662.492a1.643,1.643,0,0,0-.648-.954,2.365,2.365,0,0,0-1.36-.332,3.069,3.069,0,0,0-1.6.311.669.669,0,0,0-.322.573.624.624,0,0,0,.281.512,10.607,10.607,0,0,0,2.637.794,7.857,7.857,0,0,1,3.149,1.255,2.61,2.61,0,0,1,.884,2.1,3.223,3.223,0,0,1-1.225,2.521A5.427,5.427,0,0,1,129.2,112.8a5.951,5.951,0,0,1-3.45-.884A4.071,4.071,0,0,1,124.091,109.517Z" fill="#fff"/>
      <path id="Path_124" data-name="Path 124" d="M145.313,105.048l-2.783.5a2.02,2.02,0,0,0-.637-1.256,1.93,1.93,0,0,0-1.291-.421,2.11,2.11,0,0,0-1.683.728,3.733,3.733,0,0,0-.628,2.436,4.314,4.314,0,0,0,.638,2.682,2.094,2.094,0,0,0,1.712.783,1.9,1.9,0,0,0,1.316-.457,2.751,2.751,0,0,0,.723-1.572l2.772.472a4.919,4.919,0,0,1-1.657,2.883,5.13,5.13,0,0,1-3.285.975,4.885,4.885,0,0,1-3.732-1.477,6.729,6.729,0,0,1,.005-8.2,4.958,4.958,0,0,1,3.777-1.472,5.151,5.151,0,0,1,3.1.839,4.654,4.654,0,0,1,1.653,2.557Z" fill="#fff"/>
      <path id="Path_125" data-name="Path 125" d="M146.938,112.561V97.835h2.823v14.725Z" fill="#fff"/>
      <path id="Path_126" data-name="Path 126" d="M158.316,109.166l2.813.472a4.616,4.616,0,0,1-1.713,2.355,5.03,5.03,0,0,1-2.928.809,4.774,4.774,0,0,1-4.119-1.818,6.109,6.109,0,0,1-1.054-3.676,5.89,5.89,0,0,1,1.386-4.154,4.565,4.565,0,0,1,3.505-1.5,4.734,4.734,0,0,1,3.756,1.572,6.955,6.955,0,0,1,1.316,4.816h-7.071a2.854,2.854,0,0,0,.683,1.954,2.136,2.136,0,0,0,1.627.7,1.727,1.727,0,0,0,1.115-.361,2.233,2.233,0,0,0,.683-1.165Zm.161-2.853a2.722,2.722,0,0,0-.633-1.864,1.942,1.942,0,0,0-1.466-.638,1.961,1.961,0,0,0-1.527.673,2.605,2.605,0,0,0-.593,1.828Z" fill="#fff"/>
    </g>
  </g>
</svg>
